{
    "section_name": "Feature - Product",
    "section_slug": "feature_product",
    "unique_section_slug": "feature_product",
    "section_enable": "on",
    "array_type": "inner-list",
    "loop_number": 1,
    "section":{
        "title":{
            "lable" : "Feature - Product Title",
            "slug" :  "feature_product_title",
            "text" : "Una agradable aroma",
            "type" : "text",
            "placeholder" : "Por favor ingrese aquí."
        },
        "button":{
            "lable" : "Feature - Product Button",
            "slug" :  "feature_product_button",
            "text" : "Ve a los productos.",
            "type" : "text",
            "placeholder" : "Por favor ingrese aquí."
        }
    }
}