{
    "section_name": "Best - Product",
    "section_slug": "best_product_second",
    "unique_section_slug": "best_product_second",
    "section_enable": "on",
    "array_type": "inner-list",
    "loop_number": 1,
    "section":{
        "title":{
            "lable" : "Title",
            "slug" :  "best_product_second_title",
            "text" : "Descuentos del Día",
            "type" : "text",
            "placeholder" : "Por favor, ingrese aquí."
        },
        "button":{
            "lable" : "Button",
            "slug" :  "best_product_second_button",
            "text" : "Mostrar más productos",
            "type" : "text",
            "placeholder" : "Por favor, ingrese aquí."
        },
        "button_left":{
            "lable" : "Product Button Left",
            "slug" :  "best_product_button_left",
            "text" : "Mostrar más",
            "type" : "text",
            "placeholder" : "Por favor, ingrese aquí."
        }
    }
}
