[
    {
        "section_name": "Home - Header",
        "section_slug": "homepage-header",
        "unique_section_slug": "homepage-header",
        "section_enable": "on",
        "array_type": "inner-list",
        "loop_number": "1",
        "inner-list": [
            {
                "field_name": "Title Text",
                "field_slug": "homepage-header-title-text",
                "field_help_text": "Por favor, agrega  el titulo del texto aquí.",
                "field_default_text": "Los descuentos de hoy.",
                "field_type": "text"
            }
        ]
    },
    {
        "section_name": "Home - Products",
        "section_slug": "homepage-products",
        "unique_section_slug": "homepage-products",
        "section_enable": "on",
        "array_type": "inner-list",
        "loop_number": "1",
        "inner-list": [
            {
                "field_name": "Title Tex",
                "field_slug": "homepage-products-title-text",
                "field_help_text": "Por favor, agrega  el titulo del texto aquí.",
                "field_default_text": "Los descuentos de hoy.",
                "field_type": "text"
            }
        ]
    },
    {
        "section_name": "Home - Banner",
        "section_slug": "homepage-banner",
        "unique_section_slug": "homepage-banner",
        "section_enable": "on",
        "array_type": "inner-list",
        "loop_number": "1",
        "inner-list": [
            {
                "field_name": "Label Text",
                "field_slug": "homepage-banner-label-text",
                "field_help_text": "Por favor, agrega la etiqueta del texto aquí.",
                "field_default_text": "Servicios de Entrega",
                "field_type": "text"
            },
            {
                "field_name": "Title Text",
                "field_slug": "homepage-banner-title-text",
                "field_help_text": "Por favor, agrega  el titulo del texto aquí.",
                "field_default_text": "Entrega las 24 horas.",
                "field_type": "text"
            },
            {
                "field_name": "Sub Text",
                "field_slug": "homepage-banner-sub-text",
                "field_help_text": "Por favor agrega el subtitulo aquí.",
                "field_default_text": "Lorem Ipsum es simplemente un texto ficticio de la industria de la impresión y composición tipográfica.",
                "field_type": "text area"
            },
            {
                "field_name": "Button Text",
                "field_slug": "homepage-banner-btn-text",
                "field_help_text": "Por favor, agrega el texto del botón aquí.",
                "field_default_text": "Ve a la entrega",
                "field_type": "button"
            },
            {
                "field_name": "Image",
                "field_slug": "homepage-banner-img",
                "field_help_text": "Por favor, sube una imagen aqui.",
                "field_default_text": "themes/supermarket/assets/img/abt.jpg",
                "field_type": "photo upload"
            }
        ]
    },
    {
        "section_name": "Home - Bestseller",
        "section_slug": "homepage-bestseller",
        "unique_section_slug": "homepage-bestseller",
        "section_enable": "on",
        "array_type": "inner-list",
        "loop_number": "1",
        "inner-list": [
            {
                "field_name": "Title Text",
                "field_slug": "homepage-bestseller-title-text",
                "field_help_text": "Por favor, agrega  el titulo del texto aquí.",
                "field_default_text": "Los descuentos de hoy.",
                "field_type": "text"
            }
        ]
    },
    {
        "section_name": "Home - Category",
        "section_slug": "homepage-category",
        "unique_section_slug": "homepage-category",
        "section_enable": "on",
        "array_type": "inner-list",
        "loop_number": "1",
        "inner-list": [
            {
                "field_name": "Title Text",
                "field_slug": "homepage-category-title-text",
                "field_help_text": "Por favor, agrega  el titulo del texto aquí.",
                "field_default_text": "Juego",
                "field_type": "text"
            },
            {
                "field_name": "Sub Text",
                "field_slug": "homepage-category-sub-text",
                "field_help_text": "Por favor agrega el subtitulo aquí.",
                "field_default_text": "Lorem Ipsum es simplemente un texto ficticio de la industria de la impresión y composición tipográfica.",
                "field_type": "text area"
            },
            {
                "field_name": "Button Text",
                "field_slug": "homepage-category-btn-text",
                "field_help_text": "Por favor, agrega el texto del botón aquí.",
                "field_default_text": "Muestra productos",
                "field_type": "button"
            }
        ]
    },
    {
        "section_name": "Home - Testimonial",
        "section_slug": "homepage-testimonial",
        "unique_section_slug": "homepage-testimonial",
        "section_enable": "on",
        "array_type": "inner-list",
        "loop_number": "1",
        "inner-list": [
            {
                "field_name": "Title Text",
                "field_slug": "homepage-testimonial-title-text",
                "field_help_text": "Por favor, agrega  el titulo del texto aquí.",
                "field_default_text": "Testimonios",
                "field_type": "text"
            },
            {
                "field_name": "Sub Text",
                "field_slug": "homepage-testimonial-sub-text",
                "field_help_text": "Por favor agrega el subtitulo aquí.",
                "field_default_text": "Lorem Ipsum es simplemente un texto ficticio de la industria de la impresión y composición tipográfica.",
                "field_type": "text area"
            },
            {
                "field_name": "Button Text",
                "field_slug": "homepage-testimonial-btn-text",
                "field_help_text": "Por favor, agrega el texto del botón aquí.",
                "field_default_text": "Muestra productos",
                "field_type": "button"
            }
        ]
    },
    {
        "section_name": "Home - Newsletter",
        "section_slug": "homepage-newsletter",
        "unique_section_slug": "homepage-newsletter",
        "section_enable": "on",
        "array_type": "inner-list",
        "loop_number": "1",
        "inner-list": [
            {
                "field_name": "Title Text",
                "field_slug": "homepage-newsletter-title-text",
                "field_help_text": "Por favor, agrega  el titulo del texto aquí.",
                "field_default_text": "Subscríbete al boletín informativo y obtén un descuento del 20%",
                "field_type": "text"
            },
            {
                "field_name": "Sub Text",
                "field_slug": "homepage-newsletter-sub-text",
                "field_help_text": "Por favor agrega el subtitulo aquí.",
                "field_default_text": "Lorem Ipsum es simplemente un texto ficticio de la industria de la impresión y composición tipográfica.",
                "field_type": "text area"
            },
            {
                "field_name": "Description Text",
                "field_slug": "homepage-newsletter-description-text",
                "field_help_text": "por favor, añade la descripción aqui. ",
                "field_default_text": "Lorem Ipsum es simplemente un texto ficticio de la industria de la impresión y composición tipográfica.",
                "field_type": "text area"
            }
        ]
    }
]
