{
    "section_name": "Best Product",
    "section_slug": "best_product_second",
    "unique_section_slug": "best_product_second",
    "section_enable": "on",
    "array_type": "inner-list",
    "loop_number": 1,
    "section":{
        "title": {
            "lable": "Title",
            "slug": "best_product_second_title",
            "text": "Más vendidos",
            "type": "text",
            "placeholder": "Por favor, ingresa aquí.."
        },
        "button": {
            "lable": "Button",
            "slug": "best_product_second_button",
            "text": "Más productos",
            "type": "button",
            "placeholder": "Por favor, ingresa aquí.."
        },
        "image": {
            "lable": "Image",
            "slug": "best_product_second_image",
            "text": "themes/gifts/assets/img/review-main.png",
            "image": "themes/gifts/assets/img/review-main.png",
            "type": "file",
            "placeholder": "Por favor, selecciona un archivo"
        }
              
    }
}