{
    "section_name": "Blog",
    "section_slug": "blog",
    "unique_section_slug": "blog",
    "section_enable": "on",
    "array_type": "inner-list",
    "loop_number": 1,
    "section":{
        "title": {
            "lable": "Blog Title",
            "slug": "blog_title",
            "text": "<b>Acerca de</b> el blog",
            "type": "text",
            "placeholder": "Por favor, ingresa aquí.."
        },
        "button": {
            "lable": "Button",
            "slug": "blog_button",
            "text": "Ver todos los blogs",
            "type": "textarea",
            "placeholder": "Por favor, ingresa aquí.."
        }
              
    }
}