{
    "section_name": "Footer - Section",
    "section_slug": "footer",
    "unique_section_slug": "footer",
    "section_enable": "on",
    "array_type": "inner-list",
    "loop_number": 1,
    "section":{
            "title": {
                "lable": "Footer Section Title",
                "slug": "footer_title",
                "text": "+00 544-213-615",
                "type": "textarea",
                "placeholder": "Por favor, ingresa aquí.."
            },
            "sub_title": {
                "lable": "Footer Section Sub Title",
                "slug": "footer_sub_title",
                "text": "Llama y obtén más información:",
                "type": "textarea",
                "placeholder": "Por favor, ingresa aquí.."
            },
            "description": {
                "lable": "Footer Section Description",
                "slug": "footer_description",
                "text": "Gifts es un minorista de estilo de vida dedicado a inspirar a los clientes a través de una combinación única",
                "type": "textarea",
                "placeholder": "Por favor, ingresa aquí.."
            },
            "footer_link": {
                "lable": "Footer Links",
                "slug": "footer_links",
                "text": "Footer Links",
                "type": "array",
                "loop_number": 4,
                "social_link": [
                    "https://www.youtube.com/",
                    "https://www.youtube.com/",
                    "https://www.youtube.com/",
                    "https://www.youtube.com/"
                ],
                "social_icon": [
                    {
                        "text": "themes/gifts/assets/img/youtube.svg",
                        "image": "themes/gifts/assets/img/youtube.svg"
                    },
                    {
                        "text": "themes/gifts/assets/img/youtube.svg",
                        "image": "themes/gifts/assets/img/youtube.svg"
                    },
                    {
                        "text": "themes/gifts/assets/img/youtube.svg",
                        "image": "themes/gifts/assets/img/youtube.svg"
                    },
                    {
                        "text": "themes/gifts/assets/img/youtube.svg",
                        "image": "themes/gifts/assets/img/youtube.svg"
                    }
                ]
            },
            "newsletter_title": {
                "lable": "Footer Newsletter Title",
                "slug": "footer_newsletter_title",
                "text": "<b>Regalos para </b> <br> todas las ocasiones",
                "type": "textarea",
                "placeholder": "Por favor, ingresa aquí.."
            },
            "newsletter_sub_title": {
                "lable": "Footer Newsletter Title",
                "slug": "footer_newsletter_sub_title",
                "text": "Gifts es un minorista de estilo de vida dedicado a inspirar a los clientes a través de una combinación única",
                "type": "textarea",
                "placeholder": "Por favor, ingresa aquí.."
            },
            "newsletter_description": {
                "lable": "Footer Newsletter Title",
                "slug": "footer_newsletter_description",
                "text": "Gifts es un minorista de estilo de vida dedicado a inspirar a los clientes a través de una combinación única",
                "type": "textarea",
                "placeholder": "Por favor, ingresa aquí.."
            },
            "copy_right": {
                "lable": "Copy Rights",
                "slug": "footer_copy_right",
                "text": "© 2023, Gifts. Todos los derechos reservados",
                "type": "textarea",
                "placeholder": "Por favor, ingresa aquí.."
            },
            "footer_menu_type": {
                "lable": "Footer Menu Type",
                "slug": "footer_menu_type",
                "text": "footer_menu_bar",
                "type": "array",
                "loop_number": 3,
                "footer_menu_ids": []
            
        }
        
    }
}
