{
    "section_name": "Product Category",
    "section_slug": "product_category",
    "unique_section_slug": "product_category",
    "section_enable": "on",
    "array_type": "inner-list",
    "loop_number": 1,
    "section":{
        "title":{
            "lable" : "Product Category Title",
            "slug" :  "product_category_title",
            "text" :  "Regalos Personalizados",
            "type" : "text",
            "placeholder" : "Por favor, ingresa aquí..."
        },
        "description":{
            "lable" : "Product Category Description",
            "slug" :  "product_category_description",
            "text" : "Explora el organizador de escritorio hecho de tablero de melamina de alta calidad sobre MDF con 4 colores diferentes.",
            "type" : "text",
            "placeholder" : "Por favor, ingresa aquí..."
        },
        "button":{
            "lable" : "Button",
            "slug" :  "product_category_button",
            "text" : "Leer Más",
            "type" : "button",
            "placeholder" : "Por favor, ingresa aquí..."
        },
        "image":{
            "lable" : "Image",
            "slug" :  "product_category_image",
            "text" : "themes/gifts/assets/images/add-banner-2.png",
            "image": "themes/gifts/assets/images/add-banner-2.png",
            "type" : "file",
            "placeholder" : "Por favor, selecciona un archivo"
        }
        
    }
}
