{
    "section_name": "Blog",
    "section_slug": "blog",
    "unique_section_slug": "blog",
    "section_enable": "on",
    "array_type": "inner-list",
    "loop_number": 1,
    "section":{
        "title":{
            "lable" : "Blog Title",
            "slug" :  "blog_title",
            "text" : "Tendencias principales de zapatillas <b> para el año 2022 </b>",
            "type" : "text",
            "placeholder" : "Por favor, ingrese aquí."
        },
        "button":{
            "lable" : "Blog Button",
            "slug" :  "blog_button",
            "text" : "Leer más.",
            "type" : "textarea",
            "placeholder" : "Por favor, ingrese aquí."
        }
    }
}
