{
    "section_name": "Footer - Section",
    "section_slug": "footer",
    "unique_section_slug": "footer",
    "section_enable": "on",
    "array_type": "inner-list",
    "loop_number": 1,
    "section":{
        "title":{
            "lable" : "Footer Title",
            "slug" :  "footer_text",
            "text" : "<b>Suscríbete al boletín</b> y obtén un descuento del 20%",
            "type" : "text",
            "placeholder" : "Por favor, ingrese aquí."
        },
        "description":{
            "lable" : "Footer Section Description",
            "slug" :  "footer_description",
            "text" : "Una suscripción es un contrato entre un cliente y un proveedor de servicios. El cliente acepta pagar una tarifa regular, y el proveedor de servicios acepta proporcionar al cliente",
            "type" : "textarea",
            "placeholder" : "Por favor, ingrese aquí."
        },
        "sub_description":{
            "lable" : "Footer Section Sub Description",
            "slug" :  "footer_sub_description",
            "text" : "¡Suscríbete para recibir las últimas noticias, actualizaciones y ofertas! ¡No te preocupes, no enviaremos correo no deseado!",
            "type" : "textarea",
            "placeholder" : "Por favor, ingrese aquí."
        },
        "footer_link":{
            "lable" : "Footer Links",
            "slug" :  "footer_links",
            "text" : "Enlaces del pie de página",
            "type" : "array",
            "loop_number" : 4,
            "social_link":["https://www.youtube.com/"],
            "social_icon":[
                {
                    "text":"themes/logisticsboxes/assets/img/youtube.svg",
                    "image":"themes/logisticsboxes/assets/img/youtube.svg"
                },
				{
                    "text":"themes/logisticsboxes/assets/img/youtube.svg",
                    "image":"themes/logisticsboxes/assets/img/youtube.svg"
                },
				{
                    "text":"themes/logisticsboxes/assets/img/youtube.svg",
                    "image":"themes/logisticsboxes/assets/img/youtube.svg"
                },{
                    "text":"themes/logisticsboxes/assets/img/youtube.svg",
                    "image":"themes/logisticsboxes/assets/img/youtube.svg"
                }
            ]
        },
        "footer_menu_type": {
            "lable" : "Footer Menu Type",
            "slug" :  "footer_menu_type",
            "text" : "Barra de menú del pie de página",
            "type" : "array",
            "loop_number" : 2,
            "footer_menu_ids":[]
        },

        "support_title":{
            "lable" : "footer Title",
            "slug" :  "footer_title",
            "text" : "Llama y  obtén tu almacenamiento!",
            "type" : "text",
            "placeholder" : "Por favor, ingrese aquí."
        },
        "support_value":{
            "lable" : "footer Value",
            "slug" :  "footer_value",
            "text" : "+48 222-512-234",
            "type" : "text",
            "placeholder" : "Por favor, ingrese aquí."
        },
        "menu_type": {
            "lable" : "Menu Type",
            "slug" :  "menu_type",
            "text" : "Barra de menú",
            "type" : "select",
            "placeholder" : "Por favor, selecciona...",
            "menu_ids":[]
        }
    }
}
