{
    "section_name": "Homepage Logos",
    "section_slug": "logo_slider",
    "unique_section_slug": "logo_slider",
    "section_enable": "on",
    "array_type": "multi-inner-list",
    "loop_number": 7,
    "section":{
        "image":{
            "lable" : "Logo Slider Image",
            "slug" :  "logo_slider_image",
            "text" : "themes/logisticsboxes/assets/images/logo.png",
            "image": "themes/logisticsboxes/assets/images/logo.png",
            "type" : "file",
            "placeholder" : "Por favor, selecciona el archivo."
        }
    }
}
