{
    "section_name": "Subscribe - Section",
    "section_slug": "subscribe",
    "unique_section_slug": "subscribe",
    "section_enable": "on",
    "array_type": "inner-list",
    "loop_number": 1,
    "section":{
        "title":{
            "lable" : "Subscribe Title",
            "slug" :  "subscribe_title",
            "text" : "Suscribete y obten un 20% de descuento",
            "type" : "text",
            "placeholder" : "Por favor, ingrese aquí."
        },
        "description":{
            "lable" : "Subscribe Description",
            "slug" :  "subscribe_description",
            "text" : "Una suscripción es un contrato entre un cliente y un proveedor de servicios. El cliente acepta pagar una tarifa regular, y el proveedor de servicios acepta proporcionar al cliente",
            "type" : "textarea",
            "placeholder" : "Por favor, ingrese aquí."
        },
        "image":{
            "lable" : "Subscribe Image",
            "slug" :  "subscribe_image",
            "text" : "themes/logisticsboxes/assets/images/newsletter.jpg",
            "image" : "themes/logisticsboxes/assets/images/newsletter.jpg",
            "type" : "file",
            "placeholder" : "Por favor, ingrese aquí."
        },
        "sub_description":{
            "lable" : "Subscribe Sub Description",
            "slug" :  "subscribe_sub_description",
            "text" : "¡Suscríbete para recibir las últimas noticias, actualizaciones y ofertas! ¡No te preocupes, no enviaremos correo no deseado!",
            "type" : "textarea",
            "placeholder" : "Por favor, ingrese aquí."
        }
    }
}
