{
    "section_name": "Category",
    "section_slug": "category",
    "unique_section_slug": "category",
    "section_enable": "on",
    "array_type": "inner-list",
    "loop_number": 1,
    "section":{
        "title":{
            "lable" : "Category Title",
            "slug" :  "category_title",
            "text" : "<b>Regalos por</b> Categoría",
            "type" : "text",
            "placeholder" : "Por favor, ingresa aquí.."
        },
        "button":{
            "lable" : "Category Button",
            "slug" :  "category_button",
            "text" : "Ver más productos",
            "type" : "button",
            "placeholder" : "Por favor, ingresa aquí.."
        }
           
    }
}