{
    "section_name": "Footer - Section",
    "section_slug": "footer",
    "unique_section_slug": "footer",
    "section_enable": "on",
    "array_type": "inner-list",
    "loop_number": 1,
    "section":{
        "newsletter_title": {
            "lable" : "Footer Newsletter Title",
            "slug" :  "footer_newsletter_title",
            "text" : "<b>Suscríbete al boletín y</b> <br> obtén un descuento del -20%",
            "type" : "textarea",
            "placeholder" : "Por favor, ingresa aquí..."
        },
        "newsletter_sub_title": {
            "lable" : "Footer Newsletter Subtitle",
            "slug" :  "footer_newsletter_sub_title",
            "text" : "Suscríbete para recibir las últimas noticias, actualizaciones y ofertas. ¡No te preocupes, no enviaremos spam!",
            "type" : "textarea",
            "placeholder" : "Por favor, ingresa aquí..."
        },
        "newsletter_description": {
            "lable" : "Footer Newsletter Description",
            "slug" :  "footer_newsletter_description",
            "text" : "Las bicicletas son una forma común de transporte en todo el mundo. La gente también las usa en carreras o simplemente por diversión.",
            "type" : "textarea",
            "placeholder" : "Por favor, ingresa aquí..."
        },
        "title":{
            "lable" : "Footer Title",
            "slug" :  "footer_title",
            "text" : "COMPARTIR:",
            "type" : "text",
            "placeholder" : "Please enter here..."
        },
        "sub_title":{
            "lable" : "Footer Subtitle",
            "slug" :  "footer_subtitle",
            "text" : "Llama y obtén tu prueba de manejo:",
            "type" : "text",
            "placeholder" : "Please enter here..."
        },
        "description":{
            "lable" : "Footer Section Description",
            "slug" :  "footer_description",
            "text" : "+48 222-512-234",
            "type" : "textarea",
            "placeholder" : "Please enter here.."
        },
        "footer_link":{
            "lable" : "Footer Links",
            "slug" :  "footer_links",
            "text" : "Enlaces del pie de página",
            "type" : "array",
            "loop_number" : 4,
            "social_link":["https://www.youtube.com/","https://www.facebook.com/","https://www.twitter.com/","https://www.instagram.com/"],
            "social_icon":[
                {
                    "text":"themes/generaltendency/assets/images/youtube.png",
                    "image":"themes/generaltendency/assets/images/youtube.png"
                },{
                    "text":"themes/generaltendency/assets/images/facebook.png",
                    "image":"themes/generaltendency/assets/images/facebook.png"
                },{
                    "text":"themes/generaltendency/assets/images/twitter.png",
                    "image":"themes/generaltendency/assets/images/twitter.png"
                },{
                    "text":"themes/generaltendency/assets/images/instagram.png",
                    "image":"themes/generaltendency/assets/images/instagram.png"
                }
            ]
        },
        "footer_menu_type": {
            "lable" : "Footer Menu Type",
            "slug" :  "footer_menu_type",
            "text" : "barra_de_menú_del_pie_de_página",
            "type" : "array",
            "loop_number" : 3,
            "footer_menu_ids":[]
        },
        "copy_right": {
            "lable" : "Copy Rights",
            "slug" :  "footer_copy_right",
            "text" : "© 2024, generaltrendency. Todos los derechos reservados",
            "type" : "textarea",
            "placeholder" : "Por favor, ingresa aquí..."
        }
        
    }
}
