[
    {
        "section_name": "Home - Header",
        "section_slug": "homepage-Header",
        "unique_section_slug": "homepage-Header",
        "section_enable": "on",
        "array_type": "inner-list",
        "loop_number": "1",
        "inner-list": [
            {
                "field_name": "lable",
                "field_slug": "homepage-products-label",
                "field_help_text": "Por favor, añade el texto de la etiqueta aquí.",
                "field_default_text": "Bicicleta.",
                "field_type": "text"
            },
            {
                "field_name": "Title Text",
                "field_slug": "homepage-products-title-text",
                "field_help_text": "Por favor, añade el texto del título aquí.",
                "field_default_text": "Elige tu coche soñado. Elige un modelo.",
                "field_type": "text"
            },
            {
                "field_name": "Sub Text",
                "field_slug": "homepage-products-sub-text",
                "field_help_text": "Por favor, añade el texto secundario aquí.",
                "field_default_text": "Lorem Ipsum es simplemente el texto ficticio de la industria de la impresión y composición tipográfica. Lorem Ipsum es simplemente el texto ficticio de la industria de la impresión y composición tipográfica.",
                "field_type": "text area"
            },
            {
                "field_name": "Button Text",
                "field_slug": "homepage-products-button-text",
                "field_help_text": "Por favor, añade el texto del botón aquí.",
                "field_default_text": "Mostrar más productos",
                "field_type": "button"
            },
            {
                "field_name": "Background Image",
                "field_slug": "homepage-products-image",
                "field_help_text": "Please add background image here",
                "field_default_text": "themes/generaltendency/assets/img/best-pro-1.png",
                "field_type": "photo upload"
            }
        ]
    },
    {
        "section_name": "Home - Logo",
        "section_slug": "homepage-logo",
        "unique_section_slug": "homepage-logo",
        "section_enable": "on",
        "array_type": "inner-list",
        "loop_number": "1",
        "inner-list": [
            {
                "field_name": "Logo",
                "field_slug": "homepage-logo-logo",
                "field_help_text": "Por favor, carga la imagen desde aquí.",
                "field_default_text": "themes/generaltendency/assets/img/Motorbike.png",
                "field_type": "multi file upload"
            }
        ]
    },
    {
        "section_name": "Home - Bestseller",
        "section_slug": "homepage-bestseller",
        "unique_section_slug": "homepage-bestseller",
        "section_enable": "on",
        "array_type": "inner-list",
        "loop_number": "1",
        "inner-list": [
            {
                "field_name": "Title Text",
                "field_slug": "homepage-bestseller-title-text",
                "field_help_text": "Por favor, añade el texto del título aquí.",
                "field_default_text": "La mejor tendencia general en todo el mundo",
                "field_type": "text"
            },
            {
                "field_name": "Sub Text",
                "field_slug": "homepage-bestseller-sub-text",
                "field_help_text": "Por favor, añade el texto secundario aquí.",
                "field_default_text": "Lorem Ipsum es simplemente el texto ficticio de la industria de la impresión y composición tipográfica. Lorem Ipsum es simplemente el texto ficticio de la industria de la impresión y composición tipográfica.",
                "field_type": "text area"
            }
        ]
    },
    {
        "section_name": "Home - Category",
        "section_slug": "homepage-category",
        "unique_section_slug": "homepage-category",
        "section_enable": "on",
        "array_type": "inner-list",
        "loop_number": "1",
        "inner-list": [
            {
                "field_name": "Label Text",
                "field_slug": "homepage-category-label-text",
                "field_help_text": "Por favor, añade el texto de la etiqueta aquí.",
                "field_default_text": "Motor.",
                "field_type": "text"
            },
            {
                "field_name": "Title Text",
                "field_slug": "homepage-category-title-text",
                "field_help_text": "Por favor, añade el texto del título aquí.",
                "field_default_text": "La mejor tendencia general en todo el mundo",
                "field_type": "text"
            },
            {
                "field_name": "Sub Text",
                "field_slug": "homepage-category-sub-text",
                "field_help_text": "Por favor, añade el texto secundario aquí.",
                "field_default_text": "Lorem Ipsum es simplemente el texto ficticio de la industria de la impresión y composición tipográfica. Lorem Ipsum es simplemente el texto ficticio de la industria de la impresión y composición tipográfica.",
                "field_type": "text area"
            }
        ]
    },
    {
        "section_name": "Home - Testimonial",
        "section_slug": "homepage-testimonial",
        "unique_section_slug": "homepage-testimonial",
        "section_enable": "on",
        "array_type": "inner-list",
        "loop_number": "1",
        "inner-list": [
            {
                "field_name": "Label Text",
                "field_slug": "homepage-testimonial-label-text",
                "field_help_text":"Por favor, añade el texto de la etiqueta aquí",
                "field_default_text": "Motor.",
                "field_type": "text"
            },
            {
                "field_name": "Title Text",
                "field_slug": "homepage-testimonial-title-text",
                "field_help_text": "Por favor, añade el texto del título aquí.",
                "field_default_text": "La mejor tendencia general en todo el mundo",
                "field_type": "text"
            }
        ]
    }
]