{
    "section_name": "Homepage Logo",
    "section_slug": "logo_slider",
    "unique_section_slug": "logo_slider",
    "section_enable": "on",
    "array_type": "inner-list",
    "loop_number": 10,
    "section":{
        "title":{
            "lable" : "Logo Slider Title",
            "slug" :  "logo_slider_title",
            "text" : "Los diamantes son para siempre",
            "type" : "text",
            "placeholder" : "Por favor, ingresa aquí.."
        },
        "image":{
            "lable" : "Logo Slider Image",
            "slug" :  "logo_slider_image",
            "text" : ["themes/generaltendency/assets/images/logo.png","themes/generaltendency/assets/images/logo.png","themes/generaltendency/assets/images/logo.png","themes/generaltendency/assets/images/logo.png","themes/generaltendency/assets/images/logo.png","themes/generaltendency/assets/images/logo.png","themes/generaltendency/assets/images/logo.png","themes/generaltendency/assets/images/logo.png","themes/generaltendency/assets/images/logo.png","themes/generaltendency/assets/images/logo.png","themes/generaltendency/assets/images/logo.png"],
            "image": ["themes/generaltendency/assets/images/logo.png","themes/generaltendency/assets/images/logo.png","themes/generaltendency/assets/images/logo.png","themes/generaltendency/assets/images/logo.png","themes/generaltendency/assets/images/logo.png","themes/generaltendency/assets/images/logo.png","themes/generaltendency/assets/images/logo.png","themes/generaltendency/assets/images/logo.png","themes/generaltendency/assets/images/logo.png","themes/generaltendency/assets/images/logo.png","themes/generaltendency/assets/images/logo.png"],
            "type" : "file",
            "placeholder" : "Por favor, selecciona un archivo"
        }
        
    }
}
