<svg width="9" height="6" viewBox="0 0 9 6" fill="none" xmlns="http://www.w3.org/2000/svg">
<path d="M8.33398 0.999349L4.66732 4.66602L1.00065 0.999348" stroke="white" stroke-linecap="round"/>
</svg>
