<svg width="66" height="16" viewBox="0 0 66 16" fill="none" xmlns="http://www.w3.org/2000/svg">
<path d="M4.95627 15L0.345314 0.659314H3.51408L6.88597 11.689H5.6469L8.93754 0.659314H11.436L14.7266 11.689H13.5079L16.8594 0.659314H20.0079L15.3969 15H12.8985L9.58754 3.97027H10.7657L7.45472 15H4.95627ZM24.3031 15.2031C23.3958 15.2031 22.5833 14.9797 21.8655 14.5328C21.1614 14.0859 20.5994 13.4766 20.1796 12.7047C19.7733 11.9328 19.5702 11.0526 19.5702 10.064C19.5702 9.0755 19.7733 8.19528 20.1796 7.4234C20.5994 6.65153 21.1614 6.04215 21.8655 5.59527C22.5833 5.1484 23.3958 4.92496 24.3031 4.92496C24.9666 4.92496 25.5624 5.0536 26.0906 5.3109C26.6322 5.56819 27.0723 5.92704 27.4109 6.38746C27.7494 6.83434 27.939 7.34893 27.9796 7.93122V12.1969C27.939 12.7792 27.7494 13.3005 27.4109 13.7609C27.0859 14.2078 26.6525 14.5599 26.1109 14.8172C25.5692 15.0745 24.9666 15.2031 24.3031 15.2031ZM24.9327 12.4C25.5963 12.4 26.1312 12.1833 26.5374 11.75C26.9437 11.3031 27.1468 10.7411 27.1468 10.064C27.1468 9.60362 27.052 9.19737 26.8624 8.84529C26.6864 8.4932 26.4291 8.22237 26.0906 8.03278C25.7656 7.82966 25.3864 7.72809 24.9531 7.72809C24.5197 7.72809 24.1338 7.82966 23.7952 8.03278C23.4702 8.22237 23.2062 8.4932 23.0031 8.84529C22.8135 9.19737 22.7187 9.60362 22.7187 10.064C22.7187 10.5109 22.8135 10.9104 23.0031 11.2625C23.1926 11.6146 23.4567 11.8922 23.7952 12.0953C24.1338 12.2984 24.513 12.4 24.9327 12.4ZM27.0249 15V12.3391L27.4921 9.94217L27.0249 7.54528V5.12808H30.0718V15H27.0249ZM33.6616 15V1.04525H36.7694V15H33.6616ZM31.4272 7.76872V5.12808H39.0038V7.76872H31.4272ZM44.9483 15.2234C43.9326 15.2234 43.0118 15 42.1857 14.5531C41.3597 14.1062 40.7097 13.4901 40.2357 12.7047C39.7618 11.9193 39.5248 11.039 39.5248 10.064C39.5248 9.0755 39.7618 8.19528 40.2357 7.4234C40.7232 6.63798 41.38 6.02184 42.2061 5.57496C43.0321 5.12808 43.9597 4.90464 44.9889 4.90464C45.7608 4.90464 46.4649 5.04006 47.1014 5.3109C47.7514 5.56819 48.3269 5.9609 48.828 6.48903L46.8373 8.47966C46.6071 8.22237 46.3363 8.03278 46.0248 7.91091C45.7269 7.78903 45.3816 7.72809 44.9889 7.72809C44.542 7.72809 44.1425 7.82966 43.7904 8.03278C43.4519 8.22237 43.1811 8.4932 42.9779 8.84529C42.7884 9.18383 42.6936 9.58331 42.6936 10.0437C42.6936 10.5041 42.7884 10.9104 42.9779 11.2625C43.1811 11.6146 43.4587 11.8922 43.8108 12.0953C44.1628 12.2984 44.5556 12.4 44.9889 12.4C45.3951 12.4 45.754 12.3323 46.0655 12.1969C46.3905 12.0479 46.6681 11.8448 46.8983 11.5875L48.8686 13.5781C48.354 14.1198 47.7717 14.5328 47.1217 14.8172C46.4717 15.088 45.7472 15.2234 44.9483 15.2234ZM56.7721 15V9.37341C56.7721 8.85883 56.6096 8.44581 56.2846 8.13435C55.9731 7.80934 55.5736 7.64684 55.0861 7.64684C54.7476 7.64684 54.4497 7.72132 54.1924 7.87028C53.9351 8.0057 53.732 8.20883 53.583 8.47966C53.4341 8.73695 53.3596 9.03487 53.3596 9.37341L52.1611 8.78435C52.1611 8.01247 52.3236 7.33538 52.6486 6.75309C52.9736 6.1708 53.4273 5.72392 54.0096 5.41246C54.5919 5.08746 55.2622 4.92496 56.0205 4.92496C56.7924 4.92496 57.4695 5.08746 58.0518 5.41246C58.6341 5.72392 59.081 6.16402 59.3924 6.73278C59.7174 7.28799 59.8799 7.93799 59.8799 8.68279V15H56.7721ZM50.2517 15V0.253062H53.3596V15H50.2517ZM63.826 15.2234C63.2978 15.2234 62.8577 15.0406 62.5056 14.675C62.1536 14.3094 61.9775 13.8693 61.9775 13.3547C61.9775 12.813 62.1536 12.3661 62.5056 12.014C62.8577 11.6484 63.2978 11.4656 63.826 11.4656C64.3676 11.4656 64.8077 11.6484 65.1463 12.014C65.4984 12.3661 65.6744 12.813 65.6744 13.3547C65.6744 13.8693 65.4984 14.3094 65.1463 14.675C64.8077 15.0406 64.3676 15.2234 63.826 15.2234Z" fill="#1D1D1B"/>
</svg>
