{
    "section_name": "Footer - Section",
    "section_slug": "footer",
    "unique_section_slug": "footer",
    "section_enable": "on",
    "array_type": "inner-list",
    "loop_number": 1,
    "section":{
        "description":{
            "lable" : "Footer Section Description",
            "slug" :  "footer_description",
            "text" : "Lorem Ipsum es simplemente texto ficticio de la industria de la impresión y composición tipográfica. Lorem Ipsum ha sido el texto ficticio estándar de la industria. Lorem Ipsum es simplemente texto ficticio de la industria de la impresión y composición tipográfica.",
            "type" : "textarea",
            "placeholder" : "Por favor, ingrese aquí."
        },
        "footer_link":{
            "lable" : "Footer Links",
            "slug" :  "footer_links",
            "text" : "Enlaces del pie de página",
            "type" : "array",
            "loop_number" : 4,
            "social_link":["https://www.twitter.com/","https://www.instagram.com/","https://www.messenger.com/","https://www.youtube.com/"],
            "social_icon":[
                {
                    "text":"themes/sensation/assets/images/twitter.svg",
                    "image":"themes/sensation/assets/images/twitter.svg"
                },
                {
                    "text":"themes/sensation/assets/images/instagram.svg",
                    "image":"themes/sensation/assets/images/instagram.svg"
                },
                {
                    "text":"themes/sensation/assets/images/messanger.svg",
                    "image":"themes/sensation/assets/images/messanger.svg"
                },
                {
                    "text":"themes/sensation/assets/images/youtube.svg",
                    "image":"themes/sensation/assets/images/youtube.svg"
                }
            ]
        },
        "footer_menu_type": {
            "lable" : "Footer Menu Type",
            "slug" :  "footer_menu_type",
            "text" : "Barra de menú del pie de página",
            "type" : "array",
            "loop_number" : 2,
            "footer_menu_ids":[]
        }
    }
}
