{
    "section_name": "Subscribe - Section",
    "section_slug": "subscribe",
    "unique_section_slug": "subscribe",
    "section_enable": "on",
    "array_type": "inner-list",
    "loop_number": 1,
    "section":{
        "title":{
            "lable" : "Subscribe Title",
            "slug" :  "subscribe_title",
            "text" : "<b> Suscribete y obten </b> 20% de descuento.",
            "type" : "text",
            "placeholder" : "Por favor, ingrese aquí."
        },
        "description":{
            "lable" : "Subscribe Description",
            "slug" :  "subscribe_description",
            "text" : "Lorem Ipsum es simplemente texto ficticio de la industria de la impresión y composición tipográfica. Lorem Ipsum ha sido el texto ficticio estándar de la industria.",
            "type" : "textarea",
            "placeholder" : "Por favor, ingrese aquí."
        },
        "sub_title":{
            "lable" : "Subscribe Sub Title",
            "slug" :  "subscribe_sub_title",
            "text" : "Lorem Ipsum es simplemente texto ficticio de la industria de la impresión y composición tipográfica.",
            "type" : "textarea",
            "placeholder" : "Por favor, ingrese aquí."
        },
        "button":{
            "lable" : "Subscribe Button",
            "slug" :  "subscribe_button",
            "text" : "Suscribete",
            "type" : "text",
            "placeholder" : "Por favor, ingrese aquí."
        },
        "image":{
            "lable" : "Subscribe Image",
            "slug" :  "subscribe_image",
            "text" : "themes/sensation/assets/images/sub-banner.jpg",
            "image" : "themes/sensation/assets/images/sub-banner.jpg",
            "type" : "photoupload",
            "placeholder" : "Por favor, ingrese aquí."
        }
    }
}
