{
    "section_name": "VariantBackground - Section",
    "section_slug": "variant_background",
    "unique_section_slug": "variant_background",
    "section_enable": "on",
    "array_type": "inner-list",
    "loop_number": 1,
    "section":{
        "title":{
            "lable" : "Variant Background Title",
            "slug" :  "variant_background_title",
            "text" : "<b>Enamorate de </b> <br> increibles prendas.",
            "type" : "text",
            "placeholder" : "Por favor, ingrese aquí."
        },
        "description":{
            "lable" : "Variant Background Description",
            "slug" :  "variant_background_description",
            "text" : "Lorem Ipsum es simplemente texto ficticio de la industria de la impresión y composición tipográfica. Lorem Ipsum ha sido el texto ficticio estándar de la industria.",
            "type" : "textarea",
            "placeholder" : "Por favor, ingrese aquí."
        },
        "button":{
            "lable" : "Variant Background Button",
            "slug" :  "variant_background_button",
            "text" : "Ve a la tienda.",
            "type" : "text",
            "placeholder" : "Por favor, ingrese aquí."
        },
        "image":{
            "lable" : "Varinat Background Image",
            "slug" :  "variant_background_image",
            "text" : "themes/sensation/assets/images/banner-2.png",
            "image" : "themes/sensation/assets/images/banner-2.png",
            "type" : "photoupload",
            "placeholder" : "Por favor, ingrese aquí."
        }
    }
}
