<!DOCTYPE svg PUBLIC "-//W3C//DTD SVG 1.1//EN" "http://www.w3.org/Graphics/SVG/1.1/DTD/svg11.dtd">
<!-- Uploaded to: SVG Repo, www.svgrepo.com, Transformed by: SVG Repo Mixer Tools -->
<svg width="800px" height="800px" viewBox="0 0 24 24" fill="none" xmlns="http://www.w3.org/2000/svg">
<g id="SVGRepo_bgCarrier" stroke-width="0"/>
<g id="SVGRepo_tracerCarrier" stroke-linecap="round" stroke-linejoin="round"/>
<g id="SVGRepo_iconCarrier"> <path d="M5.63574 7.75737L7.04996 6.34315L12.7068 12L7.04998 17.6568L5.63577 16.2426L9.87839 12L5.63574 7.75737Z" fill="#000000"/> <path d="M12.7068 6.34315L11.2926 7.75737L15.5352 12L11.2926 16.2426L12.7068 17.6568L18.3637 12L12.7068 6.34315Z" fill="#000000"/> </g>
</svg>