{
    "section_name": "Bestseller - Slider",
    "section_slug": "bestseller_slider",
    "unique_section_slug": "bestseller_slider",
    "section_enable": "on",
    "array_type": "inner-list",
    "loop_number": 1,
    "section":{
        "title":{
            "lable" : "Bestseller Title",
            "slug" :  "bestseller_text",
            "text" : "Mejores ventas en esta oferta",
            "type" : "text",
            "placeholder" : "Por favor, ingrese aquí."
        }
    }
}
