{
    "section_name": "Newest - Category",
    "section_slug": "newest_category",
    "unique_section_slug": "newest_category",
    "section_enable": "on",
    "array_type": "inner-list",
    "loop_number": 1,
    "section":{
        "button":{
            "lable" : "Newest Category Button",
            "slug" :  "newest_category_button",
            "text" : "Ve a los productos.",
            "type" : "button",
            "placeholder" : "Por favor, ingrese aquí."
        },
        "title":{
            "lable" : "Newest Category Title",
            "slug" :  "newest_category_text",
            "text" : "Bienes Raíces.",
            "type" : "text",
            "placeholder" : "Por favor, ingrese aquí."
        }
    }
}
