<svg width="10" height="12" viewBox="0 0 10 12" fill="none" xmlns="http://www.w3.org/2000/svg">
<path fill-rule="evenodd" clip-rule="evenodd" d="M5 0C5.27614 2.98023e-08 5.5 0.223858 5.5 0.5L5.5 10.2929L8.64645 7.14658C8.84172 6.95132 9.1583 6.95133 9.35356 7.14659C9.54882 7.34186 9.54881 7.65844 9.35355 7.8537L5.35355 11.8536C5.15829 12.0488 4.84171 12.0488 4.64645 11.8536L0.646453 7.8537C0.451187 7.65844 0.451182 7.34186 0.646441 7.14659C0.841699 6.95133 1.15828 6.95132 1.35355 7.14658L4.5 10.2929L4.5 0.5C4.5 0.223858 4.72386 0 5 0Z" fill="#9E715D"/>
</svg>
