{
    "section_name": "Blog",
    "section_slug": "blog",
    "unique_section_slug": "blog",
    "section_enable": "on",
    "array_type": "inner-list",
    "loop_number": 1,
    "section":{
        "title":{
            "lable" : "Blog Title",
            "slug" :  "blog_title",
            "text" : "Mejor <b> Pro </b> Juegos</br> Blog",
            "type" : "text",
            "placeholder" : "Por favor, ingresa aquí..."
        },
        "description":{
            "lable" : "Blog Description",
            "slug" :  "description",
            "text" : "Producto de juegos significa cualquier activo intangible, bien o interés que pueda ser comprado o vendido o de otro modo sea objeto de una actividad que constituya un negocio de juegos.",
            "type" : "text",
            "placeholder" : "Por favor, ingresa aquí..."
        },
        "button":{
            "lable" :"Blog Button",
            "slug" : "blog_button",
            "text" : "Mostrar productos",
            "type" : "text",
            "placeholder" : "Por favor, ingresa aquí..."
        }
        
    }
}
