{
    "section_name": "Review",
    "section_slug": "review",
    "unique_section_slug": "review",
    "section_enable": "on",
    "array_type": "inner-list",
    "loop_number": 1,
    "section":{
        "title":{
            "lable" : "Review Title",
            "slug" :  "review_title",
            "text" : "<b>Café recién tostado</b> <br> con entrega en 24 horas",
            "type" : "text",
            "placeholder" : "Por favor, ingresa aquí..."
        },
        "description":{
            "lable" : "Review Description",
            "slug" :  "review_description",
            "text" : "El café Denver Biscuit sabe cómo atraer a futuros clientes. Un video lleva a los espectadores desde la preparación de uno de sus postres hasta el servicio.",
            "type" : "textarea",
            "placeholder" : "Por favor, ingresa aquí..."
        }
    }
}
