{
    "section_name": "Best - Product",
    "section_slug": "best_product_second",
    "unique_section_slug": "best_product_second",
    "section_enable": "on",
    "array_type": "inner-list",
    "loop_number": 1,
    "section":{
        "title":{
            "lable" : "Title",
            "slug" :  "bbest_product_second_title",
            "text" : "Montar metal es montar una bicicleta.",
            "type" : "text",
            "placeholder" : "Por favor, ingrese aquí."
        }
    }
}
