{
    "section_name": "Homepage - Header",
    "section_slug": "header",
    "unique_section_slug": "header",
    "section_enable": "on",
    "array_type": "inner-list",
    "loop_number": 1,
    "section":{
        "support_title":{
            "lable" : "Support Title",
            "slug" :  "support_title",
            "text" : "Llama y obtén tu prueba de manejo: ",
            "type" : "text",
            "placeholder" : "Por favor, ingrese aquí.."
        },
        "support_value":{
            "lable" : "Support Value",
            "slug" :  "support_value",
            "text" : "+48 222-512-234",
            "type" : "text",
            "placeholder" : "Por favor, ingrese aquí.."
        },
        "menu_type": {
            "lable" : "Menu Type",
            "slug" :  "menu_type",
            "text" : "Barra de menú",
            "type" : "select",
            "placeholder" : "Por favor, seleccione.",
            "menu_ids":[]
        }
    }
}
