{
    "section_name": "Review",
    "section_slug": "review",
    "unique_section_slug": "review",
    "section_enable": "on",
    "array_type": "inner-list",
    "loop_number": 1,
    "section":{
    }
}
