{
    "section_name": "Best - Product",
    "section_slug": "best_product",
    "unique_section_slug": "best_product",
    "section_enable": "on",
    "array_type": "inner-list",
    "loop_number": 1,
    "section":{
        "title":{
            "lable" : "Best Product Title",
            "slug" :  "best_product_titel",
            "text" : "<b>Todos los tenis </b>",
            "type" : "text",
            "placeholder" : "Por favor, ingrese aqui"
        },
        "button":{
            "lable" : "Button",
            "slug" :  "best_product_button",
            "text" : "ve al producto",
            "type" : "text",
            "placeholder" : "Por favor, ingrese aqui"
        },
        "button_first":{
            "lable" : "Button",
            "slug" :  "best_product_button_first",
            "text" : "MUESTRA MÁS",
            "type" : "text",
            "placeholder" : "Por favor, ingrese aqui"
        },
        "sub_title":{
            "lable" : " Sub Title",
            "slug" :  "best_product_subtitle",
            "text" : "",
            "type" : "text",
            "placeholder" : "Por favor, ingrese aqui"
        },
        "description":{
            "lable" : "Description",
            "slug" :  "best_product_description",
            "text" : "Adéntrate en la vanguardia de la moda con nuestra última colección de zapatos. Desde elegantes tacones hasta modernos tenis.",
            "type" : "textarea",
            "placeholder" : "Por favor, ingrese aqui"
        },
        "image":{
            "lable" : "Image",
            "slug" :  "best_product_image",
            "text" : "themes/steps/assets/images/dhs.jpg",
            "image" : "themes/steps/assets/images/dhs.jpg",
            "type" : "file",
            "placeholder" : "Por favor, ingrese aqui"
        }
    }
}
