{
    "section_name": "Homepage Logos",
    "section_slug": "logo_slider",
    "unique_section_slug": "logo_slider",
    "section_enable": "on",
    "array_type": "inner-list",
    "loop_number": 1,
    "section":{
        "title":{
            "lable" : "Title",
            "slug" :  "logo_slider_yiyle",
            "text" : "Socios",
            "type" : "text",
            "placeholder" : "Por favor, ingresa aqui"
        },
        "sub_title":{
            "lable" : "Sub Title",
            "slug" :  "logo_slider_sub_title",
            "text" : "TODOS LOS PRODUCTOS",
            "type" : "file",
            "placeholder" : "Por favor, ingresa aqui"
        },
        "image":{
            "lable" : "Logo Slider Image",
            "slug" :  "logo_slider_image",
            "text" : ["themes/steps/assets/images/logo.png"],
            "image": ["themes/steps/assets/images/logo.png"],
            "type" : "file",
            "placeholder" : "Por favor, selecciona el archivo"
        }
    }
}
