{
    "section_name": "Product - Category",
    "section_slug": "product_category",
    "unique_section_slug": "product_category",
    "section_enable": "on",
    "array_type": "inner-list",
    "loop_number": 1,
    "section":{
        "title":{
            "lable" : "Product Category Title",
            "slug" :  "product_category_title",
            "text" : "Mejor precio, mejores ofertas.",
            "type" : "text",
            "placeholder" : "Por favor ingrese aqui"
        },

        "description":{
            "lable" : "Product Category Description",
            "slug" :  "product_category_description",
            "text" : "Lorem Ipsum es simplemente el texto ficticio de la industria de impresión y composición tipográfica. Lorem Ipsum ha sido el texto ficticio estándar de la industria. Lorem Ipsum es simplemente el texto ficticio de la industria de impresión y composición tipográfica.",
            "type" : "textarea",
            "placeholder" : "Por favor ingrese aqui."
        }
    }
}
