{
    "section_name": "Review",
    "section_slug": "review",
    "unique_section_slug": "review",
    "section_enable": "on",
    "array_type": "inner-list",
    "loop_number": 1,
    "section": {
        "title": {
            "lable": "Review Title",
            "slug": "review_title",
            "text": "Cuida tu sonrisa.",
            "type": "text",
            "placeholder": "Por favor ingrese aqui"
        },
        "sub_title": {
            "lable": "Review sub Title",
            "slug": "review_sub_title",
            "text": "Descuentos de hoy.",
            "type": "text",
            "placeholder": "Por favor ingrese aqui"
        },
        "description": {
            "lable": "Review Description",
            "slug": "review_description",
            "text": "Lorem Ipsum es simplemente el texto ficticio de la industria de impresión y composición tipográfica. Lorem Ipsum ha sido el texto ficticio estándar de la industria. Lorem Ipsum es simplemente el texto ficticio de la industria de impresión y composición tipográfica.",
            "type": "textarea",
            "placeholder": "Por favor ingrese aqui"
        },
        "button": {
            "lable": "Product Button",
            "slug": "review_button",
            "text": "Mostrar productos.",
            "type": "text",
            "placeholder": "Por favor ingrese aqui"
        },
        "footer_menu_type": {
            "lable": "Footer Links",
            "slug": "footer_links",
            "text": "Enlances del pie de página",
            "type": "array",
            "loop_number": 3,
            "name": [
                "Por favor, añada imagen aqui"
            ],
            "description": [
                "Por favor, añada imagen aqui"
            ]
        }
    }
}
