{
    "section_name": "Mordern Product",
    "section_slug": "modern_product",
    "unique_section_slug": "modern_product",
    "section_enable": "on",
    "array_type": "inner-list",
    "loop_number": 1,
    "section": {
        "title": {
            "lable": "Feature - Product Title",
            "slug": "modern_product_title",
            "text": "Mejores Juegos Gratuitos del Mundo",
            "type": "text",
            "placeholder": "Por favor, ingresa aquí..."
        },
        "sub_title": {
            "lable": "Feature sub Title",
            "slug": "modern_product_sub_title",
            "text": "Descuentos de Hoy",
            "type": "text",
            "placeholder": "Por favor, ingresa aquí..."
        },
        "description": {
            "lable": "Feature Product Description",
            "slug": "modern_product_description",
            "text": "Lorem Ipsum es simplemente el texto de relleno de las imprentas y archivos de texto. Lorem Ipsum ha sido el texto de relleno estándar de la industria desde el año 1500.",
            "type": "textarea",
            "placeholder": "Por favor, ingresa aquí..."
        },
        "button": {
            "lable": "Feature Product Button",
            "slug": "modern_product_button",
            "text": "Mostrar productos",
            "type": "text",
            "placeholder": "Por favor, ingresa aquí..."
        },
        "service_title": {
            "lable": "Card Title",
            "slug": "card_title",
            "text": "Mejores Juegos Gratuitos del Mundo",
            "type": "text",
            "placeholder": "Por favor, ingresa aquí..."
        },
        "service_sub_title": {
            "lable": "Card Sub Title",
            "slug": "card_sub_title",
            "text": "Descuentos de Hoy",
            "type": "textarea",
            "placeholder": "Por favor, ingresa aquí..."
        },
        "service_description": {
            "lable": "Card Description",
            "slug": "card_description",
            "text": "Lorem Ipsum es simplemente el texto de relleno de las imprentas y archivos de texto. Lorem Ipsum ha sido el texto de relleno estándar de la industria desde el año 1500.",
            "type": "text",
            "placeholder": "Por favor, ingresa aquí..."
        },
        "service_button": {
            "lable": "Card Service Button",
            "slug": "card_button",
            "text": "Mostrar Productos",
            "type": "text",
            "placeholder": "Por favor, ingresa aquí..."
        },
        "background_image": {
            "lable": "Feature Product Image",
            "slug": "modern_product_image",
            "text": "themes/gameness/assets/images/Fresh-products.jpg",
            "image": "themes/gameness/assets/images/Fresh-products.jpg",
            "type": "file",
            "placeholder": "Selecciona un archivo por favor"
        },
        "background_image_second": {
            "lable": "Card Section Image",
            "slug": "card_section_image",
            "text": "themes/gameness/assets/images/Fresh-products2.jpg",
            "image": "themes/gameness/assets/images/Fresh-products2.jpg",
            "type": "file",
            "placeholder": "Selecciona un archivo por favor"
        }
        
    }
}
