{
    "section_name": "Homepage Slider",
    "section_slug": "slider",
    "unique_section_slug": "slider",
    "section_enable": "on",
    "array_type": "inner-list",
    "loop_number": 1,
    "section":{

        "title":{
            "lable" : "Slider Title",
            "slug" :  "slider_title",
            "text" : "Bienvenido a nuestra tienda",
            "type" : "text",
            "placeholder" : "Por favor, ingrese aquí..."
        }
        
    }
}
