{
    "section_name": "Product",
    "section_slug": "product",
    "unique_section_slug": "product",
    "section_enable": "on",
    "array_type": "inner-list",
    "loop_number": 1,
    "section":{
        "title":{
            "lable" : "Product Title",
            "slug" :  "product_text",
            "text" : "Productos<br> Destacados",
            "type" : "text",
            "placeholder" : "Por favor, ingrese aquí."
        },
        "button":{
            "lable" : "Product Button",
            "slug" :  "product_button",
            "text" : "Mostrar productos.",
            "type" : "button",
            "placeholder" : "Por favor, ingrese aquí."
        }
    }
}
