{
    "section_name": "Homepage - Article - Blog",
    "section_slug": "article_blog",
    "unique_section_slug": "article_blog",
    "section_enable": "on",
    "array_type": "inner-list",
    "loop_number": 1,
    "section":{
        "title":{
            "lable" : "Article Title",
            "slug" :  "article_blog_title",
            "text" : "<b>Enamórate de </b> <br>increíbles prendas de vestir",
            "type" : "text",
            "placeholder" : "Por favor, ingrese aquí..."
        },
        "description":{
            "lable" : "Article Description",
            "slug" :  "article_blog_description",
            "text" : "Lorem Ipsum es simplemente un texto ficticio de la industria de la impresión y composición tipográfica. Ha sido el estándar ficticio de la industria.",
            "type" : "textarea",
            "placeholder" : "Por favor, ingrese aquí..."
        },
        "button":{
            "lable" : "Article Button",
            "slug" :  "article_blog_button",
            "text" : "Ir a productos",
            "type" : "text",
            "placeholder" : "Por favor, ingrese aquí..."
        }        
    }
}