{
    "section_name": "BackgroundImage - Section",
    "section_slug": "background_image",
    "unique_section_slug": "background_image",
    "section_enable": "on",
    "array_type": "inner-list",
    "loop_number": 1,
    "section":{
        "title":{
            "lable" : "Background Image Title",
            "slug" :  "background_image_title",
            "text" : "<b>Enamórate de </b> <br> increíbles prendas de vestir",
            "type" : "text",
            "placeholder" : "Por favor, ingrese aquí..."
        },
        "description":{
            "lable" : "Background Image Description",
            "slug" :  "background_image_description",
            "text" : "Lorem Ipsum es simplemente un texto ficticio de la industria de la impresión y composición tipográfica. Ha sido el texto ficticio estándar de la industria desde los años 1500, cuando un impresor desconocido tomó una galera de tipos y la mezcló para hacer un libro de muestras tipográficas.",
            "type" : "textarea",
            "placeholder" : "Por favor, ingrese aquí..."
        },
        "button":{
            "lable" : "Background Image Button",
            "slug" :  "background_image_button",
            "text" : "Ir a la tienda",
            "type" : "button",
            "placeholder" : "Por favor, ingrese aquí..."
        },
        "image":{
            "lable" : "Background Image",
            "slug" :  "background_image",
            "text" : "themes/bloom/assets/images/banner-image.png",
            "image" : "themes/bloom/assets/images/banner-image.png",
            "type" : "photoupload",
            "placeholder" : "Por favor, ingrese aquí..."
        }
    }
}
