{
    "section_name": "Best - Product",
    "section_slug": "best_product",
    "unique_section_slug": "best_product",
    "section_enable": "on",
    "array_type": "inner-list",
    "loop_number": 1,
    "section":{
        "title":{
            "lable" : "Best Product Title",
            "slug" :  "best_product_titel",
            "text" : "<b>Nuestra categoría favorita </b>",
            "type" : "text",
            "placeholder" : "Por favor, ingrese aquí..."
        },
        "button":{
            "lable" : "Button",
            "slug" :  "best_product_button",
            "text" : "Mostrar más productos",
            "type" : "text",
            "placeholder" : "Por favor, ingrese aquí..."
        },
        "button_second":{
            "lable" : "Button Second",
            "slug" :  "best_product_button_second",
            "text" : "Ir a categoría",
            "type" : "text",
            "placeholder" : "Por favor, ingrese aquí..."
        },
        "sub_title":{
            "lable" : " Sub Title",
            "slug" :  "best_product_subtitle",
            "text" : "Florecer",
            "type" : "text",
            "placeholder" : "Por favor, ingrese aquí..."
        },
        "description":{
            "lable" : "Description",
            "slug" :  "best_product_description",
            "text" : "El método de zapato volteado todavía se utiliza para algunos bailes y flores especializadas.",
            "type" : "textarea",
            "placeholder" : "Por favor, ingrese aquí..."
        },
        "sub_description":{
            "lable" : " Sub Description",
            "slug" :  "best_product_sub_description",
            "text" : "Están hechos con ingredientes botánicamente puros, así que puedes sentirte bien al comerlos. Además, son realmente nutritivos, así que también puedes sentirte bien. La mejor parte es que son todos veganos y sin gluten, así que puedes disfrutarlos en cualquier momento del día. ¡Así que adelante y prepárate un plato de estas frutas y verduras saludables y deliciosas hoy!",
            "type" : "textarea",
            "placeholder" : "Por favor, ingrese aquí..."
        },
        "image":{
            "lable" : "Image",
            "slug" :  "best_product_image",
            "text" : "themes/bloom/assets/images/img1.png",
            "image" : "themes/bloom/assets/images/img1.png",
            "type" : "file",
            "placeholder" : "Por favor, ingrese aquí..."
        }
    }
}
