{
    "section_name": "Subscribe - Section",
    "section_slug": "subscribe",
    "unique_section_slug": "subscribe",
    "section_enable": "on",
    "array_type": "inner-list",
    "loop_number": 1,
    "section":{
        "title":{
            "lable" : "Subscribe Title",
            "slug" :  "subscribe_title",
            "text" : "<b> Suscríbete y obtén </b> un descuento del -20%",
            "type" : "text",
            "placeholder" : "Por favor, ingresa aquí..."
        },
        "description":{
            "lable" : "Subscribe Description",
            "slug" :  "subscribe_description",
            "text" : "Lorem Ipsum es simplemente un texto ficticio de la industria de la impresión y composición tipográfica. Ha sido el estándar ficticio de la industria.",
            "type" : "textarea",
            "placeholder" : "Por favor, ingresa aquí..."
        },
        "button":{
            "lable" : "Subscribe Button",
            "slug" :  "subscribe_button",
            "text" : "Suscribir",
            "type" : "text",
            "placeholder" : "Por favor, ingresa aquí..."
        },
        "sub_title":{
            "lable" : "Subscribe Sub Title",
            "slug" :  "subscribe_sub_title",
            "text" : "Lorem Ipsum es simplemente un texto ficticio de la industria de la impresión y composición tipográfica.",
            "type" : "text",
            "placeholder" : "Por favor, ingresa aquí..."
        },
        "image":{
            "lable" : "Subscribe Image",
            "slug" :  "subscribe_image",
            "text" : "themes/sensation/assets/images/sub-banner.jpg",
            "image" : "themes/sensation/assets/images/sub-banner.jpg",
            "type" : "file",
            "placeholder" : "Por favor, ingresa aquí..."
        }
    }
}
