{
    "section_name": "Homepage Logo",
    "section_slug": "logo_slider",
    "unique_section_slug": "logo_slider",
    "section_enable": "on",
    "array_type": "inner-list",
    "loop_number": 1,
    "section":{
        "title":{
            "lable" : "Logo Slider Title",
            "slug" :  "logo_slider_title",
            "text" : "Socios",
            "type" : "text",
            "placeholder" : "Por favor, ingresa aquí.."
        },
        "image":{
            "lable" : "Logo Slider Image",
            "slug" :  "logo_slider_image",
            "text" : ["themes/diamond/assets/images/logo-slider.png"],
            "image": ["themes/diamond/assets/images/logo-slider.png"],
            "type" : "file",
            "placeholder" : "Por favor, selecciona archivo"
        }        
    }
}
