<svg width="96" height="20" viewBox="0 0 96 20" fill="none" xmlns="http://www.w3.org/2000/svg">
<path d="M0.608 19L0.608 1.96L6.128 1.96C9.488 1.96 12.024 2.672 13.736 4.096C15.448 5.52 16.304 7.632 16.304 10.432C16.304 12.128 15.92 13.616 15.152 14.896C14.384 16.176 13.312 17.184 11.936 17.92C10.56 18.64 8.968 19 7.16 19H0.608ZM4.52 15.52H6.992C8.736 15.52 10.056 15.104 10.952 14.272C11.864 13.424 12.32 12.184 12.32 10.552C12.32 8.824 11.848 7.544 10.904 6.712C9.976 5.864 8.544 5.44 6.608 5.44H4.52L4.52 15.52ZM24.6041 19.24C23.2441 19.24 22.0681 18.992 21.0761 18.496C20.0841 17.984 19.3161 17.272 18.7721 16.36C18.2281 15.432 17.9561 14.336 17.9561 13.072C17.9561 11.792 18.2281 10.664 18.7721 9.688C19.3321 8.712 20.0761 7.952 21.0041 7.408C21.9481 6.864 23.0121 6.592 24.1961 6.592C25.5401 6.592 26.6361 6.896 27.4841 7.504C28.3321 8.112 28.9161 8.976 29.2361 10.096C29.5721 11.2 29.6441 12.488 29.4521 13.96L21.7001 13.96C21.7961 14.568 22.1161 15.08 22.6601 15.496C23.2041 15.896 23.9481 16.096 24.8921 16.096C25.3241 16.096 25.7801 16.008 26.2601 15.832C26.7401 15.64 27.1481 15.36 27.4841 14.992L29.5241 17.152C28.9961 17.792 28.3401 18.304 27.5561 18.688C26.7881 19.056 25.8041 19.24 24.6041 19.24ZM24.2681 9.256C23.6281 9.256 23.0841 9.448 22.6361 9.832C22.2041 10.216 21.9161 10.752 21.7721 11.44H26.3561C26.3721 10.688 26.1881 10.136 25.8041 9.784C25.4361 9.432 24.9241 9.256 24.2681 9.256ZM31.7051 19V6.784H35.3531L35.1851 9.4C35.6811 8.504 36.3131 7.816 37.0811 7.336C37.8651 6.84 38.7371 6.592 39.6971 6.592C41.1531 6.592 42.2411 7.088 42.9611 8.08C43.6811 9.056 44.0331 10.464 44.0171 12.304L43.9691 19H40.2971L40.3451 12.568C40.3611 11.736 40.2331 11.104 39.9611 10.672C39.7051 10.224 39.2891 10 38.7131 10C38.2331 10 37.7931 10.144 37.3931 10.432C36.9931 10.704 36.6411 11.176 36.3371 11.848C36.0491 12.52 35.8171 13.44 35.6411 14.608C35.4651 15.776 35.3691 17.24 35.3531 19L31.7051 19ZM52.1542 19.24C50.6502 19.24 49.4582 18.824 48.5782 17.992C47.6982 17.144 47.2662 16.032 47.2822 14.656L47.3782 9.832H45.3622V6.784H47.4262L47.4502 4.288H51.0982L51.0742 6.784H54.8902V9.832H51.0262L50.9542 14.248C50.9542 14.824 51.1062 15.272 51.4102 15.592C51.7142 15.912 52.1702 16.072 52.7782 16.072C53.1302 16.072 53.4662 16.032 53.7862 15.952C54.1222 15.856 54.4662 15.68 54.8182 15.424L55.8742 18.232C55.0582 18.904 53.8182 19.24 52.1542 19.24ZM60.5958 6.784V19H56.9238V6.784L60.5958 6.784ZM58.7478 5.344C58.0438 5.344 57.4838 5.128 57.0678 4.696C56.6518 4.264 56.4438 3.752 56.4438 3.16C56.4438 2.568 56.6438 2.056 57.0438 1.624C57.4598 1.192 58.0278 0.975999 58.7478 0.975999C59.4518 0.975999 60.0118 1.192 60.4278 1.624C60.8438 2.056 61.0518 2.568 61.0518 3.16C61.0518 3.752 60.8438 4.264 60.4278 4.696C60.0118 5.128 59.4518 5.344 58.7478 5.344ZM67.8806 19.24C66.1046 19.24 64.7606 18.912 63.8486 18.256C62.9366 17.584 62.4006 16.704 62.2406 15.616L65.2886 14.848C65.3846 15.312 65.6486 15.688 66.0806 15.976C66.5126 16.248 67.1046 16.384 67.8566 16.384C69.0566 16.384 69.6566 16.104 69.6566 15.544C69.6566 15.256 69.4806 15.04 69.1286 14.896C68.7926 14.736 68.2406 14.584 67.4726 14.44C66.0326 14.184 64.9126 13.776 64.1126 13.216C63.3286 12.656 62.9366 11.8 62.9366 10.648C62.9366 9.864 63.1606 9.168 63.6086 8.56C64.0566 7.952 64.6726 7.472 65.4566 7.12C66.2406 6.768 67.1446 6.592 68.1686 6.592C69.4966 6.592 70.5926 6.904 71.4566 7.528C72.3366 8.152 72.8566 8.92 73.0166 9.832L70.0166 10.648C69.9046 10.296 69.6806 10.008 69.3446 9.784C69.0246 9.56 68.5846 9.448 68.0246 9.448C67.4966 9.448 67.1046 9.536 66.8486 9.712C66.6086 9.888 66.4886 10.096 66.4886 10.336C66.4886 10.624 66.6566 10.856 66.9926 11.032C67.3286 11.192 67.9206 11.36 68.7686 11.536C69.6326 11.696 70.3926 11.92 71.0486 12.208C71.7206 12.48 72.2406 12.864 72.6086 13.36C72.9926 13.84 73.1846 14.496 73.1846 15.328C73.1846 16.112 72.9526 16.8 72.4886 17.392C72.0406 17.984 71.4166 18.44 70.6166 18.76C69.8166 19.08 68.9046 19.24 67.8806 19.24ZM80.3026 19.24C78.7986 19.24 77.6066 18.824 76.7266 17.992C75.8466 17.144 75.4146 16.032 75.4306 14.656L75.5266 9.832H73.5106V6.784H75.5746L75.5986 4.288L79.2466 4.288L79.2226 6.784L83.0386 6.784V9.832L79.1746 9.832L79.1026 14.248C79.1026 14.824 79.2546 15.272 79.5586 15.592C79.8626 15.912 80.3186 16.072 80.9266 16.072C81.2786 16.072 81.6146 16.032 81.9346 15.952C82.2706 15.856 82.6146 15.68 82.9666 15.424L84.0226 18.232C83.2066 18.904 81.9666 19.24 80.3026 19.24ZM92.9911 19.24C92.2231 19.24 91.6151 19.008 91.1671 18.544C90.7191 18.08 90.4951 17.504 90.4951 16.816C90.4951 16.128 90.7191 15.552 91.1671 15.088C91.6151 14.624 92.2231 14.392 92.9911 14.392C93.7591 14.392 94.3671 14.624 94.8151 15.088C95.2791 15.552 95.5111 16.128 95.5111 16.816C95.5111 17.504 95.2791 18.08 94.8151 18.544C94.3671 19.008 93.7591 19.24 92.9911 19.24Z" fill="#00B0FF"/>
</svg>
