{
    "section_name": "Homepage Slider",
    "section_slug": "slider",
    "unique_section_slug": "slider",
    "section_enable": "on",
    "array_type": "inner-list",
    "loop_number": 3,
    "section":{
        "title":{
            "lable" : "Slider Title",
            "slug" :  "slider_title",
            "text" : ["Crea tu propio Foodstuffs <br> <b>que sea solo tuyo</b>","Crea tu propio Foodstuffs <br> <b>que sea solo tuyo</b>","Crea tu propio Foodstuffs <br> <b>que sea solo tuyo</b>"],
            "type" : "text",
            "placeholder" : "Por favor ingresa aquí..."
        },
        "sub_title":{
            "lable" : "Slider Sub Title",
            "slug" :  "slider_sub_title",
            "text" : ["Foodstuffs.","Foodstuffs.","Foodstuffs."],
            "type" : "text",
            "placeholder" : "Por favor ingresa aquí..."
        },
        "description":{
            "lable" : "Slider Description",
            "slug" :  "slider_description",
            "text" : ["El vidrio a veces se combina con otros materiales. Las técnicas incluyen vidrio que se ha colocado en un horno para que se moldee en una forma, soplado de vidrio, vidrio arenado, trabajo de vidrio con lámina de cobre, vidrio pintado y grabado.","El vidrio a veces se combina con otros materiales. Las técnicas incluyen vidrio que se ha colocado en un horno para que se moldee en una forma, soplado de vidrio, vidrio arenado, trabajo de vidrio con lámina de cobre, vidrio pintado y grabado.","El vidrio a veces se combina con otros materiales. Las técnicas incluyen vidrio que se ha colocado en un horno para que se moldee en una forma, soplado de vidrio, vidrio arenado, trabajo de vidrio con lámina de cobre, vidrio pintado y grabado."],
            "type" : "textarea",
            "placeholder" : "Por favor ingresa aquí..."
        },
        "slider_sub_description":{
            "lable" : "Slider Sub Description",
            "slug" :  "slider_sub_description",
            "text" : "Accesorios modernos de Foodstuffs <br> <b>",
            "type" : "textarea",
            "placeholder" : "Por favor ingresa aquí..."
        },
        "button_first":{
            "lable" : "Slider First Button",
            "slug" :  "slider_first_button",
            "text" : ["mostrar producto","mostrar producto","mostrar producto"],
            "type" : "text",
            "placeholder" : "Por favor ingresa aquí..."
        },
        "button_second":{
            "lable" : "Slider Second Button",
            "slug" :  "slider_second_button",
            "text" : ["encontrar productos","encontrar productos","encontrar productos"],
            "type" : "text",
            "placeholder" : "Por favor ingresa aquí..."
        },
        "image":{
            "lable" : "Slider Image",
            "slug" :  "slider_image",
            "text" : ["themes/foodstuffs/assets/images/slider.png","themes/foodstuffs/assets/images/slider.png","themes/foodstuffs/assets/images/slider.png"],
            "image": ["themes/foodstuffs/assets/images/slider.png","themes/foodstuffs/assets/images/slider.png","themes/foodstuffs/assets/images/slider.png"],
            "type" : "file",
            "placeholder" : "Selecciona archivo"
        }        
    }
}
