{
    "section_name": "Footer - Section",
    "section_slug": "footer",
    "unique_section_slug": "footer",
    "section_enable": "on",
    "array_type": "inner-list",
    "loop_number": 1,
    "section":{
        "description":{
            "lable" : "Footer Section Description",
            "slug" :  "footer_description",
            "text" : "Las plantas han sido una parte integral de la cultura humana y las tradiciones desde tiempos antiguos. Tienen significados simbólicos en diferentes sociedades.",
            "type" : "textarea",
            "placeholder" : "Por favor, ingrese aquí.."
        },
        "background_image":{
            "lable" : "Slider Background Image",
            "slug" :  "slider_background_image",
            "text" : "themes/garden/assets/images/footer-leaf.svg",
            "image": "themes/garden/assets/images/footer-leaf.svg",
            "type" : "file",
            "placeholder" : "Por favor selecciona el archivo."
        },
        "footer_link":{
            "lable" : "Footer Links",
            "slug" :  "footer_links",
            "text" : "Enlaces del pie de página",
            "type" : "array",
            "loop_number" : 4,
            "social_link":["https://www.youtube.com/","https://www.messenger.com/","https://www.instagram.com/","https://www.twitter.com/"],
            "social_icon":[
                {
                    "text":"themes/garden/assets/img/youtube.svg",
                    "image":"themes/garden/assets/img/youtube.svg"
                },
                {
                    "text":"themes/garden/assets/img/youtube.svg",
                    "image":"themes/garden/assets/img/youtube.svg"
                },
                {
                    "text":"themes/garden/assets/img/youtube.svg",
                    "image":"themes/garden/assets/img/youtube.svg"
                },
                {
                    "text":"themes/garden/assets/img/youtube.svg",
                    "image":"themes/garden/assets/img/youtube.svg"
                }
            ]
        },
        "footer_menu_type": {
            "lable" : "Footer Menu Type",
            "slug" :  "footer_menu_type",
            "text" : "barra_de_menú_del_pie_de_página",
            "type" : "array",
            "loop_number" : 2,
            "footer_menu_ids":[]
        },
        "title":{
            "lable" : "Title",
            "slug" :  "text",
            "text" : "<b>Lunes a Viernes:</b><br>8:00 AM - 9:00 PM",
            "type" : "text",
            "placeholder" : "Por favor ingresa aquí..."
        },
        "sub_title":{
            "lable" : "Footer Subtitle",
            "slug" :  "subtítulo_del_pie_de_página",
            "text" : "COMPARTIR: ",
            "type" : "text",
            "placeholder" : "Por favor ingresa aquí..."
        },
        "menu_type": {
            "lable" : "Menu Type",
            "slug" :  "menu_type",
            "text" : "barra_de_menú",
            "type" : "select",
            "placeholder" : "Por favor selecciona...",
            "menu_ids":[]
        },
        "image":{
            "lable" : "Logo Slider Image",
            "slug" :  "logo_slider_image",
            "text" : ["themes/garden/assets/images/footer-img4.png"],
            "image": ["themes/garden/assets/images/footer-img4.png"],
            "type" : "file",
            "placeholder" : "Por favor selecciona el archivo."
        },
        "   ":{
            "lable" : "Social Title",
            "slug" :  "footer_title",
            "text" : "INSTAGRAM",
            "type" : "text",
            "placeholder" : "Por favor ingresa aquí..."
        },
        "copy_right":{
            "lable" : "Footer Section copy_right",
            "slug" :  "footer_copy_right",
            "text" : "© 2024 garden. Todos los derechos reservados",
            "type" : "textarea",
            "placeholder" : "Por favor, ingrese aquí.."
        }
        
    }
}
