
{
    "section_name": "Homepage Logos",
    "section_slug": "logo_slider",
    "unique_section_slug": "logo_slider",
    "section_enable": "on",
    "array_type": "multi-inner-list",
    "loop_number": 4,
    "section":{
        "title":{
            "lable" : "Logo Slider Title",
            "slug" :  "logo_slider_title",
            "text" : ["pedidos en el mes","categorías de plantas y flores","años de experiencia","clientes y socios felices"],
            "type" : "text",
            "placeholder" : "Por favor, ingrese aquí..."
        },
        "number":{
            "lable" : "Logo Slider Number",
            "slug" :  "logo_slider_number",
            "text" : ["3000","17","10","4"],
            "type" : "number",
            "placeholder" : "Por favor, ingrese aquí..."
        }
        
    }
}
