{
    "section_name": "Homepage Slider",
    "section_slug": "slider",
    "unique_section_slug": "slider",
    "section_enable": "on",
    "array_type": "multi-inner-list",
    "loop_number": 3,
    "section":{
        "title":{
            "lable" : "Slider Title",
            "slug" :  "slider_title",
            "text" : ["Plantas y Macetas","Plantas y Macetas","Plantas y Macetas"],
            "type" : "text",
            "placeholder" : "Por favor, ingrese aquí..."
        },
        "sub_title":{
            "lable" : "Slider Sub Title",
            "slug" :  "slider_sub_title",
            "text" : ["Crea un interior tropical <br> <b> en tu hogar </b> ","Crea un interior tropical <br> <b> en tu hogar </b> ","Crea un interior tropical <br> <b> en tu hogar </b> "],
            "type" : "text",
            "placeholder" : "Por favor, ingrese aquí..."
        },
        "description":{
            "lable" : "Slider Description",
            "slug" :  "slider_description",
            "text" : ["Lorem Ipsum es simplemente el texto de relleno de las imprentas y archivos de texto.","Lorem Ipsum es simplemente el texto de relleno de las imprentas y archivos de texto.","Lorem Ipsum es simplemente el texto de relleno de las imprentas y archivos de texto."],
            "type" : "textarea",
            "placeholder" : "Por favor, ingrese aquí..."
        },
        "button_first":{
            "lable" : "Slider First Button",
            "slug" :  "slider_first_button",
            "text" : ["Ver más productos","Ver más productos","Ver más productos"],
            "type" : "text",
            "placeholder" : "Por favor, ingrese aquí..."
        },
        "button_second":{
            "lable" : "Slider Second Button",
            "slug" :  "slider_second_button",
            "text" : ["Ver video","Ver video","Ver video"],
            "type" : "text",
            "placeholder" : "Por favor, ingrese aquí..."
        },
        "background_image":{
            "lable" : "Slider Background Image",
            "slug" :  "slider_background_image",
            "text" : "themes/garden/assets/images/leaf-design.png",
            "image": "themes/garden/assets/images/leaf-design.png",
            "type" : "file",
            "placeholder" : "Por favor, seleccione el archivo"
        }
        
    }
}
