
{
    "section_name": "VariantBackground - Section",
    "section_slug": "variant_background",
    "unique_section_slug": "variant_background",
    "section_enable": "on",
    "array_type": "inner-list",
    "loop_number": 1,
    "section":{
        "title":{
            "lable" : "Variant Background Title",
            "slug" :  "variant_background_title",
            "text" : "Crea un interior tropical <b>en tu hogar.</b>",
            "type" : "text",
            "placeholder" : "Por favor, ingrese aquí.."
        },
        "sub_title":{
            "lable" : "Variant Background Sub Title",
            "slug" :  "variant_background_sub_title",
            "text" : "Plantas y Macetas",
            "type" : "text",
            "placeholder" : "Por favor, ingrese aquí..."
        },
        "description":{
            "lable" : "Variant Background Description",
            "slug" :  "variant_background_description",
            "text" : "Estas macetas de plantas de alta calidad y diseñadas inteligentemente se producen de manera respetuosa con el medio ambiente con líneas de producción automáticas y garantía de calidad.",
            "type" : "textarea",
            "placeholder" : "Por favor, ingrese aquí.."
        },
        "button":{
            "lable" : "Variant Background Button",
            "slug" :  "variant_background_button",
            "text" : "ver video",
            "type" : "text",
            "placeholder" : "Por favor, ingrese aquí.."
        },
        "image":{
            "lable" : "Varinat Background Image",
            "slug" :  "variant_background_image",
            "text" : "themes/garden/assets/images/banner1.png",
            "image" : "themes/garden/assets/images/banner1.png",
            "type" : "photoupload",
            "placeholder" : "Por favor, ingrese aquí.."
        }
        
    }
}
