{
    "section_name": "Bestseller",
    "section_slug": "best_product_second",
    "unique_section_slug": "best_product_second",
    "section_enable": "on",
    "array_type": "inner-list",
    "loop_number": 1,
    "section":{
        "title":{
            "lable" : "Title",
            "slug" :  "best_product_second_title",
            "text" : "Más vendidos",
            "type" : "text",
            "placeholder" : "Por favor ingrese aquí"
        },
        "button":{
            "lable" : "Button",
            "slug" :  "best_product_second_button",
            "text" : "muestra más ",
            "type" : "button",
            "placeholder" : "Por favor ingrese aquí"
        }
    }
}