{
    "section_name": "Best - Product",
    "section_slug": "best_product",
    "unique_section_slug": "best_product",
    "section_enable": "on",
    "array_type": "inner-list",
    "loop_number": 1,
    "section":{
        "title":{
            "lable" : "Best Product Title",
            "slug" :  "best_product_titel",
            "text" : "La mejor bicicleta para todo el mundo.",
            "type" : "text",
            "placeholder" : "Por favor ingrese aquí"
        },
        "button":{
            "lable" : "Best Product Button",
            "slug" :  "best_product_button",
            "text" : "muestra más",
            "type" : "text",
            "placeholder" : "Por favor ingrese aquí."
        },
        "description":{
            "lable" : "Description",
            "slug" :  "best_product_description",
            "text" : "Montar en bicicleta implica participar en actividades sociales relacionadas, como unirse a un club de ciclismo y asistir a rallies de bicicletas.",
            "type" : "textarea",
            "placeholder" : "Por favor ingrese aquí"
        },
        "image":{
            "lable" : "Image",
            "slug" :  "bestseller_image",
            "text" : "themes/twowheeler/assets/images/best-pro-1.png",
            "image": "themes/twowheeler/assets/images/best-pro-1.png",
            "type" : "file",
            "placeholder" : "Por favor seleccione el archivo"
        }

    }
}
