{
    "section_name": "Footer - Section",
    "section_slug": "footer",
    "unique_section_slug": "footer",
    "section_enable": "on",
    "array_type": "inner-list",
    "loop_number": 1,
    "section":{
        "newsletter_title": {
            "lable" : "Footer Newsletter Title",
            "slug" :  "footer_newsletter_title",
            "text" : "<b>Suscríbete al boletín de noticias.</b> <br> para obtener un 20% de descuento ",
            "type" : "textarea",
            "placeholder" : "Por favor ingrese aquí"
        },
        "newsletter_sub_title": {
            "lable" : "Footer Newsletter Subtitle",
            "slug" :  "footer_newsletter_sub_title",
            "text" : "Suscríbete para recibir las últimas noticias, actualizaciones y ofertas. ¡No te preocupes, no enviaremos spam!",
            "type" : "textarea",
            "placeholder" : "Por favor ingrese aquí"
        },
        "newsletter_description": {
            "lable" : "Footer Newsletter Description",
            "slug" :  "footer_newsletter_description",
            "text" : "Las bicicletas son una forma común de transporte en todo el mundo. Las personas también las utilizan en carreras o simplemente por diversión.",
            "type" : "textarea",
            "placeholder" : "Por favor ingrese aquí"
        },
        "title":{
            "lable" : "Footer Title",
            "slug" :  "footer_title",
            "text" : "COMPARTE:",
            "type" : "text",
            "placeholder" : "Por favor ingrese aquí."
        },
        "sub_title":{
            "lable" : "Footer Subtitle",
            "slug" :  "footer_subtitle",
            "text" : "Llama y agenda tu prueba de manejo.",
            "type" : "text",
            "placeholder" : "Por favor ingrese aquí."
        },
        "description":{
            "lable" : "Footer Section Description",
            "slug" :  "footer_description",
            "text" : "+48 222-512-234",
            "type" : "textarea",
            "placeholder" : "Por favor ingrese aquí"
        },
        "footer_link":{
            "lable" : "Footer Links",
            "slug" :  "footer_links",
            "text" : "Enlaces del pie de páginas",
            "type" : "array",
            "loop_number" : 4,
            "social_link":["https://www.youtube.com/"],
            "social_icon":[
                {
                    "text":"themes/twowheeler/assets/img/youtube.svg",
                    "image":"themes/twowheeler/assets/img/youtube.svg"
                },
				{
                    "text":"themes/twowheeler/assets/img/youtube.svg",
                    "image":"themes/twowheeler/assets/img/youtube.svg"
                },{
                    "text":"themes/twowheeler/assets/img/youtube.svg",
                    "image":"themes/twowheeler/assets/img/youtube.svg"
                },{
                    "text":"themes/twowheeler/assets/img/youtube.svg",
                    "image":"themes/twowheeler/assets/img/youtube.svg"
                }
            ]
        },
        "footer_menu_type": {
            "lable" : "Footer Menu Type",
            "slug" :  "footer_menu_type",
            "text" : "Barra de menu del pie de página",
            "type" : "array",
            "loop_number" : 3,
            "footer_menu_ids":[]
        }
    }
}
