<svg width="26" height="16" viewBox="0 0 26 16" fill="none" xmlns="http://www.w3.org/2000/svg">
<rect y="6" width="18" height="3" fill="white"/>
<path d="M25.0695 7.50779L13.8743 14.0968L13.7656 1.1069L25.0695 7.50779Z" fill="white"/>
</svg>
