{
    "section_name": "Bestseller - Slider",
    "section_slug": "bestseller_slider",
    "unique_section_slug": "bestseller_slider",
    "section_enable": "on",
    "array_type": "inner-list",
    "loop_number": 1,
    "section":{
        "title":{
            "lable" : "Bestseller Title",
            "slug" :  "bestseller_text",
            "text" : "<b>Pan horneado con </b> <br> amor cada día.",
            "type" : "text",
            "placeholder" : "Por favor, ingrese aquí..."
        },

        "description":{
            "lable" : "Bestseler Description",
            "slug" :  "bestseller_description",
            "text" : "Lorem Ipsum es simplemente el texto ficticio de la industria de la impresión y composición tipográfica. Ha sido el estándar ficticio de la industria.",
            "type" : "button",
            "placeholder" : "Por favor, ingrese aquí..."
        },
        "product_type": {
            "lable" : "Product Type",
            "slug" :  "product_type",
            "text" : "producto_más_reciente",
            "type" : "select",
            "placeholder" : "Por favor, seleccione...",
            "product_ids":[]
        },
        "category_list":{
            "lable" : "Product Category Button",
            "slug" :  "product_category_list",
            "text" : "",
            "type" : "select",
            "placeholder" : "Por favor, seleccione...",
            "category_ids":[]
        }
    }
}
