{
    "section_name": "Footer - Section",
    "section_slug": "footer",
    "unique_section_slug": "footer",
    "section_enable": "on",
    "array_type": "inner-list",
    "loop_number": 1,
    "section":{
        "title":{
            "lable" : "Footer Title",
            "slug" :  "footer_title",
            "text" : "COMPARTIR:",
            "type" : "text",
            "placeholder" : "Por favor, ingrese aquí..."
        },
        "subtitle":{
            "lable" : "Footer Subtitle",
            "slug" :  "footer_subtitle",
            "text" : " © 2024 Tienda de Pan. Todos los derechos reservados ",
            "type" : "text",
            "placeholder" : "Por favor, ingrese aquí..."
        },
        "description":{
            "lable" : "Footer Section Description",
            "slug" :  "footer_description",
            "text" : "Lorem Ipsum es simplemente el texto ficticio de la industria de la impresión y la composición tipográfica. Ha sido el texto ficticio estándar de la industria.",
            "type" : "textarea",
            "placeholder" : "Por favor, ingrese aquí..."
        },
        "footer_link":{
            "lable" : "Footer Links",
            "slug" :  "footer_links",
            "text" : "Enlaces del pie de página",
            "type" : "array",
            "loop_number" : 4,
            "social_link":["https://www.youtube.com/","https://www.youtube.com/","https://www.youtube.com/","https://www.youtube.com/"],
            "social_icon":[
                {
                    "text":"themes/bakestore/assets/img/youtube.svg",
                    "image":"themes/bakestore/assets/img/youtube.svg"
                },{
                    "text":"themes/bakestore/assets/img/youtube.svg",
                    "image":"themes/bakestore/assets/img/youtube.svg"
                },{
                    "text":"themes/bakestore/assets/img/youtube.svg",
                    "image":"themes/bakestore/assets/img/youtube.svg"
                },{
                    "text":"themes/bakestore/assets/img/youtube.svg",
                    "image":"themes/bakestore/assets/img/youtube.svg"
                }
            ]
        },
        "footer_menu_type": {
            "lable" : "Footer Menu Type",
            "slug" :  "footer_menu_type",
            "text" : "barra_de_menú_del_pie_de_página",
            "type" : "array",
            "loop_number" : 2,
            "footer_menu_ids":[]
        }
    }
}
