{
    "section_name": "Homepage - Header",
    "section_slug": "header",
    "unique_section_slug": "header",
    "section_enable": "on",
    "array_type": "inner-list",
    "loop_number": 1,
    "section":{

        "title":{
            "lable" : "Announcement Title",
            "slug" :  "announcement_text",
            "text" : "Lunes - Viernes 8:00 AM - 9:00 PM",
            "type" : "text",
            "placeholder" : "Por favor, ingrese aquí..."
        },
        "support_title":{
            "lable" : "Support Title",
            "slug" :  "support_title",
            "text" : "Llame y haga una cita",
            "type" : "text",
            "placeholder" : "Por favor, ingrese aquí..."
        },
        "support_value":{
            "lable" : "Support Value",
            "slug" :  "support_value",
            "text" : "+12 002-224-111",
            "type" : "text",
            "placeholder" : "Por favor, ingrese aquí..."
        },
        "menu_type": {
            "lable" : "Menu Type",
            "slug" :  "menu_type",
            "text" : "barra_de_menú",
            "type" : "select",
            "placeholder" : "Por favor, seleccione...",
            "menu_ids":[]
        }
    }
}
