{
    "section_name": "Best - Product",
    "section_slug": "best_product_second",
    "unique_section_slug": "best_product_second",
    "section_enable": "on",
    "array_type": "inner-list",
    "loop_number": 1,
    "section": {}
}
