{
    "section_name": "Footer - Section",
    "section_slug": "footer",
    "unique_section_slug": "footer",
    "section_enable": "on",
    "array_type": "inner-list",
    "loop_number": 1,
    "section":{
        "description":{
            "lable" : "Footer Section Description",
            "slug" :  "footer_description",
            "text" : "La joyería ha sido usada durante siglos por personas de todo el mundo. Es una forma popular de expresar estilo personal y conmemorar ocasiones especiales.",
            "type" : "textarea",
            "placeholder" : "Por favor, ingrese aquí."
        },
        "footer_link":{
            "lable" : "Footer Links",
            "slug" :  "footer_links",
            "text" : "Enlaces del pie de página",
            "type" : "array",
            "loop_number" : 4,
            "social_link":["https://www.youtube.com/"],
            "social_icon":[
                {
                    "text":"themes/trinkets/assets/img/youtube.svg",
                    "image":"themes/trinkets/assets/img/youtube.svg"
                },
				{
                    "text":"themes/trinkets/assets/img/youtube.svg",
                    "image":"themes/trinkets/assets/img/youtube.svg"
                },{
                    "text":"themes/trinkets/assets/img/youtube.svg",
                    "image":"themes/trinkets/assets/img/youtube.svg"
                },{
                    "text":"themes/trinkets/assets/img/youtube.svg",
                    "image":"themes/trinkets/assets/img/youtube.svg"
                }
            ]
        },
        "footer_menu_type": {
            "lable" : "Footer Menu Type",
            "slug" :  "footer_menu_type",
            "text" : "Barra de menú del pie de página",
            "type" : "array",
            "loop_number" : 4   ,
            "footer_menu_ids":[]
        }
    }
}
