{
    "section_name": "Product",
    "section_slug": "product",
    "unique_section_slug": "product",
    "section_enable": "on",
    "array_type": "inner-list",
    "loop_number": 1,
    "section": {
        "title": {
            "lable": "Product Title",
            "slug": "product_title",
            "text": " Los diamantes son para siempre. <br> Eterno, sin edad.",
            "type": "text",
            "placeholder": "Por favor, ingrese aquí."
        },
        "button": {
            "lable": "Product Button",
            "slug": "product_button",
            "text": "COMPRA AHORA",
            "type": "text",
            "placeholder": "Por favor, ingrese aquí."
        },
        "description": {
            "lable": "Product Description",
            "slug": "product_description",
            "text": "Nuestro equipo de expertos incluye engastadores de diamantes, gemólogos y expertos en joyería que te ayudarán a encontrar la piedra perfecta para cada ocasión.",
            "type": "textarea",
            "placeholder": "Por favor, ingrese aquí."
        },
        "image": {
            "lable": "Product Image",
            "slug": "product_image",
            "text": "themes/trinkets/assets/images/product.png",
            "image": "themes/trinkets/assets/images/product.png",
            "type": "file",
            "placeholder": "Por favor, seleccione un archivo."
        }
    }
}
