{
    "section_name": "Review",
    "section_slug": "review",
    "unique_section_slug": "review",
    "section_enable": "on",
    "array_type": "inner-list",
    "loop_number": 1,
    "section": {
        "title": {
            "lable": "Review Title",
            "slug": "review_title",
            "text": "Testimonials",
            "type": "text",
            "placeholder": "Por favor, ingrese aquí."
        },
        "image": {
            "lable": "Product Image",
            "slug": "product_image",
            "text": "themes/trinkets/assets/images/testimonial-left-img.png",
            "image": "themes/trinkets/assets/images/testimonial-left-img.png",
            "type": "file",
            "placeholder": "Por favor, seleccione un archivo."
        }
    }
}
