
{
    "section_name": "Best - Product",
    "section_slug": "best_product",
    "unique_section_slug": "best_product",
    "section_enable": "on",
    "array_type": "inner-list",
    "loop_number": 1,
    "section":{
        "title":{
            "lable" : "Best Product Title",
            "slug" :  "best_product_title",
            "text" : "La cocina es donde <br> <b>encontrarás amor</b>",
            "type" : "text",
            "placeholder" : "Por favor, ingrese aquí."
        },
        "sub_title":{
            "lable" : "Best Product Sub Title",
            "slug" :  "best_product_sub_title",
            "text" : "Cocina.",
            "type" : "text",
            "placeholder" : "Por favor, ingrese aquí."
        },
        "button":{
            "lable" : "Best Product Button",
            "slug" :  "best_product_button",
            "text" : "Mostrar productos.",
            "type" : "text",
            "placeholder" : "Por favor, ingrese aquí."
        },
        "description":{
            "lable" : "Best Product Description",
            "slug" :  "best_product_description",
            "text" : "Están hechos de ingredientes botánicamente puros, por lo que puedes sentirte bien al comerlos. Además, son realmente nutritivos, así que también puedes sentirte bien.",
            "type" : "textarea",
            "placeholder" : "Por favor, ingrese aquí."
        },
        "button_second":{
            "lable" : "Best Product Button Second",
            "slug" :  "best_product_button_second",
            "text" : "Mostrar Más",
            "type" : "text",
            "placeholder" : "Por favor, ingrese aquí."
        }
    }
}
