{
    "section_name": "Blog",
    "section_slug": "blog",
    "unique_section_slug": "blog",
    "section_enable": "on",
    "array_type": "inner-list",
    "loop_number": 1,
    "section":{
        "title":{
            "lable" : "Blog Title",
            "slug" :  "blog_title",
            "text" : "Blog y Articulos",
            "type" : "text",
            "placeholder" : "Por favor, ingrese aquí."
        }
    }
}
