{
    "section_name": "Best - Product",
    "section_slug": "best_product",
    "unique_section_slug": "best_product",
    "section_enable": "on",
    "array_type": "inner-list",
    "loop_number": 1,
    "section":{
        "title":{
            "lable" : "Best Product Title",
            "slug" :  "best_product_title",
            "text" : "Mejores <b>Productos</b> para Juegos",
            "type" : "text",
            "placeholder" : "Por favor, ingresa aquí..."
        },
        "description":{
            "lable" : "Best product Description",
            "slug" :  "best_product_description",
            "text" : "Con hardware, las herramientas son lo que permite a una persona instalar, quitar u realizar otras acciones en los componentes dentro de su computadora.",
            "type" : "textarea",
            "placeholder" : "Por favor, ingresa aquí..."
        },
        "button":{
            "lable" : "Product Button",
            "slug" :  "best_product_button",
            "text" : "mostrar productos",
            "type" : "text",
            "placeholder" : "Por favor, ingresa aquí..."
        }
        
    }
}
