{
    "section_name": "Footer - Section",
    "section_slug": "footer",
    "unique_section_slug": "footer",
    "section_enable": "on",
    "array_type": "inner-list",
    "loop_number": 1,
    "section":{
        "title":{
            "lable" : "Footer Section Title",
            "slug" :  "footer_title",
            "text" : "Compartir: ",
            "type" : "text",
            "placeholder" : "Por favor, ingresa aquí..."
        },
        "description":{
            "lable" : "Footer Description",
            "slug" :  "footer_description",
            "text" : "Gifts es un minorista de estilo de vida dedicado a inspirar a los clientes a través de una combinación única",
            "type" : "textarea",
            "placeholder" : "Por favor, ingresa aquí..."
        },
        "footer_link":{
            "lable" : "Footer Links",
            "slug" :  "footer_links",
            "text" : "Enlaces del pie de página",
            "type" : "array",
            "loop_number" : 4,
            "social_link":["https://www.youtube.com/","https://www.facebook.com/","https://www.twitter.com/","https://www.instagram.com/"],
            "social_icon":[
                {
                    "text":"themes/forhim/assets/images/youtube.png",
                    "image":"themes/forhim/assets/images/youtube.png"
                },{
                    "text":"themes/forhim/assets/images/facebook.png",
                    "image":"themes/forhim/assets/images/facebook.png"
                },{
                    "text":"themes/forhim/assets/images/twitter.png",
                    "image":"themes/forhim/assets/images/twitter.png"
                },{
                    "text":"themes/forhim/assets/images/instagram.png",
                    "image":"themes/forhim/assets/images/instagram.png"
                }
            ]
        },
        "newsletter_title": {
            "lable" : "Footer Newsletter Title",
            "slug" :  "footer_newsletter_title",
            "text" : "Suscríbete al boletín y obtén un -20% de descuento",
            "type" : "textarea",
            "placeholder" : "Por favor, ingresa aquí..."
        },
        "newsletter_sub_title": {
            "lable" : "Footer Newsletter Subtitle",
            "slug" :  "footer_newsletter_sub_title",
            "text" : "Gifts es un minorista de estilo de vida dedicado a inspirar a los clientes a través de una combinación única",
            "type" : "textarea",
            "placeholder" : "Por favor, ingresa aquí..."
        },
        "footer_menu_type": {
            "lable" : "Footer Menu Type",
            "slug" :  "footer_menu_type",
            "text" : "barra_de_menú_del_pie_de_página",
            "type" : "array",
            "loop_number" : 2,
            "footer_menu_ids":[]
        },
        "copy_right":{
            "lable" : "Footer Copyright",
            "slug" :  "footer_copy_right",
            "text" : "Suscríbete para recibir las últimas noticias, actualizaciones y ofertas. ¡No te preocupes, no enviaremos spam!",
            "type" : "textarea",
            "placeholder" : "Por favor, ingresa aquí..."
        }
        
    }
}
