<svg width="19" height="19" viewBox="0 0 19 19" fill="none" xmlns="http://www.w3.org/2000/svg">
<g clip-path="url(#clip0_3_10327)">
<path d="M18.4709 14.3872C17.981 13.8529 15.7223 12.1822 14.8659 11.5871C14.8051 11.5447 14.7472 11.5083 14.6906 11.473C15.589 10.5636 16.6466 9.07512 16.6466 7.09897C16.6549 6.25614 16.4858 5.42099 16.1504 4.64775C15.815 3.8745 15.3206 3.18045 14.6995 2.61066C14.0352 2.01184 13.2578 1.55193 12.4131 1.25801C11.5683 0.964088 10.6733 0.842084 9.78076 0.899179L9.56419 0.481773C9.52196 0.399755 9.46385 0.326946 9.39324 0.267573C9.32263 0.2082 9.24092 0.163447 9.15287 0.135913C9.04102 0.101526 8.92239 0.0953627 8.80757 0.117974C8.69275 0.140585 8.58532 0.191268 8.49485 0.265499C8.37166 0.371961 8.28838 0.517182 8.2587 0.677272C8.22903 0.837362 8.25472 1.00279 8.33157 1.14633L9.51565 3.38432C9.60212 3.54365 9.74781 3.66256 9.92124 3.71534C10.0947 3.76813 10.2819 3.75055 10.4425 3.66642C10.603 3.58228 10.7241 3.43834 10.7794 3.2657C10.8347 3.09306 10.8198 2.90559 10.738 2.74381L10.472 2.23155C11.705 2.28684 12.8803 2.76891 13.797 3.59525C14.2842 4.03779 14.6712 4.57921 14.9323 5.18333C15.1934 5.78745 15.3226 6.44034 15.3111 7.09837C15.3111 9.08506 13.8833 10.4827 13.1457 11.0729C12.9729 11.0631 12.755 11.0498 12.5074 11.0339V9.7226H12.9287C13.0185 9.72393 13.1076 9.70739 13.1909 9.67395C13.2743 9.64052 13.3501 9.59084 13.4141 9.52782C13.478 9.4648 13.5288 9.3897 13.5635 9.30687C13.5982 9.22404 13.616 9.13515 13.616 9.04535C13.616 8.95556 13.5982 8.86667 13.5635 8.78384C13.5288 8.70101 13.478 8.62591 13.4141 8.56288C13.3501 8.49986 13.2743 8.45019 13.1909 8.41675C13.1076 8.38332 13.0185 8.36678 12.9287 8.36811H8.04939C7.87151 8.37074 7.70181 8.44325 7.57695 8.56997C7.45209 8.6967 7.38209 8.86745 7.38209 9.04535C7.38209 9.22325 7.45209 9.39401 7.57695 9.52073C7.70181 9.64746 7.87151 9.71997 8.04939 9.7226H10.3705V10.8911C9.30873 10.8178 8.38634 10.7522 8.36511 10.7507C8.23416 10.7443 8.10896 10.6949 8.00887 10.6103C7.89516 10.5136 7.73396 10.372 7.54158 10.2028C6.63285 9.40435 5.11211 8.06797 4.4195 7.79173C3.91852 7.59237 3.1318 7.5569 2.19516 8.46771C2.11219 8.53437 2.04577 8.61934 2.00112 8.71595C1.95646 8.81256 1.93478 8.9182 1.93777 9.0246C1.94076 9.13099 1.96834 9.23525 2.01835 9.3292C2.06837 9.42315 2.13945 9.50425 2.22604 9.56615L6.71879 12.9781C7.09501 13.2648 7.54637 13.4361 8.01807 13.4712C8.41692 13.502 8.95946 13.5407 9.54994 13.5817V17.2187H5.92005C5.6029 17.2177 5.29278 17.3122 5.03015 17.49C4.76752 17.6678 4.56455 17.9206 4.4477 18.2155C4.4228 18.2776 4.41352 18.3449 4.42067 18.4115C4.42782 18.4781 4.45119 18.5419 4.48872 18.5973C4.52625 18.6528 4.57681 18.6982 4.63595 18.7295C4.6951 18.7609 4.76104 18.7773 4.828 18.7773H13.6026C13.6695 18.7773 13.7354 18.7609 13.7946 18.7295C13.8537 18.6981 13.9042 18.6527 13.9418 18.5972C13.9793 18.5418 14.0027 18.478 14.0098 18.4115C14.017 18.3449 14.0077 18.2776 13.9829 18.2155C13.8661 17.9208 13.6633 17.6682 13.4009 17.4904C13.1385 17.3126 12.8287 17.2179 12.5117 17.2187V13.7809L12.974 13.8115L13.0465 13.8162C13.311 13.8334 13.5643 13.9293 13.7739 14.0916L17.2636 16.7869C17.3457 16.8513 17.4412 16.8963 17.5431 16.9184C17.645 16.9406 17.7505 16.9394 17.8519 16.9149C17.9532 16.8904 18.0477 16.8433 18.1283 16.7771C18.2088 16.7108 18.2732 16.6272 18.3168 16.5325C18.3593 16.4599 18.4048 16.3871 18.4516 16.3134C18.7597 15.8278 19.1815 15.1628 18.4709 14.3872ZM10.3451 3.16968C10.3253 3.21018 10.2946 3.24439 10.2565 3.26855C10.2185 3.2927 10.1744 3.30585 10.1293 3.30654C10.0842 3.30724 10.0398 3.29544 10.001 3.27246C9.96223 3.24949 9.93054 3.21623 9.90946 3.17636L8.72567 0.939702C8.69641 0.886799 8.68561 0.82566 8.69497 0.765935C8.70432 0.706209 8.7333 0.6513 8.77733 0.609874C8.81038 0.581989 8.84993 0.562872 8.89232 0.554286C8.9347 0.5457 8.97857 0.54792 9.01987 0.560741C9.0517 0.57096 9.0812 0.587367 9.10668 0.60902C9.13215 0.630672 9.1531 0.657143 9.16831 0.686913L10.3429 2.9491C10.3607 2.98307 10.3702 3.02078 10.3706 3.05912C10.3709 3.09747 10.3622 3.13536 10.3451 3.16968ZM15.756 7.09897C15.7681 6.37904 15.6265 5.66481 15.3406 5.004C15.0546 4.34318 14.6309 3.75101 14.0978 3.26705C13.0382 2.31327 11.664 1.78371 10.2384 1.77971L10.0076 1.3344C11.6237 1.28037 13.1978 1.85562 14.3982 2.93901C14.9736 3.46729 15.4314 4.11067 15.7419 4.82737C16.0525 5.54407 16.2088 6.31807 16.2008 7.09912C16.2008 8.99912 15.134 10.4213 14.2735 11.2606C14.109 11.198 13.938 11.1542 13.7636 11.1301C14.59 10.3821 15.756 8.99199 15.756 7.09897ZM8.04939 9.27729C7.98889 9.27576 7.93139 9.25065 7.88914 9.20732C7.84689 9.16399 7.82325 9.10587 7.82325 9.04535C7.82325 8.98484 7.84689 8.92672 7.88914 8.88339C7.93139 8.84006 7.98889 8.81495 8.04939 8.81342H12.9287C12.9596 8.81264 12.9904 8.81806 13.0192 8.82936C13.0481 8.84067 13.0743 8.85762 13.0965 8.87924C13.1187 8.90085 13.1363 8.92669 13.1483 8.95522C13.1604 8.98374 13.1666 9.01439 13.1666 9.04535C13.1666 9.07632 13.1604 9.10697 13.1483 9.13549C13.1363 9.16402 13.1187 9.18986 13.0965 9.21147C13.0743 9.23309 13.0481 9.25004 13.0192 9.26135C12.9904 9.27265 12.9596 9.27807 12.9287 9.27729H8.04939ZM12.0612 9.7226V11.0055C11.6711 10.9799 11.2412 10.9509 10.8158 10.9217V9.7226H12.0612ZM13.5486 18.332H4.88203C4.97212 18.1323 5.11807 17.963 5.30226 17.8445C5.48645 17.726 5.70102 17.6633 5.92005 17.664H12.5107C12.7297 17.6633 12.9442 17.7261 13.1284 17.8446C13.3125 17.9631 13.4584 18.1324 13.5486 18.332ZM9.99526 17.2187V13.6117C10.7006 13.6601 11.4379 13.7092 12.0664 13.7509V17.2187H9.99526ZM17.9191 16.331C17.9151 16.3388 17.9114 16.3469 17.9083 16.3551C17.8913 16.3872 17.8675 16.4151 17.8385 16.437C17.8096 16.4588 17.7762 16.4741 17.7407 16.4817C17.7052 16.4892 17.6685 16.4889 17.6331 16.4807C17.5977 16.4725 17.5646 16.4567 17.536 16.4344L14.0463 13.739C13.7666 13.5226 13.4286 13.3948 13.0758 13.3718L13.0033 13.367C11.7888 13.287 9.26168 13.1206 8.05176 13.0273C7.66566 12.9985 7.2962 12.8583 6.98821 12.6237L2.49679 9.21242C2.44916 9.17768 2.41447 9.12805 2.3982 9.07137C2.38194 9.01471 2.38503 8.95423 2.40698 8.89952C2.41515 8.88379 2.42479 8.86888 2.43578 8.85498C2.45404 8.83658 2.47215 8.81906 2.49026 8.8011C2.52306 8.77748 2.56111 8.7622 2.60114 8.75657C2.61167 8.75519 2.62228 8.75455 2.6329 8.75464C2.68807 8.75464 2.74166 8.77302 2.7852 8.80689L7.29369 12.2886C7.50215 12.4499 7.75414 12.5451 8.01718 12.5619L13.1717 12.9033C13.5834 12.93 13.9779 13.0784 14.3051 13.3296L17.8409 16.0394C17.8671 16.0593 17.889 16.0843 17.9054 16.1129C17.9218 16.1414 17.9324 16.1729 17.9365 16.2056C17.9418 16.2482 17.9358 16.2915 17.9191 16.331ZM18.2349 15.8115C18.1996 15.7646 18.1584 15.7224 18.1124 15.6859L14.5763 12.9762C14.1795 12.6713 13.7009 12.4912 13.2015 12.4587L8.04672 12.1173C7.87206 12.1064 7.70472 12.0433 7.56637 11.9361L3.05758 8.45435C3.03143 8.43533 3.004 8.41812 2.9755 8.40284C3.422 8.11191 3.85039 8.04466 4.25399 8.20542C4.8752 8.45301 6.41806 9.80855 7.24694 10.5374C7.44169 10.7087 7.60482 10.8519 7.72015 10.9499C7.89404 11.0974 8.11168 11.1836 8.33944 11.1951C8.37551 11.1978 11.9652 11.4535 13.1577 11.5203C13.8143 11.557 14.1098 11.6037 14.6124 11.9526C15.604 12.6418 17.7271 14.2336 18.1433 14.6878C18.5205 15.1005 18.459 15.4137 18.2349 15.8121V15.8115Z" fill="white"/>
<path d="M2.09194 7.95093C2.18648 7.93369 2.27638 7.89688 2.35586 7.84287C2.78231 7.59953 3.09506 7.19724 3.2257 6.72395C3.28678 6.47353 3.29433 6.21304 3.24785 5.95951C3.20138 5.70598 3.10192 5.4651 2.95599 5.25263C2.2383 4.12258 1.19879 4.00101 0.486142 4.38235L0.48451 4.38353C0.432183 4.40833 0.382999 4.43927 0.338002 4.47571C0.214813 4.58217 0.131531 4.7274 0.101854 4.88749C0.0721783 5.04758 0.0978761 5.213 0.17472 5.35654L1.35925 7.59483C1.42745 7.72466 1.5354 7.82927 1.6673 7.89337C1.79921 7.95747 1.94816 7.97769 2.09238 7.95108L2.09194 7.95093ZM2.58 5.49117C2.69344 5.65173 2.77131 5.83465 2.8084 6.02771C2.84549 6.22077 2.84095 6.41952 2.79509 6.61069C2.75647 6.7556 2.69358 6.89291 2.6091 7.01681C2.60063 6.99588 2.59173 6.97496 2.58119 6.95462L1.4072 4.69213C1.39725 4.67299 1.38389 4.65651 1.37231 4.6384C1.77057 4.67328 2.2101 4.90856 2.58 5.49117ZM1.75261 7.38672L0.568822 5.14992C0.539579 5.09704 0.528782 5.03592 0.538136 4.97622C0.54749 4.91652 0.576462 4.86164 0.620478 4.82024C0.667193 4.78136 0.725954 4.7599 0.786728 4.75953C0.81245 4.75956 0.83802 4.76346 0.86258 4.7711C0.894423 4.7813 0.923933 4.7977 0.949409 4.81935C0.974885 4.84101 0.995824 4.86749 1.01102 4.89728L2.18501 7.15976C2.21513 7.21724 2.22118 7.28432 2.20183 7.34626C2.18248 7.4082 2.13932 7.45992 2.08185 7.49003C2.02437 7.52015 1.95728 7.5262 1.89534 7.50685C1.8334 7.48751 1.78169 7.44435 1.75157 7.38687L1.75261 7.38672Z" fill="white"/>
</g>
<defs>
<clipPath id="clip0_3_10327">
<rect width="19" height="19" fill="white"/>
</clipPath>
</defs>
</svg>
