<svg width="20" height="15" viewBox="0 0 20 15" fill="none" xmlns="http://www.w3.org/2000/svg">
<path d="M1.25412 7.67811C2.01831 7.67811 2.61417 7.46154 3.19039 7.25209C3.79139 7.03362 4.35905 6.82729 5.14375 6.82729C5.3538 6.82729 5.52961 6.87187 5.67539 6.93786C5.68822 6.94516 5.70158 6.95136 5.71531 6.95665C6.09854 7.14751 6.25774 7.4842 6.26619 7.50262C6.31323 7.60927 6.4188 7.67811 6.53536 7.67811H7.74406C7.7189 7.79021 7.7153 7.9079 7.73601 8.02502L7.86868 8.77529L7.51367 8.82121C7.35255 8.84204 7.23884 8.98955 7.25967 9.15067C7.27886 9.29897 7.40537 9.40713 7.55103 9.40713C7.56362 9.40713 7.57635 9.4063 7.58915 9.40465L7.97123 9.35524L8.11707 10.18L7.7463 10.228C7.58518 10.2488 7.47148 10.3963 7.4923 10.5575C7.5115 10.7058 7.638 10.8139 7.78366 10.8139C7.79625 10.8139 7.80898 10.8131 7.82178 10.8114L8.21962 10.76L8.37337 11.6295L8.16113 11.6569C8.00001 11.6778 7.88631 11.8253 7.90713 11.9864C7.92633 12.1347 8.05283 12.2428 8.19849 12.2428C8.21108 12.2428 8.22381 12.242 8.23661 12.2404L8.47591 12.2094L8.64469 13.1639C8.66954 13.3045 8.79167 13.4069 8.93436 13.4069H11.4037C11.5464 13.4069 11.6686 13.3045 11.6934 13.1639L11.9415 11.7612L12.177 11.7307C12.3381 11.7099 12.4518 11.5623 12.431 11.4012C12.4101 11.2401 12.2625 11.1267 12.1015 11.1472L12.0488 11.1541L12.2098 10.2438L12.5918 10.1944C12.7529 10.1736 12.8666 10.0261 12.8458 9.86496C12.825 9.70388 12.6774 9.59026 12.5163 9.61098L12.3171 9.63675L12.4698 8.77337L12.8244 8.72749C12.9856 8.70667 13.0993 8.55915 13.0784 8.39803C13.0576 8.23695 12.9099 8.12337 12.749 8.14405L12.5771 8.16628L12.6021 8.02505C12.6228 7.90794 12.6192 7.79027 12.594 7.67811H13.8027C13.9193 7.67811 14.0241 7.61114 14.0711 7.50449C14.0801 7.4847 14.2399 7.14684 14.6241 6.95601C14.6361 6.9513 14.6478 6.94581 14.6591 6.93956C14.8056 6.87263 14.9826 6.82729 15.1944 6.82729C15.9791 6.82729 16.5467 7.03362 17.1477 7.25209C17.7239 7.46154 18.3198 7.67811 19.084 7.67811C19.2465 7.67811 19.3782 7.54639 19.3782 7.38394C19.3782 7.2215 19.2465 7.08978 19.084 7.08978C18.4234 7.08978 17.9014 6.90004 17.3487 6.69914C16.7263 6.47291 16.0827 6.23897 15.1944 6.23897C15.1445 6.23897 15.0961 6.24095 15.0488 6.24425C15.4212 5.37541 15.6129 4.52323 15.6189 3.70388C15.6253 2.83374 15.4171 2.02656 15.0167 1.36958C14.494 0.511981 13.7053 0 12.9067 0C11.9265 0 11.4584 0.26741 11.0823 0.482285C10.8011 0.642867 10.5791 0.769732 10.1691 0.769732C9.75905 0.769732 9.537 0.642867 9.25585 0.482285C8.87971 0.26741 8.41157 0 7.4314 0C6.63285 0 5.84407 0.511981 5.32143 1.36958C4.92103 2.02656 4.71278 2.83374 4.71921 3.70388C4.72525 4.52323 4.91696 5.37541 5.2893 6.24425C5.242 6.24095 5.19364 6.23897 5.14375 6.23897C4.25545 6.23897 3.61185 6.47291 2.98941 6.69914C2.43673 6.90004 1.91471 7.08978 1.25412 7.08978C1.09165 7.08978 0.959961 7.2215 0.959961 7.38394C0.959961 7.54639 1.09165 7.67811 1.25412 7.67811ZM11.157 12.8186H9.18107L9.06 12.1339L11.33 11.8402L11.157 12.8186ZM11.4374 11.2332L8.95746 11.5539L8.80371 10.6844L11.5983 10.3229L11.4374 11.2332ZM11.7057 9.71583L8.70117 10.1045L8.55533 9.27969L11.8583 8.85245L11.7057 9.71583ZM8.45278 8.69973L8.31536 7.92257C8.29656 7.81635 8.3373 7.70863 8.41998 7.6427L9.03423 7.16038H11.3039L11.9164 7.64137C12.0008 7.70863 12.0416 7.81635 12.0228 7.92261L11.9657 8.24537L8.45278 8.69973ZM9.29594 6.57206L9.65311 4.89449H10.685L11.0422 6.57206H9.29594ZM5.8238 1.67574C6.23258 1.005 6.84859 0.588323 7.4314 0.588323C8.25539 0.588323 8.61564 0.794113 8.96404 0.993154C9.0961 1.06859 9.2303 1.14494 9.3833 1.20829C9.09981 1.27227 8.93016 1.27965 8.92663 1.27977C8.76423 1.28405 8.63604 1.41917 8.64031 1.58155C8.64451 1.74134 8.77533 1.86799 8.93422 1.86799C8.93682 1.86799 8.93946 1.86795 8.9421 1.86788C8.98698 1.8667 10.0548 1.82911 11.3989 0.978961C11.7399 0.784454 12.1023 0.588323 12.9067 0.588323C13.4895 0.588323 14.1055 1.005 14.5143 1.67574C14.8771 2.2711 15.5744 3.9201 14.3003 6.45925C13.9569 6.64761 13.7433 6.91514 13.6313 7.08978H12.1666L11.6711 6.70068L11.2604 4.77197C11.2029 4.50205 10.9609 4.30617 10.685 4.30617H9.65311C9.37717 4.30617 9.13516 4.50205 9.07767 4.77197L8.66705 6.70068L8.17153 7.08978H6.70686C6.59479 6.91514 6.3812 6.64761 6.03776 6.45925C4.76371 3.9201 5.46097 2.2711 5.8238 1.67574Z" fill="white"/>
<path d="M19.2152 14.4119H1.12424C0.961772 14.4119 0.830078 14.5436 0.830078 14.706C0.830078 14.8685 0.961772 15.0002 1.12424 15.0002H19.2152C19.3776 15.0002 19.5093 14.8685 19.5093 14.706C19.5093 14.5436 19.3776 14.4119 19.2152 14.4119Z" fill="white"/>
</svg>
