<svg width="89" height="19" viewBox="0 0 89 19" fill="none" xmlns="http://www.w3.org/2000/svg">
<path d="M2.96 18L2.96 15.096H7.256C8.344 15.096 9.296 14.872 10.112 14.424C10.928 13.96 11.56 13.312 12.008 12.48C12.472 11.648 12.704 10.664 12.704 9.528C12.704 8.424 12.472 7.464 12.008 6.648C11.544 5.816 10.904 5.176 10.088 4.728C9.272 4.264 8.328 4.032 7.256 4.032H2.888L2.888 1.128L7.304 1.128C8.552 1.128 9.704 1.336 10.76 1.752C11.832 2.168 12.76 2.76 13.544 3.528C14.344 4.28 14.96 5.168 15.392 6.192C15.84 7.216 16.064 8.336 16.064 9.552C16.064 10.768 15.84 11.896 15.392 12.936C14.96 13.96 14.352 14.856 13.568 15.624C12.784 16.376 11.856 16.96 10.784 17.376C9.728 17.792 8.584 18 7.352 18H2.96ZM0.728 18L0.728 1.128L3.992 1.128L3.992 18H0.728ZM23.8657 18.24C22.6497 18.24 21.5697 17.984 20.6257 17.472C19.6817 16.944 18.9297 16.224 18.3697 15.312C17.8257 14.4 17.5537 13.36 17.5537 12.192C17.5537 11.04 17.8177 10.016 18.3457 9.12C18.8897 8.208 19.6257 7.488 20.5537 6.96C21.4817 6.416 22.5137 6.144 23.6497 6.144C24.7697 6.144 25.7537 6.4 26.6017 6.912C27.4657 7.408 28.1377 8.096 28.6177 8.976C29.1137 9.84 29.3617 10.824 29.3617 11.928C29.3617 12.136 29.3457 12.352 29.3137 12.576C29.2977 12.784 29.2577 13.024 29.1937 13.296L19.4497 13.32V10.968L27.7297 10.944L26.4577 11.928C26.4257 11.24 26.2977 10.664 26.0737 10.2C25.8657 9.736 25.5537 9.384 25.1377 9.144C24.7377 8.888 24.2417 8.76 23.6497 8.76C23.0257 8.76 22.4817 8.904 22.0177 9.192C21.5537 9.464 21.1937 9.856 20.9377 10.368C20.6977 10.864 20.5777 11.456 20.5777 12.144C20.5777 12.848 20.7057 13.464 20.9617 13.992C21.2337 14.504 21.6177 14.904 22.1137 15.192C22.6097 15.464 23.1857 15.6 23.8417 15.6C24.4337 15.6 24.9697 15.504 25.4497 15.312C25.9297 15.104 26.3457 14.8 26.6977 14.4L28.5457 16.248C27.9857 16.904 27.2977 17.4 26.4817 17.736C25.6817 18.072 24.8097 18.24 23.8657 18.24ZM39.1061 18V11.352C39.1061 10.664 38.8901 10.104 38.4581 9.672C38.0261 9.24 37.4661 9.024 36.7781 9.024C36.3301 9.024 35.9301 9.12 35.5781 9.312C35.2261 9.504 34.9461 9.776 34.7381 10.128C34.5461 10.48 34.4501 10.888 34.4501 11.352L33.2261 10.728C33.2261 9.816 33.4181 9.024 33.8021 8.352C34.2021 7.664 34.7461 7.128 35.4341 6.744C36.1381 6.36 36.9301 6.168 37.8101 6.168C38.6581 6.168 39.4181 6.384 40.0901 6.816C40.7621 7.232 41.2901 7.784 41.6741 8.472C42.0581 9.144 42.2501 9.872 42.2501 10.656V18H39.1061ZM31.3061 18V6.408H34.4501V18L31.3061 18ZM46.346 18V1.584L49.49 1.584V18H46.346ZM43.634 9.168V6.408L52.202 6.408V9.168L43.634 9.168ZM53.9701 18V6.408H57.1381V18L53.9701 18ZM55.5541 4.536C55.0421 4.536 54.6181 4.368 54.2821 4.032C53.9461 3.68 53.7781 3.248 53.7781 2.736C53.7781 2.24 53.9461 1.816 54.2821 1.464C54.6181 1.112 55.0421 0.935999 55.5541 0.935999C56.0821 0.935999 56.5061 1.112 56.8261 1.464C57.1621 1.816 57.3301 2.24 57.3301 2.736C57.3301 3.248 57.1621 3.68 56.8261 4.032C56.5061 4.368 56.0821 4.536 55.5541 4.536ZM63.9073 18.264C63.2513 18.264 62.6033 18.176 61.9633 18C61.3393 17.824 60.7633 17.584 60.2353 17.28C59.7073 16.96 59.2513 16.576 58.8673 16.128L60.7393 14.232C61.1393 14.68 61.6033 15.016 62.1313 15.24C62.6593 15.464 63.2433 15.576 63.8833 15.576C64.3953 15.576 64.7793 15.504 65.0353 15.36C65.3073 15.216 65.4433 15 65.4433 14.712C65.4433 14.392 65.2993 14.144 65.0113 13.968C64.7393 13.792 64.3793 13.648 63.9313 13.536C63.4833 13.408 63.0113 13.272 62.5153 13.128C62.0353 12.968 61.5713 12.768 61.1233 12.528C60.6753 12.272 60.3073 11.928 60.0193 11.496C59.7473 11.048 59.6113 10.472 59.6113 9.768C59.6113 9.032 59.7873 8.392 60.1393 7.848C60.5073 7.304 61.0273 6.88 61.6992 6.576C62.3713 6.272 63.1633 6.12 64.0753 6.12C65.0353 6.12 65.8993 6.288 66.6673 6.624C67.4513 6.96 68.0993 7.464 68.6113 8.136L66.7153 10.032C66.3633 9.6 65.9633 9.288 65.5153 9.096C65.0833 8.904 64.6113 8.808 64.0993 8.808C63.6353 8.808 63.2753 8.88 63.0193 9.024C62.7793 9.168 62.6593 9.368 62.6593 9.624C62.6593 9.912 62.7953 10.136 63.0673 10.296C63.3553 10.456 63.7233 10.6 64.1713 10.728C64.6193 10.84 65.0833 10.976 65.5633 11.136C66.0593 11.28 66.5233 11.488 66.9553 11.76C67.4033 12.032 67.7633 12.392 68.0353 12.84C68.3233 13.288 68.4673 13.864 68.4673 14.568C68.4673 15.704 68.0593 16.608 67.2433 17.28C66.4273 17.936 65.3153 18.264 63.9073 18.264ZM72.2913 18V1.584L75.4353 1.584V18H72.2913ZM69.5793 9.168V6.408L78.1473 6.408V9.168L69.5793 9.168ZM86.7629 18.24C86.1869 18.24 85.7149 18.048 85.3469 17.664C84.9789 17.28 84.7949 16.808 84.7949 16.248C84.7949 15.688 84.9789 15.216 85.3469 14.832C85.7149 14.448 86.1869 14.256 86.7629 14.256C87.3229 14.256 87.7869 14.448 88.1549 14.832C88.5229 15.216 88.7069 15.688 88.7069 16.248C88.7069 16.808 88.5229 17.28 88.1549 17.664C87.7869 18.048 87.3229 18.24 86.7629 18.24Z" fill="#00A1CF"/>
</svg>
