<svg width="16" height="14" viewBox="0 0 16 14" fill="none" xmlns="http://www.w3.org/2000/svg">
<path fill-rule="evenodd" clip-rule="evenodd" d="M0.292892 7.70711C-0.0976315 7.31658 -0.0976315 6.68342 0.292892 6.29289L6.29289 0.292894C6.68342 -0.0976307 7.31658 -0.0976307 7.70711 0.292894C8.09763 0.683418 8.09763 1.31658 7.70711 1.70711L2.41421 7L7.70711 12.2929C8.09763 12.6834 8.09763 13.3166 7.70711 13.7071C7.31658 14.0976 6.68342 14.0976 6.29289 13.7071L0.292892 7.70711ZM14.2929 13.7071L8.29289 7.70711C7.90237 7.31658 7.90237 6.68342 8.29289 6.29289L14.2929 0.292893C14.6834 -0.0976311 15.3166 -0.0976311 15.7071 0.292893C16.0976 0.683417 16.0976 1.31658 15.7071 1.70711L10.4142 7L15.7071 12.2929C16.0976 12.6834 16.0976 13.3166 15.7071 13.7071C15.3166 14.0976 14.6834 14.0976 14.2929 13.7071Z" fill="#676767"/>
</svg>
