{
    "section_name": "Category - Slider",
    "section_slug": "category_slider",
    "unique_section_slug": "category_slider",
    "section_enable": "on",
    "array_type": "inner-list",
    "loop_number": 1,
    "section":{
        "title":{
            "lable" : "Category Slider Title",
            "slug" :  "category_slider_title",
            "text" : "<b>Enamórate de </b> <br> ropa increíble",
            "type" : "text",
            "placeholder" : "Por favor, ingresa aquí..."
        },
        "description":{
            "lable" : "Category Slider Description",
            "slug" :  "category_slider_description",
            "text" : "Lorem Ipsum es simplemente un texto de relleno de la industria de la impresión y la composición tipográfica. Lorem Ipsum ha sido el texto de relleno estándar de la industria desde los años 1500, cuando un impresor desconocido tomó una galera de tipos y la desordenó para hacer un libro de muestras tipográficas.",
            "type" : "textarea",
            "placeholder" : "Por favor, ingresa aquí..."
        },
        "category_list":{
            "lable" : "Category Slider List",
            "slug" :  "category_slider_list",
            "text" : "",
            "type" : "select",
            "placeholder" : "Por favor selecciona..",
            "category_ids":[]
        }
    }
}
