{
    "section_name": "Product - Banner",
    "section_slug": "product_banner_slider",
    "unique_section_slug": "product_banner_slider",
    "section_enable": "on",
    "array_type": "inner-list",
    "loop_number": 1,
    "section":{
        "title":{
            "lable" : "Title",
            "slug" :  "product_banner_slider_title",
            "text" : "<b>Los Mejores Juguetes para Bebés</b> <br> para Todos los Niños",
            "type" : "text",
            "placeholder" : "Por favor, ingresa aquí..."
        },
        "sub_title":{
            "lable" : "Sub Title",
            "slug" :  "product_banner_slider_sub_title",
            "text" : "<b>CATEGORÍAS</b>",
            "type" : "text",
            "placeholder" : "Por favor, ingresa aquí..."
        },
        "description":{
            "lable" : "Description",
            "slug" :  "product_banner_slider_description",
            "text" : "Puedes leerle a tu bebé, cantarle a tu bebé y jugar con tu bebé. Es importante pasar tiempo con tu bebé y crear un vínculo con él.",
            "type" : "textarea",
            "placeholder" : "Por favor, ingresa aquí..."
        },
        "button":{
            "lable" : "Button",
            "slug" :  "product_banner_slider_button",
            "text" : "Ir a Categorías",
            "type" : "text",
            "placeholder" : "Por favor, ingresa aquí..."
        }
    }
}
