{
    "section_name": "Footer - Section",
    "section_slug": "footer",
    "unique_section_slug": "footer",
    "section_enable": "on",
    "array_type": "inner-list",
    "loop_number": 1,
    "section":{
        "description": {
            "lable": "Footer Description",
            "slug": "footer_description",
            "text": "Nuestros regalos te transportan a mundos extraordinarios llenos de maravilla, peligro y triunfo. Desde las profundidades de antiguos calabozos hasta la vastedad de galaxias futuristas, prepárate para perderte en narrativas inmersivas que se desarrollan ante tus ojos.",
            "type": "text",
            "placeholder": "Por favor, ingresa aquí..."
        },
        "image": {
            "lable": "Logo Image",
            "slug": "footer_image",
            "text": "themes/gifty/assets/images/footer-logo.svg",
            "image": "themes/gifty/assets/images/footer-logo.svg",
            "type": "file",
            "placeholder": "Por favor, selecciona un archivo"
        },
        "footer_link": {
            "lable": "Footer Links",
            "slug": "footer_links",
            "text": "Enlaces del pie de página",
            "type": "array",
            "loop_number": 4,
            "social_link": ["https://www.youtube.com/", "https://www.facebook.com/", "https://www.twitter.com/", "https://www.instagram.com/"],
            "social_icon": [{
                    "text": "themes/gifty/assets/images/youtube.png",
                    "image": "themes/gifty/assets/images/youtube.png"
                },
                {
                    "text": "themes/gifty/assets/images/facebook.png",
                    "image": "themes/gifty/assets/images/facebook.png"
                },
                {
                    "text": "themes/gifty/assets/images/twitter.png",
                    "image": "themes/gifty/assets/images/twitter.png"
                },
                {
                    "text": "themes/gifty/assets/images/instagram.png",
                    "image": "themes/gifty/assets/images/instagram.png"
                }
            ]
        },
        "footer_menu_type": {
            "lable": "Footer Menu Type",
            "slug": "footer_menu_type",
            "text": "barra_de_menú_del_pie_de_página",
            "type": "array",
            "loop_number": 2,
            "footer_menu_ids": []
        },
        "newsletter_title": {
            "lable": "Footer Newsletter Title",
            "slug": "footer_newsletter_title",
            "text": "Suscríbete al boletín y obtén un -20% de descuento",
            "type": "textarea",
            "placeholder": "Por favor, ingresa aquí.."
        },
        "newsletter_sub_title": {
            "lable": "Footer Newsletter SubTitle",
            "slug": "footer_newsletter_sub_title",
            "text": "El mejor estilo para tu formulario de suscripción al boletín dependerá de tu marca y audiencia. Si no estás seguro de qué estilo elegir, siempre es buena idea obtener comentarios de los demás.",
            "type": "textarea",
            "placeholder": "Por favor, ingresa aquí.."
        },
        "newsletter_description": {
            "lable": "Footer Newsletter Description",
            "slug": "footer_newsletter_description",
            "text": "¡Suscríbete para recibir las últimas noticias, actualizaciones y ofertas! ¡No te preocupes, no enviaremos spam!",
            "type": "textarea",
            "placeholder": "Por favor, ingresa aquí.."
        },
        "copy_right": {
            "lable": "Footer copy_right",
            "slug": "footer_copy_right",
            "text": "© 2022 Gifty. Todos los derechos reservados",
            "type": "textarea",
            "placeholder": "Por favor, ingresa aquí.."
        }
        
    }
}
