{
    "section_name": "Footer - Section",
    "section_slug": "footer",
    "unique_section_slug": "footer",
    "section_enable": "on",
    "array_type": "inner-list",
    "loop_number": 1,
    "section":{
        "description":{
            "lable" : "Footer Section Description",
            "slug" :  "footer_description",
            "text" : "Por favor, no dudes en contactarnos si tienes alguna pregunta o si deseas programar una consulta. ¡Estamos ansiosos por escucharte!",
            "type" : "textarea",
            "placeholder" : "Por favor, ingrese aquí."
        },
        "background_image":{
            "lable" : "Slider Background Image",
            "slug" :  "slider_background_image",
            "text" : "themes/minimarket/assets/images/footer.png",
            "image": "themes/minimarket/assets/images/footer.png",
            "type" : "file",
            "placeholder" : "Por favor, selecciona el archivo."
        },
        "footer_link":{
            "lable" : "Footer Links",
            "slug" :  "footer_links",
            "text" : "Enlaces del pie de página",
            "type" : "array",
            "loop_number" : 4,
            "social_link":["https://www.youtube.com/"],
            "social_icon":[
                {
                    "text":"themes/minimarket/assets/img/youtube.svg",
                    "image":"themes/minimarket/assets/img/youtube.svg"
                },
				{
                    "text":"themes/minimarket/assets/img/youtube.svg",
                    "image":"themes/minimarket/assets/img/youtube.svg"
                },{
                    "text":"themes/minimarket/assets/img/youtube.svg",
                    "image":"themes/minimarket/assets/img/youtube.svg"
                },
				{
                    "text":"themes/minimarket/assets/img/youtube.svg",
                    "image":"themes/minimarket/assets/img/youtube.svg"
                }
            ]
        },
        "footer_menu_type": {
            "lable" : "Footer Menu Type",
            "slug" :  "footer_menu_type",
            "text" : "Barra de menú del pie de página",
            "type" : "array",
            "loop_number" : 2,
            "footer_menu_ids":[]
        },
        "title":{
            "lable" : "Title",
            "slug" :  "text",
            "text" : "<b>Lunes - Viernes: </b><br> 8:00 AM - 9:00 PM",
            "type" : "text",
            "placeholder" : "Por favor, ingrese aquí."
        },
        "sub_title":{
            "lable" : "Footer Subtitle",
            "slug" :  "footer_sub_title",
            "text" : "COMPARTE : ",
            "type" : "text",
            "placeholder" : "Por favor, ingrese aquí."
        },

        "menu_type": {
            "lable" : "Menu Type",
            "slug" :  "menu_type",
            "text" : "Barra de menú",
            "type" : "select",
            "placeholder" : "Por favor, selecciona...",
            "menu_ids":[]
        },
        "image":{
            "lable" : "Logo Slider Image",
            "slug" :  "logo_slider_image",
            "text" : ["themes/minimarket/assets/images/footer-img4.png"],
            "image": ["themes/minimarket/assets/images/footer-img4.png"],
            "type" : "file",
            "placeholder" : "Por favor, selecciona el archivo."
        },
        "footer_title":{
            "lable" : "Social Title",
            "slug" :  "footer_title",
            "text" : "INSTAGRAM",
            "type" : "text",
            "placeholder" : "Por favor, ingrese aquí."
        }
    }
}
