{
    "section_name": "Category",
    "section_slug": "category",
    "unique_section_slug": "category",
    "section_enable": "on",
    "array_type": "inner-list",
    "loop_number": 1,
    "section":{
        "title":{
            "lable" : "Category Title",
            "slug" :  "category_title",
            "text" : "Ama nuestras categorías",
            "type" : "text",
            "placeholder" : "Por favor ingrese aquí."
        },
        "button":{
            "lable" : "Category Button",
            "slug" :  "category_button",
            "text" : "Mostrar más productos.",
            "type" : "text",
            "placeholder" : "Por favor ingrese aquí."
        },
        "button_second":{
            "lable" : "Category Button",
            "slug" :  "category_button_second",
            "text" : "Ve a la categoría",
            "type" : "text",
            "placeholder" : "Por favor ingrese aquí."
        }      
    }
}