{
    "section_name": "Category - Slider",
    "section_slug": "category_slider",
    "unique_section_slug": "category_slider",
    "section_enable": "on",
    "array_type": "inner-list",
    "loop_number": 1,
    "section":{
        "title":{
            "lable" : "Category Slider Title",
            "slug" :  "category_slider_title",
            "text" : "<b>FEnamorate de  </b> <br> prendas increibles",
            "type" : "text",
            "placeholder" : "Por favor ingrese aquí."
        },
        "description":{
            "lable" : "Category Slider Description",
            "slug" :  "category_slider_description",
            "text" : "Lorem Ipsum es simplemente el texto ficticio de la industria de la impresión y composición tipográfica. Lorem Ipsum has been the industry's standard dummy text ever since the 1500s, when an unknown printer took a galley of type and scrambled it to make a type specimen book.",
            "type" : "textarea",
            "placeholder" : "Por favor ingrese aquí."
        },
        "category_list":{
            "lable" : "Category Slider List",
            "slug" :  "category_slider_list",
            "text" : "",
            "type" : "select",
            "placeholder" : "Por favor seleccione.",
            "category_ids":[]
        }
    }
}
