{
    "section_name": "Homepage Slider",
    "section_slug": "slider",
    "unique_section_slug": "slider",
    "section_enable": "on",
    "array_type": "multi-inner-list",
    "loop_number": 1,
    "section":{
        "service_title":{
            "lable" : "Card Title",
            "slug" :  "slider_service_title",
            "text" : "Servicio de entrega",
            "type" : "text",
            "placeholder" : "Por favor ingrese aquí."
        },
        "service_sub_title":{
            "lable" : "Card Sub Title",
            "slug" :  "slider_service_sub_title",
            "text" : "Entrega en 24 horas",
            "type" : "textarea",
            "placeholder" : "Por favor ingrese aquí."
        },
        "service_description":{
            "lable" : "Card Description",
            "slug" :  "slider_service_description",
            "text" : "Bienvenido a nuestra tienda. Los zapatos están hechos de compuestos flexibles, generalmente con una suela de goma densa. Aunque el diseño original era básico.",
            "type" : "text",
            "placeholder" : "Por favor ingrese aquí."
        },
        "service_button":{
            "lable" : "Card Service Button",
            "slug" :  "slider_service_button",
            "text" : "Mostrar productos.",
            "type" : "text",
            "placeholder" : "Por favor ingrese aquí."
        },
        "button_third":{
            "lable" : "Slider Third Button",
            "slug" :  "slider_third_button",
            "text" : ["Mostrar más productos."],
            "type" : "text",
            "placeholder" : "Por favor ingrese aquí."
        },
        "title":{
            "lable" : "Slider Title",
            "slug" :  "slider_title",
            "text" : ["Descuentos diarios."],
            "type" : "text",
            "placeholder" : "Por favor ingrese aquí."
        },
        "sub_title":{
            "lable" : "Slider Sub Title",
            "slug" :  "slider_sub_title",
            "text" : ["<b>Tendencia de verano<br> </b> Producto de Zapatos Rock"],
            "type" : "text",
            "placeholder" : "Por favor ingrese aquí."
        },
        "description":{
            "lable" : "Slider Description",
            "slug" :  "slider_description",
            "text" : ["Estos son zapatos formales que típicamente están hechos de cuero y tienen un diseño de punta cerrada. Se usan para ocasiones especiales, como bodas, entrevistas de trabajo y otros eventos formales."],
            "type" : "textarea",
            "placeholder" : "Por favor ingrese aquí."
        },
        "button_first":{
            "lable" : "Slider First Button",
            "slug" :  "slider_first_button",
            "text" : ["Mostrar productos."],
            "type" : "text",
            "placeholder" : "Por favor ingrese aquí."
        },
        "button_second":{
            "lable" : "Slider Second Button",
            "slug" :  "slider_second_button",
            "text" : ["Descuentos diarios."],
            "type" : "text",
            "placeholder" : "Por favor ingrese aquí."
        },
        "background_image":{
            "lable" : "Slider Background Image",
            "slug" :  "slider_background_image",
            "text" : "themes/shoes/assets/images/banner-image.png",
            "image": "themes/shoes/assets/images/banner-image.png",
            "type" : "file",
            "placeholder" : "Por favor, seleccione el archivo."
        }
    }
}
