{
    "section_name": "Subscribe - Section",
    "section_slug": "subscribe",
    "unique_section_slug": "subscribe",
    "section_enable": "on",
    "array_type": "inner-list",
    "loop_number": 1,
    "section":{
        "title":{
            "lable" : "Subscribe Title",
            "slug" :  "subscribe_title",
            "text" : "<b> Suscribete y obten un  </b> -20% de descuento",
            "type" : "text",
            "placeholder" : "Por favor ingrese aquí."
        },
        "description":{
            "lable" : "Subscribe Description",
            "slug" :  "subscribe_description",
            "text" : "Lorem Ipsum es simplemente el texto ficticio de la industria de la impresión y composición tipográfica. Lorem Ipsum has been the industrys standard dummy.",
            "type" : "textarea",
            "placeholder" : "Por favor ingrese aquí."
        },
        "button":{
            "lable" : "Subscribe Button",
            "slug" :  "subscribe_button",
            "text" : "Subscribe",
            "type" : "text",
            "placeholder" : "Por favor ingrese aquí."
        },
        "sub_title":{
            "lable" : "Subscribe Sub Title",
            "slug" :  "subscribe_sub_title",
            "text" : "Lorem Ipsum es simplemente el texto ficticio de la industria de la impresión y composición tipográfica.",
            "type" : "text",
            "placeholder" : "Por favor ingrese aquí."
        },
        "image":{
            "lable" : "Subscribe Image",
            "slug" :  "subscribe_image",
            "text" : "themes/shoes/assets/images/sub-banner.jpg",
            "image" : "themes/shoes/assets/images/sub-banner.jpg",
            "type" : "file",
            "placeholder" : "Por favor ingrese aquí."
        }
    }
}
