{
    "section_name": "Blog",
    "section_slug": "blog",
    "unique_section_slug": "blog",
    "section_enable": "on",
    "array_type": "inner-list",
    "loop_number": 1,
    "section":{
        "title":{
            "lable" : "Blog Title",
            "slug" :  "blog_title",
            "text" : "Blog y artículos",
            "type" : "text",
            "placeholder" : "Por favor, entre aquí..."
        },
        "sub_title":{
            "lable" : "Blog Sub Title",
            "slug" :  "blog_sub_title",
            "text" : "Producto de flores",
            "type" : "text",
            "placeholder" : "Por favor, entre aquí..."
        },
        "description":{
            "lable" : "Blog Description",
            "slug" :  "blog_description",
            "text" : "Lorem Ipsum es simplemente un texto ficticio de la industria de la impresión y composición tipográfica. Lorem Ipsum ha sido el texto ficticio estándar de la industria. Lorem Ipsum es simplemente un texto ficticio de la industria de la impresión y composición tipográfica.",
            "type" : "textarea",
            "placeholder" : "Por favor, entre aquí..."
        },
        "image":{
            "lable" : "blog Image",
            "slug" :  "blog_image",
            "text" : "themes/blossom/assets/images/home-blog-back.jpg",
            "image" : "themes/blossom/assets/images/home-blog-back.jpg",
            "type" : "file",
            "placeholder" : "Por favor, entre aquí..."
        }
    }
}
