<svg width="14" height="16" viewBox="0 0 14 16" fill="none" xmlns="http://www.w3.org/2000/svg">
<path fill-rule="evenodd" clip-rule="evenodd" d="M4.69761 7.59204C4.67814 7.59204 4.65855 7.58867 4.63978 7.58192C4.36939 7.48372 4.16582 7.38037 3.98617 7.28933C3.56359 7.07464 3.28438 6.93352 2.48811 7.04119C2.39494 7.05422 2.31012 6.98899 2.29745 6.89623C2.2849 6.80347 2.34978 6.71829 2.44253 6.70569C3.34333 6.58316 3.69476 6.76133 4.13948 6.98709C4.18802 7.01177 4.23839 7.03735 4.29149 7.06345C3.96238 6.57594 3.39767 5.81069 3.23122 5.6485C3.16422 5.58339 3.16274 5.47613 3.22797 5.40912C3.2932 5.34223 3.40034 5.34052 3.46746 5.40604C3.64404 5.57794 4.84104 7.15828 4.86614 7.40559C4.87194 7.4636 4.84767 7.52048 4.80162 7.55617C4.77149 7.57973 4.73473 7.59204 4.69761 7.59204Z" fill="white"/>
<path fill-rule="evenodd" clip-rule="evenodd" d="M4.69513 7.59202C4.65955 7.59202 4.62398 7.58089 4.59361 7.55828C4.52589 7.50743 4.50594 7.4145 4.54702 7.34051C4.71922 7.02974 4.61474 6.20927 4.26757 5.1458C4.25479 5.1068 4.2423 5.06743 4.22851 5.03642C4.1905 4.95088 4.22904 4.85079 4.31457 4.81302C4.40011 4.7749 4.50014 4.81361 4.53797 4.89909C4.5562 4.93987 4.57325 4.99096 4.58757 5.03458C4.76639 5.58247 4.94125 6.24088 4.96398 6.77723C5.19223 6.39898 5.43143 5.88992 5.66406 5.28242C5.69756 5.19493 5.79547 5.1509 5.88284 5.18475C5.97009 5.2182 6.01383 5.31616 5.98039 5.40335C5.70715 6.11728 5.28333 7.06757 4.8157 7.54165C4.78279 7.57491 4.73917 7.59202 4.69513 7.59202Z" fill="white"/>
<path fill-rule="evenodd" clip-rule="evenodd" d="M2.75239 8.07499C2.68763 8.07499 2.62578 8.03746 2.59772 7.97453C2.5596 7.88912 2.59813 7.78908 2.68355 7.75096C2.81324 7.69307 2.94418 7.65684 3.07097 7.6218C3.14721 7.60079 3.22298 7.57978 3.29691 7.55409C3.5161 7.47755 3.82971 7.42404 4.10637 7.37692C4.31473 7.34152 4.52984 7.30476 4.62059 7.27037C4.66593 7.24101 4.84753 7.11511 5.0392 6.9824C5.90993 6.37934 6.40561 6.04194 6.53104 5.98594C6.61646 5.94824 6.71661 5.98653 6.75461 6.07189C6.79256 6.15731 6.7542 6.25746 6.66867 6.29558C6.54862 6.34891 5.65937 6.96488 5.23199 7.26072C4.8795 7.50501 4.79799 7.56137 4.76129 7.57853L4.76135 7.57871C4.76034 7.57912 4.75922 7.57954 4.75791 7.58013C4.75608 7.58096 4.75424 7.58167 4.75253 7.58244C4.63017 7.63116 4.41341 7.66809 4.16332 7.71089C3.89985 7.75564 3.60116 7.80672 3.40849 7.87391C3.32763 7.90202 3.24464 7.92517 3.16136 7.94813C3.04143 7.98146 2.92808 8.01277 2.82135 8.06019C2.79904 8.07037 2.7756 8.07504 2.75239 8.07499Z" fill="white"/>
<path fill-rule="evenodd" clip-rule="evenodd" d="M1.9439 6.56148H1.94533H1.9439ZM2.06673 6.71799C2.03796 6.71799 2.00813 6.72095 1.97865 6.72716V6.72734C1.89655 6.74439 1.82285 6.78452 1.77651 6.83714C1.75632 6.86029 1.724 6.90622 1.73401 6.95446C1.75082 7.03408 1.88957 7.0983 2.04933 7.06427C2.20956 7.03065 2.31061 6.91664 2.29391 6.83703C2.28391 6.78872 2.23579 6.75978 2.20797 6.74687C2.16718 6.7277 2.11841 6.71799 2.06673 6.71799ZM1.95829 7.41268C1.68239 7.41268 1.45201 7.25972 1.40258 7.02396C1.37311 6.88337 1.41655 6.73379 1.52198 6.61369C1.61698 6.5056 1.75443 6.42806 1.9091 6.39562C2.06383 6.3633 2.22063 6.37881 2.35115 6.43978C2.49588 6.50738 2.59586 6.62677 2.62539 6.76747C2.68411 7.04775 2.46167 7.32371 2.11882 7.39557C2.06448 7.40717 2.0105 7.41268 1.95829 7.41268Z" fill="white"/>
<path fill-rule="evenodd" clip-rule="evenodd" d="M2.19924 7.76931H2.20066H2.19924ZM2.42299 7.89172C2.3722 7.89172 2.31739 7.90314 2.26547 7.92516C2.18811 7.95807 2.12359 8.0117 2.08849 8.07226C2.0731 8.09878 2.05025 8.15004 2.06943 8.19532C2.08878 8.24102 2.14158 8.26014 2.17136 8.26748C2.23925 8.28411 2.32266 8.27505 2.40002 8.2422C2.47739 8.20929 2.54185 8.15572 2.57695 8.09528C2.5924 8.06859 2.61537 8.0175 2.59589 7.97181C2.57671 7.92652 2.52391 7.90729 2.49414 7.90012C2.47182 7.8945 2.44779 7.89172 2.42299 7.89172ZM2.24275 8.61429C2.19054 8.61429 2.13939 8.60837 2.09015 8.59624C1.93506 8.558 1.81383 8.46003 1.7576 8.32779C1.7016 8.1955 1.71528 8.04059 1.79542 7.90226C1.8677 7.77759 1.9875 7.67513 2.133 7.61333H2.13306C2.27856 7.55177 2.43577 7.53656 2.57523 7.57113C2.73038 7.60937 2.85143 7.7071 2.9076 7.83945C2.96384 7.97169 2.9501 8.12677 2.8699 8.26511C2.7978 8.38947 2.67781 8.49206 2.53232 8.55385C2.43808 8.59399 2.33899 8.61429 2.24275 8.61429Z" fill="white"/>
<path fill-rule="evenodd" clip-rule="evenodd" d="M6.93988 5.79233C6.86376 5.82773 6.80113 5.88361 6.7681 5.94535C6.75372 5.97228 6.73252 6.02449 6.75342 6.06924C6.78787 6.14293 6.93715 6.17354 7.08555 6.10428C7.16161 6.06888 7.22412 6.01306 7.25715 5.95127C7.27154 5.92427 7.29273 5.87224 7.27183 5.82738C7.25094 5.78274 7.19755 5.76558 7.16753 5.75919C7.09881 5.74433 7.01576 5.75664 6.93988 5.79233ZM6.91579 6.48323C6.70932 6.48323 6.52772 6.38657 6.44644 6.21237C6.38577 6.08226 6.39406 5.92658 6.46947 5.7857C6.53725 5.65879 6.6535 5.55213 6.79669 5.48524H6.79681C6.94011 5.41865 7.09656 5.39828 7.23732 5.42764C7.39377 5.46056 7.51819 5.55414 7.57893 5.68425C7.6396 5.81435 7.63125 5.97003 7.55602 6.11091C7.48812 6.23776 7.37181 6.34449 7.22874 6.41143C7.1242 6.46009 7.01695 6.48323 6.91579 6.48323Z" fill="white"/>
<path fill-rule="evenodd" clip-rule="evenodd" d="M5.60819 4.70842H5.60961H5.60819ZM6.06043 4.47881C5.95045 4.47881 5.82259 4.59808 5.76908 4.76122C5.76914 4.76122 5.76908 4.76122 5.76908 4.7614C5.70811 4.94685 5.75795 5.14331 5.87569 5.18214C5.99324 5.21985 6.14987 5.09199 6.21078 4.90636C6.27181 4.72091 6.22191 4.52445 6.10417 4.48562C6.09008 4.48106 6.07535 4.47881 6.06043 4.47881ZM5.9218 5.52813C5.87101 5.52813 5.82004 5.52025 5.76991 5.50374C5.47069 5.40554 5.32584 5.02498 5.44725 4.65562H5.44731C5.57055 4.28004 5.90558 4.06357 6.20989 4.1639C6.50929 4.26222 6.6539 4.64277 6.53267 5.01214C6.4295 5.32574 6.17881 5.52813 5.9218 5.52813Z" fill="white"/>
<path fill-rule="evenodd" clip-rule="evenodd" d="M2.76812 4.81643C2.71899 4.81643 2.64915 4.82714 2.60309 4.88012C2.54887 4.94292 2.55763 5.03018 2.56764 5.07658C2.58859 5.17313 2.65104 5.27239 2.73918 5.34857C2.82714 5.42493 2.93422 5.47253 3.03272 5.47945C3.08031 5.48324 3.1678 5.47892 3.22202 5.41665C3.27606 5.35414 3.2673 5.26677 3.2573 5.22036C3.2364 5.12382 3.17389 5.02473 3.08581 4.94837C2.99785 4.87213 2.89071 4.8243 2.79222 4.81738C2.78505 4.81672 2.77683 4.81643 2.76812 4.81643ZM3.05663 5.8191C3.04083 5.8191 3.02496 5.81857 3.00892 5.81744C2.83631 5.80519 2.66169 5.7296 2.51732 5.60459C2.37307 5.47939 2.27327 5.31738 2.23675 5.14827C2.19685 4.96394 2.23704 4.78541 2.34708 4.65838C2.45724 4.53136 2.62807 4.46541 2.81625 4.47938C2.98874 4.49152 3.1633 4.56723 3.30767 4.69224C3.30773 4.69224 3.30767 4.69224 3.30785 4.69242C3.4521 4.81744 3.55172 4.97945 3.5883 5.14868C3.6282 5.33271 3.58801 5.5113 3.47791 5.63827C3.37728 5.75446 3.22569 5.8191 3.05663 5.8191Z" fill="white"/>
<path fill-rule="evenodd" clip-rule="evenodd" d="M4.00355 4.60727C4.04196 4.69097 4.10287 4.76028 4.17077 4.79692C4.20167 4.81373 4.26068 4.838 4.31319 4.81373C4.36569 4.7897 4.38605 4.72909 4.39333 4.69493C4.40973 4.6194 4.39712 4.52813 4.35859 4.44425C4.28087 4.27448 4.13265 4.19925 4.04895 4.23766C3.90304 4.30473 3.98348 4.56565 4.00355 4.60727ZM4.00929 5.09478C3.94051 5.05749 3.77394 4.92247 3.69568 4.74844C3.54255 4.41424 3.63554 4.05488 3.90765 3.92986C4.17988 3.8052 4.51332 3.96905 4.66657 4.30319C4.73594 4.45431 4.75648 4.61905 4.72428 4.76667C4.689 4.92993 4.59045 5.05938 4.45442 5.12177C4.3107 5.18783 4.14632 5.16901 4.00929 5.09478Z" fill="white"/>
<path fill-rule="evenodd" clip-rule="evenodd" d="M6.89838 15.9068C6.83943 15.9068 6.78207 15.8759 6.75093 15.821C6.10028 14.6734 6.03748 13.3516 5.97692 12.0735C5.89772 10.4048 5.82296 8.82851 4.576 7.54058C4.51089 7.47328 4.51272 7.36602 4.57991 7.30109C4.64715 7.23615 4.75453 7.23769 4.81946 7.30488C6.15527 8.68461 6.2366 10.3994 6.31527 12.0573C6.37666 13.3529 6.43484 14.5766 7.04571 15.6538C7.09183 15.7351 7.06318 15.8386 6.98191 15.8847C6.95539 15.8996 6.92674 15.9068 6.89838 15.9068Z" fill="white"/>
<path fill-rule="evenodd" clip-rule="evenodd" d="M8.27077 4.54512C8.24354 4.54512 8.21631 4.53849 8.19163 4.52546C8.14013 4.49812 8.10621 4.44644 8.10183 4.38825C8.07816 4.06997 9.60948 1.66721 9.67767 1.57238C9.73231 1.49643 9.83826 1.4788 9.91409 1.53367C9.99004 1.5883 10.0073 1.69414 9.95274 1.76997C9.74261 2.06197 9.01927 3.25589 8.65328 3.93377C8.72709 3.88381 8.79877 3.83397 8.86981 3.78472C9.48601 3.35735 10.0184 2.9881 11.1671 2.9424C11.2601 2.94098 11.3393 3.01142 11.3431 3.10483C11.3468 3.1983 11.2741 3.2772 11.1806 3.28087C10.1303 3.32266 9.65915 3.64941 9.06289 4.06305C8.84737 4.21269 8.62463 4.36706 8.35536 4.52233C8.32925 4.53748 8.29995 4.54512 8.27077 4.54512Z" fill="white"/>
<path fill-rule="evenodd" clip-rule="evenodd" d="M8.27047 4.54494C8.23632 4.54494 8.20216 4.53464 8.17251 4.51363C7.56069 4.07927 7.12485 3.11803 6.83634 2.48177C6.75418 2.3004 6.68321 2.14372 6.6355 2.06428C6.58738 1.98413 6.61336 1.88007 6.69345 1.83195C6.77366 1.78424 6.87766 1.80981 6.92596 1.89007C6.98355 1.98608 7.05482 2.14318 7.14486 2.34201C7.32539 2.74003 7.59129 3.32663 7.91999 3.77259C7.88808 3.22044 8.02612 2.5174 8.14522 1.91156C8.18855 1.69036 8.22625 1.49928 8.24697 1.35278C8.25544 1.2921 8.26503 1.22676 8.27829 1.17384C8.30084 1.08303 8.3933 1.02787 8.48351 1.05048C8.57431 1.07315 8.6296 1.16508 8.60687 1.2557C8.59633 1.2982 8.58929 1.35053 8.58301 1.39475C8.56034 1.55563 8.52192 1.75079 8.47747 1.97679C8.33641 2.69492 8.10029 3.8966 8.40206 4.26887C8.45527 4.33463 8.4519 4.42981 8.39401 4.49149C8.36092 4.52677 8.31587 4.54494 8.27047 4.54494Z" fill="white"/>
<path fill-rule="evenodd" clip-rule="evenodd" d="M11.0471 4.59228C11.0337 4.59228 11.0198 4.59062 11.0062 4.58719C10.8643 4.55202 10.7192 4.53806 10.5655 4.52355C10.4632 4.51385 10.3573 4.50366 10.2522 4.48656C10.0019 4.44577 9.52716 4.48431 9.10813 4.51805C8.67531 4.55303 8.39793 4.57333 8.24657 4.54374C8.20549 4.53906 8.16145 4.51308 7.72632 4.25653C7.24911 3.97507 6.13172 3.31613 5.96941 3.27416C5.87926 3.2509 5.82404 3.15886 5.847 3.06841C5.86991 2.97808 5.96065 2.92262 6.0514 2.94564C6.2243 2.98862 6.83387 3.33715 7.89834 3.96483C8.08805 4.07659 8.26812 4.1829 8.32429 4.21362C8.44629 4.23155 8.78245 4.20456 9.08084 4.18047C9.51911 4.14519 10.0156 4.10512 10.3063 4.15223C10.4005 4.16745 10.4963 4.17668 10.5977 4.18627C10.7569 4.2016 10.9215 4.21729 11.0878 4.25866C11.1786 4.2811 11.2339 4.37303 11.2113 4.46377C11.1922 4.54078 11.1232 4.59228 11.0471 4.59228Z" fill="white"/>
<path fill-rule="evenodd" clip-rule="evenodd" d="M11.7138 2.79123C11.6089 2.79123 11.5083 2.81999 11.4352 2.87125C11.3985 2.89694 11.3363 2.95182 11.3339 3.0296C11.3314 3.1072 11.39 3.16592 11.425 3.19403C11.4987 3.25299 11.6048 3.28886 11.7163 3.29241C11.9233 3.29916 12.1103 3.18782 12.1145 3.05446C12.1171 2.9768 12.0585 2.91808 12.0235 2.89002C11.9498 2.831 11.8437 2.79513 11.732 2.79152C11.7261 2.79134 11.7198 2.79123 11.7138 2.79123ZM11.7346 3.63135C11.7249 3.63135 11.7153 3.63124 11.7056 3.63094C11.5198 3.62502 11.3449 3.56375 11.2133 3.45833C11.0696 3.34332 10.9901 3.18308 10.9954 3.01882C11.0006 2.85456 11.0899 2.69971 11.2407 2.59388C11.3787 2.49692 11.5564 2.44791 11.743 2.453C11.9288 2.45892 12.1036 2.52006 12.2353 2.62566C12.379 2.74068 12.4584 2.90085 12.4532 3.06517C12.4432 3.38203 12.1234 3.63141 11.7346 3.63135Z" fill="white"/>
<path fill-rule="evenodd" clip-rule="evenodd" d="M11.5253 4.29005C11.3699 4.29005 11.2363 4.35747 11.2125 4.4607C11.1951 4.53647 11.2411 4.60549 11.27 4.63982C11.3309 4.71192 11.4281 4.76768 11.5368 4.79284C11.7398 4.83978 11.9437 4.76644 11.9736 4.63645C11.9911 4.56062 11.9451 4.4916 11.9162 4.45733C11.8554 4.38517 11.7581 4.32947 11.6495 4.30431C11.6076 4.29467 11.5657 4.29005 11.5253 4.29005ZM11.6606 5.1458C11.5952 5.1458 11.5282 5.13835 11.4607 5.12278C11.2795 5.08099 11.1199 4.98699 11.0112 4.85813C10.8924 4.71742 10.8455 4.54482 10.8825 4.38458C10.9556 4.06802 11.3342 3.88422 11.7255 3.97431C11.9066 4.01604 12.0663 4.1101 12.175 4.23897C12.2938 4.37967 12.3408 4.55228 12.3036 4.71245C12.2433 4.97444 11.9738 5.1458 11.6606 5.1458Z" fill="white"/>
<path fill-rule="evenodd" clip-rule="evenodd" d="M5.09255 2.86405C5.05815 2.99303 5.20418 3.15351 5.4052 3.20731C5.60611 3.26106 5.81281 3.195 5.84726 3.06602C5.86732 2.9909 5.8237 2.92052 5.79588 2.88524C5.73757 2.81096 5.64245 2.75188 5.5346 2.72311C5.39508 2.6857 5.13718 2.69819 5.09255 2.86405ZM5.55307 3.56608C5.47689 3.56608 5.39769 3.55578 5.31766 3.53447C4.92911 3.43053 4.68139 3.09047 4.76539 2.77657C4.86311 2.41188 5.29658 2.30858 5.62209 2.39589C5.80174 2.4439 5.95801 2.54352 6.06231 2.67606C6.17596 2.82072 6.21686 2.99487 6.17436 3.15368C6.10635 3.40798 5.85312 3.56608 5.55307 3.56608Z" fill="white"/>
<path fill-rule="evenodd" clip-rule="evenodd" d="M6.23859 0.965559C6.08362 1.04873 6.05835 1.3164 6.18383 1.55015C6.26913 1.70962 6.50371 1.93408 6.70136 1.82806C6.8565 1.74484 6.8816 1.47705 6.75611 1.24335C6.67058 1.0946 6.43333 0.861084 6.23859 0.965559ZM5.88532 1.71039C5.66951 1.30811 5.75616 0.839952 6.07841 0.667108C6.45512 0.465496 6.87515 0.748321 7.05468 1.08318C7.15508 1.27029 7.19444 1.47793 7.16549 1.66759C7.1343 1.8724 7.02349 2.03962 6.86148 2.12657C6.48631 2.32801 6.06438 2.04435 5.88532 1.71039Z" fill="white"/>
<path fill-rule="evenodd" clip-rule="evenodd" d="M9.97233 1.09709C9.84625 1.25247 9.82239 1.45923 9.92136 1.53956C10.0202 1.61988 10.2177 1.55424 10.3436 1.39874C10.4698 1.24365 10.4935 1.03683 10.3944 0.956387C10.2317 0.823794 10.0051 1.05702 9.97233 1.09709ZM10.0306 1.91413C9.91314 1.91413 9.80079 1.87802 9.70791 1.80249C9.45628 1.59834 9.45682 1.19488 9.70904 0.883757C9.74313 0.84907 10.1839 0.349184 10.6079 0.693333C10.8596 0.897608 10.859 1.30125 10.6067 1.61213C10.4475 1.80841 10.2316 1.91413 10.0306 1.91413Z" fill="white"/>
<path fill-rule="evenodd" clip-rule="evenodd" d="M8.63505 0.339672C8.49174 0.339672 8.38484 0.519087 8.35341 0.639071C8.32151 0.761837 8.3295 1.01063 8.48553 1.05105C8.68495 1.10172 8.77759 0.807771 8.80174 0.755977C8.82826 0.654639 8.82411 0.549453 8.79073 0.46747C8.76344 0.401115 8.71194 0.339672 8.63505 0.339672ZM8.40017 1.37887C8.04673 1.28676 7.94344 0.869451 8.02572 0.553596C8.10829 0.237683 8.40154 -0.0756858 8.75527 0.0163003C8.90941 0.056374 9.03656 0.174109 9.10404 0.33908C9.16572 0.489668 9.17472 0.667957 9.12955 0.841393C9.04567 1.16287 8.75509 1.47115 8.40017 1.37887Z" fill="white"/>
<path fill-rule="evenodd" clip-rule="evenodd" d="M6.14553 12.2349C6.05479 12.2349 5.97967 12.1629 5.97648 12.0715C5.91083 10.2259 6.53041 9.00744 7.12985 7.82909C7.67029 6.76627 8.18065 5.7626 8.10163 4.38523C8.09624 4.29177 8.16751 4.2118 8.26092 4.20641C8.35651 4.20315 8.43435 4.27235 8.43962 4.36576C8.52397 5.83463 7.99342 6.87791 7.43174 7.98263C6.85194 9.12263 6.25238 10.3014 6.31488 12.0593C6.31826 12.1529 6.24521 12.2314 6.15163 12.2348C6.14968 12.2347 6.14766 12.2349 6.14553 12.2349Z" fill="white"/>
<path fill-rule="evenodd" clip-rule="evenodd" d="M10.3334 10.2832C10.2988 10.2832 10.2644 10.2727 10.2353 10.2521C10.1879 10.2181 10.1611 10.1626 10.1643 10.1044C10.1784 9.8564 11.3046 8.22469 11.4735 8.04504C11.5375 7.97685 11.6447 7.97365 11.7129 8.0377C11.7811 8.1018 11.7843 8.20888 11.7202 8.27725C11.5612 8.44648 11.0306 9.23588 10.7233 9.73719C10.7751 9.70884 10.8244 9.68102 10.8719 9.6542C11.3062 9.40902 11.6497 9.2157 12.5548 9.29827C12.648 9.30674 12.7166 9.38919 12.708 9.48248C12.6996 9.57565 12.6174 9.6439 12.5238 9.63573C11.7235 9.56222 11.4509 9.71629 11.0383 9.94922C10.8627 10.0481 10.664 10.1605 10.398 10.2705C10.3773 10.2789 10.3553 10.2832 10.3334 10.2832Z" fill="white"/>
<path fill-rule="evenodd" clip-rule="evenodd" d="M10.3352 10.283C10.2937 10.283 10.2523 10.2679 10.2198 10.2378C9.73167 9.78461 9.26648 8.8538 8.96228 8.15301C8.92505 8.06724 8.96441 7.96744 9.05024 7.93032C9.1356 7.89303 9.2357 7.93228 9.27299 8.01823C9.53184 8.61454 9.79324 9.11265 10.0379 9.48059C10.037 8.94442 10.1823 8.28033 10.3357 7.7293C10.3507 7.67627 10.365 7.62572 10.3812 7.58523C10.4155 7.49827 10.5139 7.45565 10.6008 7.48981C10.6879 7.52426 10.7305 7.62264 10.6962 7.70953C10.6842 7.7402 10.6738 7.77826 10.6647 7.81105C10.362 8.89778 10.2937 9.7221 10.4795 10.0251C10.5237 10.0972 10.5079 10.191 10.4425 10.2446C10.4112 10.2703 10.3732 10.283 10.3352 10.283Z" fill="white"/>
<path fill-rule="evenodd" clip-rule="evenodd" d="M12.297 10.6802C12.2764 10.6802 12.2554 10.6764 12.235 10.6683C12.1266 10.6256 12.0122 10.5994 11.891 10.5714C11.8066 10.552 11.7225 10.5325 11.6403 10.5079C11.4449 10.449 11.1444 10.4114 10.8792 10.3782C10.6212 10.3458 10.3983 10.318 10.2756 10.2724C10.1879 10.2401 10.1432 10.1426 10.1756 10.0549C10.2082 9.96724 10.3053 9.92249 10.3933 9.95487C10.4792 9.98672 10.704 10.0148 10.9213 10.0421C11.1998 10.0769 11.5153 10.1166 11.7379 10.1834C11.813 10.206 11.8899 10.2237 11.9671 10.2415C12.095 10.2708 12.2272 10.3012 12.3591 10.3532C12.4462 10.3874 12.4889 10.4858 12.4546 10.5727C12.4284 10.6395 12.3646 10.6802 12.297 10.6802Z" fill="white"/>
<path fill-rule="evenodd" clip-rule="evenodd" d="M12.9482 9.29349C12.8901 9.29349 12.8347 9.30551 12.7903 9.32877C12.763 9.34274 12.7163 9.37394 12.7084 9.42265C12.6951 9.5028 12.8012 9.61231 12.9627 9.639C13.1237 9.66511 13.2596 9.59538 13.2729 9.51535C13.2807 9.46651 13.2465 9.42218 13.2252 9.40016C13.1768 9.34949 13.1014 9.31267 13.0186 9.29929C13.0186 9.29912 13.0186 9.29912 13.0184 9.29912C12.9949 9.29521 12.9713 9.29349 12.9482 9.29349ZM13.0357 9.98369C12.9939 9.98369 12.9511 9.98031 12.9078 9.97327C12.562 9.91638 12.3276 9.65049 12.374 9.36778C12.3973 9.22589 12.4919 9.1023 12.6336 9.02849C12.7612 8.96189 12.9174 8.93916 13.0732 8.96497H13.0733C13.2292 8.99054 13.3701 9.06181 13.4697 9.1657C13.5802 9.281 13.6303 9.42851 13.607 9.57034C13.5665 9.81741 13.3264 9.98369 13.0357 9.98369Z" fill="white"/>
<path fill-rule="evenodd" clip-rule="evenodd" d="M12.6428 10.4824C12.5494 10.4824 12.4759 10.5182 12.4565 10.5701C12.4393 10.6162 12.4645 10.6663 12.4809 10.6921C12.5188 10.7512 12.5855 10.8019 12.6643 10.8313C12.7429 10.8606 12.8266 10.8663 12.894 10.8465C12.9233 10.8379 12.9751 10.8166 12.9925 10.7703C13.0208 10.6942 12.9381 10.5661 12.7849 10.5088V10.5087C12.7355 10.4904 12.6869 10.4824 12.6428 10.4824ZM12.8076 11.197C12.721 11.197 12.6318 11.1808 12.5456 11.1486C12.3977 11.0933 12.2735 10.996 12.1957 10.8749C12.1097 10.7404 12.089 10.586 12.1393 10.4514C12.2397 10.183 12.5756 10.0689 12.9033 10.1915H12.9034C13.2316 10.3141 13.41 10.6204 13.3097 10.8887C13.2594 11.0235 13.1427 11.1265 12.9894 11.1714C12.9315 11.1884 12.8702 11.197 12.8076 11.197Z" fill="white"/>
<path fill-rule="evenodd" clip-rule="evenodd" d="M8.84883 7.23263C8.83249 7.23263 8.8155 7.23529 8.79887 7.24169C8.68303 7.28543 8.64177 7.48402 8.71079 7.66663C8.77981 7.8493 8.9423 7.97077 9.05772 7.9272C9.17362 7.8834 9.2147 7.68469 9.14562 7.50208C9.10851 7.40388 9.04429 7.32006 8.96923 7.27247C8.94295 7.25577 8.89778 7.23263 8.84883 7.23263ZM9.01043 8.27425C8.76057 8.27425 8.50598 8.08312 8.39393 7.78632C8.25424 7.41642 8.37955 7.03783 8.67901 6.92483C8.82817 6.86836 9.00036 6.89091 9.15083 6.98662C9.28846 7.07381 9.39909 7.21446 9.46249 7.38251H9.46254C9.60242 7.75246 9.47705 8.13071 9.17753 8.24388C9.12319 8.26448 9.06702 8.27425 9.01043 8.27425Z" fill="white"/>
<path fill-rule="evenodd" clip-rule="evenodd" d="M11.69 7.61498H11.6913H11.69ZM12.029 7.63701C12.0195 7.63701 12.0108 7.63771 12.0037 7.63854C11.937 7.64618 11.8649 7.68241 11.8063 7.73793V7.73805C11.7477 7.79351 11.7075 7.86336 11.6962 7.92954C11.6913 7.95819 11.6879 8.01099 11.7197 8.04443C11.7513 8.07788 11.8042 8.07734 11.833 8.07391C11.8998 8.06633 11.9718 8.03017 12.0304 7.97458C12.0891 7.91894 12.1292 7.84921 12.1404 7.78309C12.1454 7.75438 12.1488 7.70164 12.1172 7.6682C12.0934 7.64292 12.0575 7.63701 12.029 7.63701ZM11.8086 8.41415C11.6771 8.41415 11.5575 8.36591 11.4737 8.27741C11.3765 8.17477 11.336 8.02732 11.3624 7.87248C11.3862 7.73355 11.4612 7.59835 11.5735 7.49198C11.6859 7.38567 11.825 7.31819 11.965 7.30197C12.1213 7.28492 12.2661 7.33263 12.3632 7.43551C12.4603 7.53797 12.5008 7.68548 12.4744 7.84016C12.4506 7.9792 12.3756 8.11428 12.2632 8.22065C12.1509 8.3269 12.0118 8.39456 11.8717 8.4106C11.8504 8.41303 11.8294 8.41415 11.8086 8.41415Z" fill="white"/>
<path fill-rule="evenodd" clip-rule="evenodd" d="M11.0045 7.36725H11.0059H11.0045ZM10.7708 6.99285C10.7017 6.99285 10.6064 7.06454 10.5573 7.18565C10.5002 7.32635 10.534 7.46273 10.6026 7.49049C10.6713 7.51802 10.7904 7.44432 10.8476 7.3035C10.9049 7.1628 10.8709 7.02642 10.8025 6.99866C10.7927 6.99481 10.7822 6.99285 10.7708 6.99285ZM10.6362 7.83582C10.5818 7.83582 10.5275 7.82552 10.4749 7.80421C10.2176 7.69962 10.1159 7.37193 10.2433 7.05814C10.3709 6.7443 10.6729 6.5801 10.9298 6.68487C11.1872 6.78959 11.2889 7.11716 11.1615 7.43088V7.431C11.0598 7.68086 10.8482 7.83588 10.6362 7.83582Z" fill="white"/>
<path fill-rule="evenodd" clip-rule="evenodd" d="M6.89797 15.9068C6.81302 15.9068 6.73974 15.8431 6.72986 15.7567C6.51688 13.9003 7.61438 12.8585 8.67589 11.851C9.28564 11.2721 9.86147 10.7253 10.1795 10.0422C10.219 9.95755 10.3197 9.92068 10.4046 9.96022C10.4894 9.99988 10.5261 10.1003 10.4865 10.1853C10.1413 10.9267 9.51495 11.5215 8.90905 12.0965C7.86187 13.0905 6.87269 14.0295 7.06637 15.718C7.07708 15.8109 7.01031 15.8949 6.91744 15.9056C6.91087 15.9063 6.9043 15.9068 6.89797 15.9068Z" fill="white"/>
<path fill-rule="evenodd" clip-rule="evenodd" d="M3.12084 12.7275C3.10942 12.7275 3.09782 12.7263 3.08621 12.7239C2.82357 12.6691 2.62214 12.6006 2.44444 12.5404C2.0292 12.3996 1.75496 12.3061 1.03997 12.5102C0.949876 12.5355 0.856469 12.4836 0.830779 12.3938C0.80509 12.3037 0.85712 12.21 0.947094 12.1843C1.76402 11.9516 2.11219 12.0702 2.55336 12.2196C2.58864 12.2316 2.62409 12.2438 2.6602 12.2557C2.2903 11.8508 1.6979 11.2508 1.52997 11.1285C1.45432 11.0732 1.43769 10.9674 1.49274 10.8917C1.54796 10.8163 1.65362 10.7998 1.72945 10.8547C1.90111 10.9797 3.22567 12.2771 3.28522 12.5174C3.29919 12.5739 3.28321 12.6337 3.24272 12.6756C3.21058 12.709 3.16624 12.7275 3.12084 12.7275Z" fill="white"/>
<path fill-rule="evenodd" clip-rule="evenodd" d="M3.11928 12.7279C3.09176 12.7279 3.06382 12.721 3.03819 12.707C2.96396 12.6664 2.93087 12.5773 2.96106 12.4982C3.07572 12.1967 2.86635 11.4405 2.41459 10.5242C2.39867 10.4919 2.38179 10.457 2.36487 10.4299C2.31508 10.3507 2.33894 10.2463 2.41808 10.1965C2.49728 10.1465 2.60176 10.1707 2.65154 10.2497C2.67445 10.286 2.69771 10.3324 2.71689 10.3713C2.94744 10.8388 3.1886 11.4045 3.28585 11.8884C3.44029 11.5154 3.58774 11.0286 3.71701 10.4579C3.73779 10.3666 3.82853 10.3092 3.91969 10.3301C4.01091 10.3508 4.06815 10.4416 4.04743 10.5328C3.89004 11.2266 3.62497 12.1588 3.2556 12.6589C3.22263 12.7035 3.17149 12.7279 3.11928 12.7279Z" fill="white"/>
<path fill-rule="evenodd" clip-rule="evenodd" d="M1.39513 13.4286C1.33884 13.4286 1.28379 13.4003 1.25158 13.3492C1.2018 13.27 1.22566 13.1654 1.3048 13.1158C1.41727 13.0451 1.5334 12.9941 1.64563 12.9451C1.71282 12.9156 1.77971 12.8866 1.84405 12.8531C2.03684 12.7532 2.31884 12.6624 2.56768 12.5824C2.76089 12.5203 2.96061 12.4561 3.03259 12.4129C3.11267 12.3647 3.2168 12.3906 3.26492 12.4709C3.31304 12.5511 3.28706 12.6551 3.20691 12.7032C3.10155 12.7664 2.91166 12.8276 2.67145 12.9049C2.43533 12.9808 2.1676 13.0669 2.00002 13.1538C1.92887 13.1905 1.85535 13.223 1.78154 13.2554C1.67588 13.3015 1.57608 13.3453 1.48498 13.4025C1.4571 13.4201 1.42591 13.4286 1.39513 13.4286Z" fill="white"/>
<path fill-rule="evenodd" clip-rule="evenodd" d="M0.531735 12.2878C0.395117 12.3375 0.319882 12.4482 0.343737 12.5138C0.357707 12.5523 0.402042 12.5707 0.42714 12.5784C0.486984 12.5964 0.562219 12.5923 0.633073 12.5663C0.769809 12.5166 0.845162 12.4056 0.821189 12.34C0.797216 12.2743 0.668175 12.2377 0.531735 12.2878ZM0.506577 12.9282C0.445313 12.9282 0.385291 12.9197 0.32888 12.9025C0.183087 12.8585 0.0724552 12.7588 0.0254559 12.6297C-0.06801 12.3733 0.103472 12.0833 0.415834 11.9696C0.415834 11.9696 0.415834 11.9694 0.416012 11.9694C0.728196 11.8556 1.04606 11.9679 1.13947 12.224C1.23294 12.4809 1.06128 12.7708 0.749092 12.8846C0.669477 12.9135 0.586902 12.9282 0.506577 12.9282Z" fill="white"/>
<path fill-rule="evenodd" clip-rule="evenodd" d="M1.13184 13.2988C1.07921 13.2988 1.01623 13.3149 0.955263 13.3517C0.830899 13.427 0.778394 13.5503 0.81468 13.6102C0.850669 13.67 0.984209 13.6807 1.10863 13.6055C1.23317 13.5301 1.28562 13.4068 1.24939 13.3469C1.23093 13.3165 1.187 13.2988 1.13184 13.2988ZM0.931704 13.9981C0.761939 13.9981 0.60922 13.9247 0.524929 13.7854C0.383517 13.5517 0.49557 13.234 0.779992 13.062C1.06442 12.8898 1.39779 12.9383 1.5392 13.1715C1.68062 13.4055 1.56856 13.7232 1.28402 13.8951C1.16936 13.9646 1.04654 13.9981 0.931704 13.9981Z" fill="white"/>
<path fill-rule="evenodd" clip-rule="evenodd" d="M3.76831 9.96897C3.75173 10.0628 3.76298 10.1575 3.79909 10.2289C3.8156 10.2614 3.85219 10.3177 3.91215 10.3283C3.97229 10.3393 4.02592 10.2987 4.05261 10.2738C4.11104 10.2189 4.15413 10.1339 4.17059 10.04C4.18716 9.94624 4.17597 9.85153 4.1398 9.78014C4.12329 9.74753 4.08677 9.69135 4.02681 9.68082C3.96678 9.66963 3.91298 9.71041 3.88634 9.73545C3.82792 9.79003 3.78482 9.87515 3.76831 9.96897ZM3.93133 10.6687C3.90522 10.6687 3.87906 10.6664 3.85325 10.6618C3.70349 10.6354 3.5735 10.5334 3.49685 10.382C3.42724 10.2445 3.4051 10.0768 3.43464 9.90995C3.46412 9.74315 3.54243 9.59321 3.65478 9.48808C3.77867 9.37207 3.93588 9.32128 4.08552 9.3472C4.23528 9.3736 4.36527 9.47565 4.44187 9.62707C4.51148 9.76452 4.5335 9.93191 4.50414 10.0989C4.47466 10.2657 4.39641 10.4156 4.284 10.5209C4.1816 10.617 4.0564 10.6687 3.93133 10.6687Z" fill="white"/>
<path fill-rule="evenodd" clip-rule="evenodd" d="M1.0832 10.4663C1.07562 10.4663 1.0681 10.4666 1.06076 10.4671C1.02323 10.4698 0.955163 10.4824 0.921008 10.5356C0.886854 10.5885 0.903783 10.6556 0.916806 10.6908C0.945455 10.7676 1.00867 10.8417 1.09054 10.8945C1.17258 10.9473 1.2664 10.974 1.34797 10.9682C1.38556 10.9654 1.45357 10.9531 1.48755 10.9C1.52182 10.8467 1.50489 10.7797 1.49193 10.7445C1.46345 10.6677 1.40006 10.5935 1.31819 10.5408H1.31802C1.24367 10.493 1.15926 10.4663 1.0832 10.4663ZM1.3253 11.3076C1.184 11.3076 1.03738 11.2629 0.907513 11.1793C0.763141 11.0865 0.653752 10.9549 0.599412 10.8088C0.539568 10.6479 0.552946 10.4815 0.636231 10.3522C0.719338 10.2229 0.865308 10.1416 1.03638 10.1293C1.19205 10.1183 1.35702 10.1629 1.50146 10.2559C1.64583 10.3487 1.75504 10.4803 1.80938 10.6264C1.86922 10.7875 1.85567 10.9538 1.77256 11.083C1.68945 11.2123 1.54354 11.2937 1.37247 11.306C1.35679 11.3071 1.3411 11.3076 1.3253 11.3076Z" fill="white"/>
<path fill-rule="evenodd" clip-rule="evenodd" d="M2.17942 9.73489C2.15965 9.73489 2.14201 9.73927 2.12786 9.74826C2.06523 9.78875 2.05701 9.92987 2.13988 10.0585C2.18267 10.1247 2.24252 10.1761 2.30402 10.1988C2.33042 10.2086 2.38008 10.2213 2.4172 10.1972C2.47988 10.1569 2.48823 10.0158 2.40536 9.88713C2.34125 9.78781 2.24755 9.73489 2.17942 9.73489ZM2.36552 10.5494C2.30668 10.5494 2.24613 10.5386 2.18628 10.5165C2.05559 10.4679 1.93785 10.3706 1.85498 10.2417C1.67113 9.95633 1.71031 9.61449 1.9443 9.46361C2.17847 9.3129 2.50605 9.41832 2.69008 9.70369C2.87399 9.98924 2.83474 10.3313 2.60058 10.4821C2.53144 10.5268 2.45023 10.5494 2.36552 10.5494Z" fill="white"/>
<path fill-rule="evenodd" clip-rule="evenodd" d="M6.89759 15.907C6.87024 15.907 6.84224 15.9002 6.81655 15.8862C5.70017 15.2762 5.24172 14.5639 4.87318 13.9912C4.45262 13.3376 4.14872 12.8653 3.09781 12.7234C3.00511 12.711 2.94017 12.6256 2.95272 12.533C2.9651 12.4403 3.05081 12.3765 3.14309 12.3878C4.34897 12.5507 4.72396 13.1333 5.15796 13.8079C5.52383 14.3762 5.93831 15.0204 6.9788 15.589C7.06096 15.6339 7.09115 15.7368 7.04622 15.8188C7.01562 15.8752 6.95743 15.907 6.89759 15.907Z" fill="white"/>
<path fill-rule="evenodd" clip-rule="evenodd" d="M9.90944 13.6272C9.38943 13.7457 8.99893 13.8855 8.67218 14.0672C8.14069 14.3631 7.75706 14.7815 7.32246 15.407C7.43647 15.3699 7.54953 15.3348 7.66087 15.3002C8.24552 15.1186 8.7975 14.9469 9.20794 14.5715C9.43376 14.3649 9.72156 13.9305 9.90944 13.6272ZM6.89793 15.907C6.84809 15.907 6.79973 15.885 6.76682 15.8449C6.72011 15.7877 6.71573 15.7073 6.75581 15.6455C7.33407 14.754 7.80601 14.1616 8.50745 13.7713C8.94116 13.5298 9.46975 13.3587 10.2208 13.2169C10.2854 13.2038 10.3514 13.231 10.3898 13.2844C10.4283 13.3381 10.4321 13.4091 10.3997 13.4664C10.3771 13.5065 9.84113 14.4514 9.4366 14.8216C8.9704 15.2478 8.38315 15.4304 7.76144 15.6235C7.4985 15.7053 7.22681 15.7898 6.96002 15.8951C6.93984 15.9032 6.91865 15.907 6.89793 15.907Z" fill="white"/>
<path fill-rule="evenodd" clip-rule="evenodd" d="M8.13263 9.84848C7.71177 10.1411 7.41278 10.4067 7.1859 10.6871C6.81653 11.1432 6.6225 11.6558 6.45806 12.3702C6.54389 12.2985 6.62972 12.2286 6.71425 12.1596C7.17536 11.7842 7.6109 11.4295 7.84448 10.9428C7.97157 10.6778 8.07291 10.1894 8.13263 9.84848ZM6.18684 13.0043C6.15908 13.0043 6.13096 12.9974 6.10527 12.9832C6.04081 12.9477 6.00659 12.8746 6.02074 12.8024C6.21951 11.7876 6.43071 11.0813 6.92261 10.474C7.2271 10.098 7.64216 9.75165 8.26854 9.3512C8.32418 9.31563 8.39515 9.31551 8.4508 9.35108C8.50644 9.38636 8.53645 9.45088 8.52769 9.51617C8.52195 9.56051 8.38077 10.6082 8.14974 11.0895C7.88343 11.6442 7.41936 12.0223 6.92805 12.4224C6.72058 12.5914 6.50589 12.7662 6.30351 12.9579C6.27125 12.9884 6.22934 13.0043 6.18684 13.0043Z" fill="white"/>
</svg>
