<svg width="11" height="15" viewBox="0 0 11 15" fill="none" xmlns="http://www.w3.org/2000/svg">
<path d="M11 5.46175C10.9997 5.33365 10.9314 5.17213 10.6494 5.05372C10.6655 5.00959 10.6736 4.96515 10.6734 4.92061C10.6731 4.82348 10.6283 4.73514 10.5472 4.67183C10.2882 4.46963 9.65702 4.54864 9.40892 4.61573C9.10967 4.69665 9.04532 4.72723 8.9487 4.77856C8.94206 4.78206 8.93521 4.78573 8.92791 4.78955C8.90128 4.78786 8.87452 4.78716 8.84804 4.78716C8.46951 4.78824 8.12037 4.96783 7.90995 5.26289C7.77379 5.26755 7.6393 5.27787 7.50613 5.2937C7.75336 4.96419 7.92491 4.61567 8.03909 4.33051C8.27555 4.15389 8.48406 3.89902 8.63057 3.60625C8.80926 3.24912 8.91449 3.12714 9.04773 2.97272C9.10363 2.90792 9.16704 2.83449 9.24 2.73879C9.34056 2.6067 9.43079 2.47233 9.501 2.35018C9.77965 1.86537 9.86454 1.4018 9.7281 1.11014C9.65439 0.952605 9.52006 0.851169 9.34976 0.824536C9.27586 0.813004 9.19749 0.814628 9.11668 0.828295C9.00907 0.418443 8.79323 0.156697 8.51727 0.11353C8.23355 0.0690878 7.95836 0.25928 7.75445 0.630967C7.6742 0.582575 7.58998 0.549315 7.50256 0.535616C7.33239 0.509078 7.17423 0.564703 7.05746 0.692453C6.84124 0.928967 6.78553 1.39709 6.90828 1.94457C6.9229 2.00984 6.9403 2.07675 6.96005 2.14342C6.96012 2.14365 6.96018 2.14387 6.96027 2.14409C7.03439 2.3944 7.09883 2.54659 7.15567 2.68087C7.23761 2.87437 7.30234 3.02723 7.37135 3.42854C7.42994 3.7693 7.51689 4.02598 7.64196 4.22401C7.48963 4.59155 7.23683 5.05875 6.84262 5.42072C6.12972 5.61027 5.4787 5.96001 4.92913 6.42925C5.00496 6.17687 5.06111 5.9184 5.09658 5.65669C5.35226 5.3469 5.54412 4.94365 5.63946 4.51344C5.76033 3.96777 5.86162 3.76554 5.98979 3.50953C6.04209 3.4051 6.10133 3.28674 6.16559 3.13666C6.25376 2.93028 6.32791 2.72385 6.37999 2.53961C6.58234 1.82373 6.54653 1.20467 6.28418 0.883537C6.15035 0.719692 5.96118 0.640811 5.75179 0.661551C5.63802 0.672797 5.52068 0.711154 5.40418 0.772098C5.13676 0.250901 4.77448 -0.0330807 4.40878 0.00307811C4.03103 0.0404157 3.74311 0.399105 3.61244 0.979143C3.46696 0.924284 3.32759 0.901123 3.20026 0.913739C2.99078 0.934446 2.82014 1.04882 2.71973 1.23579C2.52296 1.60225 2.60483 2.21679 2.9387 2.87963C2.97898 2.95959 3.02293 3.03997 3.0694 3.11863C3.06994 3.11959 3.0705 3.12054 3.07106 3.12146C3.25084 3.42539 3.38584 3.60379 3.5049 3.7612C3.68117 3.99421 3.82039 4.17826 4.04922 4.6962C4.23808 5.12374 4.44712 5.43865 4.68584 5.65437C4.59088 6.29764 4.35917 6.91836 4.01031 7.46419C3.99294 7.49021 3.92518 7.59404 3.92067 7.60344C3.72264 7.92237 3.55914 8.26513 3.43538 8.62643C3.43088 8.63685 3.34274 8.92016 3.30978 9.05425C3.21488 9.44037 3.16443 9.84379 3.16443 10.2583V10.3572L2.4443 6.93824C2.52468 6.61412 2.45122 6.27015 2.24371 5.9861L2.18001 5.68367C2.48217 5.54802 2.7192 5.27436 2.8197 4.93278L2.84001 4.86371C2.9608 4.4531 2.86371 4.014 2.58659 3.71775C2.53691 3.66464 2.46336 3.64228 2.39325 3.65885C2.17366 3.71071 1.9771 3.8318 1.82552 4.00059L1.64408 3.13924C1.92815 2.85383 2.06349 2.43168 2.00033 2.00679L1.98824 1.92571C1.91823 1.45478 1.61616 1.06051 1.19992 0.896822C1.13281 0.870412 1.05688 0.882072 1.00039 0.927565C0.65037 1.20935 0.476472 1.67693 0.546551 2.14763L0.558632 2.2289C0.622701 2.65975 0.880887 3.0264 1.24308 3.21108L1.28001 3.38636C1.27128 3.38123 1.26273 3.37627 1.25472 3.37165C0.889932 3.15759 0.447771 3.15281 0.100791 3.35922C0.0386314 3.39621 0.000290105 3.46387 8.41384e-06 3.53718C-0.00158783 3.9463 0.224046 4.33337 0.587866 4.54679C0.608711 4.55918 0.630495 4.57199 0.650338 4.58343C0.915879 4.73931 1.22264 4.78423 1.50424 4.71755C1.46323 4.99917 1.52004 5.28287 1.66283 5.51518C1.45225 5.43133 1.22179 5.41126 1.00101 5.46452C0.930934 5.48144 0.874877 5.5348 0.853594 5.60483C0.734846 5.9956 0.839697 6.43285 1.12721 6.74582L1.17579 6.79877C1.40746 7.05096 1.73898 7.18221 2.07554 7.16361L3.16437 12.333V14.7929C3.16437 14.9073 3.25545 15 3.36781 15C3.48017 15 3.57125 14.9073 3.57125 14.7929V12.3153C3.57131 12.3125 3.57131 12.3097 3.57125 12.3069V10.2582C3.57125 9.75735 3.65147 9.27442 3.79955 8.82185C4.25097 8.37185 4.79532 8.02202 5.38728 7.80016C5.50399 8.31964 5.86036 8.7732 6.36062 9.0207L6.46603 9.07289C7.04885 9.36117 7.72691 9.32042 8.23574 8.96648C8.29517 8.92513 8.32876 8.85488 8.32394 8.78174C8.28294 8.15582 7.89549 7.58795 7.31292 7.29983L7.20728 7.24749C6.63448 6.96414 5.96941 6.99868 5.46365 7.33608C5.00584 7.48295 4.57057 7.69933 4.1747 7.97487C4.2106 7.91182 4.3361 7.71398 4.35999 7.6763C5.14484 6.51265 6.44221 5.73031 7.91426 5.67708C8.12603 5.96727 8.47308 6.14281 8.84841 6.14281C8.84957 6.14281 8.85076 6.14281 8.85195 6.14281C8.87852 6.14272 8.90519 6.14173 8.93179 6.13988C8.93912 6.14367 8.946 6.1473 8.95267 6.15078C9.0496 6.20153 9.11414 6.23173 9.4137 6.31074C9.66231 6.37633 10.294 6.45148 10.5518 6.24775C10.6325 6.184 10.6767 6.09538 10.6765 5.99821C10.6763 5.95813 10.6696 5.91818 10.6563 5.87845C10.9343 5.74876 11.0003 5.58679 11 5.46175ZM8.45542 0.522841C8.54782 0.537305 8.66563 0.68366 8.73283 0.971593C8.58913 1.05331 8.44826 1.16462 8.32146 1.29881C8.24857 1.1615 8.16359 1.02894 8.0686 0.913579C8.19981 0.637307 8.35617 0.50739 8.45542 0.522841ZM7.31085 1.87805C7.30885 1.86948 7.30688 1.86094 7.30497 1.85243C7.20315 1.39849 7.25968 1.07915 7.3553 0.974524C7.3753 0.952669 7.39404 0.943143 7.41974 0.943143C7.42625 0.943143 7.4332 0.943749 7.44071 0.944928C7.59611 0.969235 7.84954 1.22305 8.03981 1.65208C7.85067 1.85157 7.59117 1.87767 7.31085 1.87805ZM7.52935 2.51693C7.49974 2.44697 7.46957 2.37573 7.43752 2.28943C7.78813 2.27516 8.18228 2.19233 8.45148 1.7905C8.72347 1.3845 9.11242 1.20655 9.28798 1.23385C9.32519 1.23968 9.34491 1.2544 9.36072 1.28817C9.42109 1.41719 9.38084 1.73908 9.14979 2.141C9.14979 2.141 9.14979 2.141 9.14979 2.14104C9.08832 2.24795 9.00829 2.36694 8.91846 2.48494C8.85317 2.57058 8.79665 2.63608 8.742 2.69941C8.602 2.86163 8.46982 3.01487 8.26797 3.41825C8.23952 3.47512 8.2076 3.53027 8.17336 3.58353C8.19937 3.44301 8.21755 3.30079 8.22725 3.15734C8.23201 3.08712 8.17993 3.02627 8.11098 3.02143C8.042 3.01659 7.98225 3.06957 7.97746 3.13982C7.963 3.35352 7.92891 3.56442 7.8758 3.77025C7.83401 3.65403 7.79955 3.51698 7.77207 3.35715C7.69489 2.90792 7.61815 2.72671 7.52935 2.51693ZM0.852404 4.22391C0.83278 4.21257 0.812467 4.20065 0.791997 4.18852C0.591903 4.07115 0.455847 3.87714 0.417724 3.66372C0.618288 3.59035 0.851622 3.61313 1.05281 3.73116C1.06605 3.73881 1.07948 3.74671 1.09281 3.75455L1.11303 3.76646C1.31194 3.88316 1.40759 4.08262 1.4674 4.29865C1.27097 4.36297 1.04649 4.3378 0.852404 4.22391ZM1.38358 2.81786C1.16061 2.68676 1.00261 2.44709 0.960949 2.16684L0.948899 2.08583C0.907178 1.80567 0.988461 1.52914 1.16333 1.33672C1.3863 1.46784 1.5443 1.70745 1.58596 1.98761L1.59804 2.06872C1.63967 2.34894 1.55842 2.62544 1.38358 2.81786ZM2.06511 6.74929C1.84339 6.76497 1.62452 6.68073 1.47294 6.51571L1.42455 6.46299C1.2668 6.29127 1.19225 6.06527 1.21694 5.84988C1.43 5.83901 1.64637 5.93013 1.80411 6.10184C1.80411 6.10184 1.88079 6.18639 1.89388 6.2028C1.89519 6.20452 1.89654 6.20621 1.89792 6.2079C2.02596 6.37098 2.0849 6.56369 2.06511 6.74929ZM2.01407 5.30558C1.89782 5.12377 1.86586 4.88758 1.93216 4.66218L1.93416 4.6554C1.93572 4.65068 1.93713 4.64587 1.93835 4.64103L1.95241 4.59324C2.01867 4.36804 2.17297 4.18861 2.36824 4.10177C2.48449 4.28352 2.51641 4.51974 2.45006 4.7453L2.42984 4.81411C2.36358 5.03932 2.20934 5.21874 2.01407 5.30558ZM6.64415 8.70053L6.53852 8.64822C6.2158 8.48858 5.9711 8.22037 5.84594 7.90602C5.95072 7.97869 6.065 8.04145 6.19623 8.10635C6.44174 8.22782 6.70694 8.28803 6.96838 8.28803C7.21304 8.28803 7.4543 8.23505 7.67298 8.1304C7.79117 8.29721 7.87167 8.4874 7.90428 8.68833C7.52935 8.89795 7.0573 8.9049 6.64415 8.70053ZM7.02944 7.62L7.13495 7.67228C7.27163 7.73988 7.39408 7.82727 7.49974 7.92906C7.12847 8.08236 6.68976 8.06723 6.30569 7.87716C6.12193 7.7863 5.98068 7.70439 5.8527 7.5899C6.21263 7.42293 6.64628 7.43045 7.02944 7.62ZM4.44809 0.415289C4.64221 0.396014 4.88265 0.631509 5.06775 1.01275C4.87028 1.19329 4.68963 1.43181 4.55135 1.70254C4.36941 1.48954 4.17742 1.31305 3.98725 1.18119C4.06606 0.737532 4.24487 0.435391 4.44809 0.415289ZM3.34568 2.77683C3.33022 2.74812 3.31523 2.71935 3.3008 2.69068C3.00036 2.09424 2.99159 1.63969 3.07679 1.43439C3.13106 1.30358 3.26048 1.32442 3.27147 1.32442C3.52399 1.32442 3.9613 1.59295 4.36828 2.12813C4.1654 2.53703 3.76045 2.67201 3.34568 2.77683ZM4.4203 4.52637C4.17191 3.96408 4.01219 3.75299 3.82728 3.50854C3.74706 3.40248 3.66499 3.29401 3.56787 3.14615C4.05222 3.01337 4.57072 2.79428 4.80052 2.15199C4.94481 1.74858 5.18822 1.43063 5.42378 1.24704C5.43423 1.24051 5.44393 1.23315 5.45282 1.22505C5.5737 1.13623 5.69132 1.08361 5.7911 1.07373C5.86744 1.06624 5.92306 1.08918 5.97135 1.14828C6.11132 1.31961 6.17104 1.78082 5.98897 2.42502C5.94168 2.59227 5.87373 2.78122 5.79254 2.97125C5.73326 3.10971 5.67939 3.21733 5.62731 3.32134C5.49176 3.59207 5.37467 3.82588 5.24259 4.42219C5.20149 4.60758 5.13946 4.78614 5.06086 4.95129C5.05961 4.66017 5.03385 4.36912 4.98215 4.0809C4.96972 4.01167 4.90459 3.96576 4.83651 3.97841C4.7685 3.99106 4.72343 4.05742 4.73582 4.12665C4.79873 4.47737 4.82224 4.83252 4.80637 5.1865C4.66966 5.02039 4.54205 4.80201 4.4203 4.52637ZM8.26951 5.46672C8.38525 5.32693 8.5548 5.23435 8.74362 5.20861C8.73837 5.29354 8.73586 5.3793 8.73611 5.46535C8.73636 5.55134 8.73937 5.63713 8.74513 5.72203C8.55621 5.69741 8.3861 5.60581 8.26951 5.46672ZM10.2843 5.57319C10.2119 5.59272 10.1559 5.65115 10.1385 5.72528C10.1211 5.79941 10.1451 5.87731 10.2011 5.92799C10.2087 5.93494 10.2156 5.9415 10.2217 5.94762C10.07 5.97718 9.76422 5.9754 9.51586 5.90987C9.27349 5.8459 9.21815 5.82331 9.15921 5.79311C9.14876 5.68511 9.14328 5.57485 9.14297 5.46408C9.14266 5.35321 9.14748 5.24292 9.1573 5.13489C9.21602 5.10437 9.27133 5.0814 9.51333 5.01596C9.76128 4.9489 10.0672 4.94527 10.2189 4.97401C10.2085 4.98452 10.196 4.99621 10.1809 5.00911C10.1213 5.06018 10.0956 5.14142 10.1147 5.21829C10.1337 5.2952 10.1943 5.35426 10.2706 5.37032C10.4169 5.40116 10.506 5.43799 10.5551 5.4657C10.5084 5.49536 10.4238 5.5356 10.2843 5.57319Z" fill="white"/>
</svg>
