{
    "section_name": "Best - Product",
    "section_slug": "best_product",
    "unique_section_slug": "best_product",
    "section_enable": "on",
    "array_type": "inner-list",
    "loop_number": 1,
    "section":{
        "title":{
            "lable" : "Best Product Title",
            "slug" :  "best_product_title",
            "text" : "Mejores productos",
            "type" : "text",
            "placeholder" : "Por favor ingrese aquí."
        },
        "description":{
            "lable" : "Best product Description",
            "slug" :  "best_product_description",
            "text" : "También existen muchos tipos diferentes de campamentos, desde campamentos desarrollados con comodidades como duchas y baños con descarga, hasta campamentos primitivos sin ninguna comodidad.",
            "type" : "textarea",
            "placeholder" : "Por favor ingrese aquí."
        },
        "button":{
            "lable" : "Product Button",
            "slug" :  "best_product_button",
            "text" : "Muestra productos.",
            "type" : "text",
            "placeholder" : "Por favor ingrese aquí."
        }
    }
}
