[
    {
        "section_name": "Home - Header",
        "section_slug": "homepage-header",
        "unique_section_slug": "homepage-header",
        "section_enable": "on",
        "array_type": "inner-list",
        "loop_number": "1",
        "inner-list": [
            {
                "field_name": "Background Image",
                "field_slug": "homepage-header-bg-img",
                "field_help_text": "Por favor, cargue la imagen aquí.",
                "field_default_text": "themes/sheltering/assets/img/Half-bluthooth-right.png",
                "field_type": "photo upload"
            },
            {
                "field_name": "lable",
                "field_slug": "homepage-header-label",
                "field_help_text": "Please add label text here",
                "field_default_text": "Featured New featured collection  sheltering. Collector",
                "field_type": "text"
            },
            {
                "field_name": "Title Text",
                "field_slug": "homepage-header-title-text",
                "field_help_text": "Por favor añade el titulo del texto aquí.",
                "field_default_text": "Best Pro sheltering Accessories",
                "field_type": "text"
            },
            {
                "field_name": "Sub Text",
                "field_slug": "homepage-header-sub-text",
                "field_help_text": "Por favor añade el subtexto aquí.",
                "field_default_text": "Lorem Ipsum is simply dummy text of the printing and typesetting industry. ",
                "field_type": "text area"
            },
            {
                "field_name": "Button 1",
                "field_slug": "homepage-header-btn-1",
                "field_help_text": "Por favor, añade el texto del botón aquí.",
                "field_default_text": "Muestra productos.",
                "field_type": "button"
            },
            {
                "field_name": "Button2",
                "field_slug": "homepage-header-btn-2",
                "field_help_text": "Por favor, añade el texto del botón aquí.",
                "field_default_text": "Muestra productos.",
                "field_type": "button"
            }
        ]
    },
    {
        "section_name": "Home - Bestseller",
        "section_slug": "homepage-bestseller",
        "unique_section_slug": "homepage-bestseller",
        "section_enable": "on",
        "array_type": "inner-list",
        "loop_number": "1",
        "inner-list": [
            {
                "field_name": "Title Text",
                "field_slug": "homepage-bestseller-title-text",
                "field_help_text": "Por favor añade el titulo del texto aquí.",
                "field_default_text": "Bestsellers of the week",
                "field_type": "text"
            }
        ]
    },
    {
        "section_name": "Home - Logo",
        "section_slug": "homepage-logo",
        "unique_section_slug": "homepage-logo",
        "section_enable": "on",
        "array_type": "inner-list",
        "loop_number": "1",
        "inner-list": [
            {
                "field_name": "Logo",
                "field_slug": "homepage-logo-logo",
                "field_help_text": "Please upload image here",
                "field_default_text": "themes/sheltering/assets/img/Half-bluthooth-right.png",
                "field_type": "multi file upload"
            }
        ]
    },
    {
        "section_name": "Home - Category",
        "section_slug": "homepage-category",
        "unique_section_slug": "homepage-category",
        "section_enable": "on",
        "array_type": "inner-list",
        "loop_number": "1",
        "inner-list": [
            {
                "field_name": "Title Text",
                "field_slug": "homepage-category-title-text",
                "field_help_text": "Por favor añade el titulo del texto aquí.",
                "field_default_text": "Best Pro Gaming Categories",
                "field_type": "text"
            }
        ]
    },
    {
        "section_name": "Home - Image",
        "section_slug": "homepage-image",
        "unique_section_slug": "homepage-image",
        "section_enable": "on",
        "array_type": "inner-list",
        "loop_number": "1",
        "inner-list": [
            {
                "field_name": "Image",
                "field_slug": "homepage-image-img",
                "field_help_text": "Por favor, cargue la imagen aquí.",
                "field_default_text": "themes/sheltering/assets/img/img1.png",
                "field_type": "photo upload"
            }
        ]
    },
    {
        "section_name": "Home - Newsletter",
        "section_slug": "homepage-newsletter",
        "unique_section_slug": "homepage-newsletter",
        "section_enable": "on",
        "array_type": "inner-list",
        "loop_number": "1",
        "inner-list": [
            {
                "field_name": "lable",
                "field_slug": "homepage-newsletter-label",
                "field_help_text": "Please add label text  here",
                "field_default_text": "Subscribe Us",
                "field_type": "text"
            },
            {
                "field_name": "Title Text",
                "field_slug": "homepage-newsletter-title-text",
                "field_help_text": "Por favor añade el titulo del texto aquí.",
                "field_default_text": "Subscribe newsletter and get -20% off",
                "field_type": "text"
            },
            {
                "field_name": "Sub Text",
                "field_slug": "homepage-newsletter-sub-text",
                "field_help_text": "Please add sub text  here",
                "field_default_text": "Lorem Ipsum is simply dummy text of the printing and typesetting industry. ",
                "field_type": "text area"
            },
            {
                "field_name": "Description",
                "field_slug": "homepage-newsletter-description",
                "field_help_text": "Please add description text  here",
                "field_default_text": "Lorem Ipsum is simply dummy text of the printing and typesetting industry. ",
                "field_type": "text area"
            }
        ]
    },
    {
        "section_name": "Home - Best - Products",
        "section_slug": "homepage-best-products",
        "unique_section_slug": "homepage-best-products",
        "section_enable": "on",
        "array_type": "inner-list",
        "loop_number": "1",
        "inner-list": [
            {
                "field_name": "Title Text",
                "field_slug": "homepage-best-products-title-text",
                "field_help_text": "Por favor añade el titulo del texto aquí.",
                "field_default_text": "Best Pro sheltering Accessories",
                "field_type": "text"
            }
        ]
    },
    {
        "section_name": "Home - Testimonial",
        "section_slug": "homepage-testimonial",
        "unique_section_slug": "homepage-testimonial",
        "section_enable": "on",
        "array_type": "inner-list",
        "loop_number": "1",
        "inner-list": [
            {
                "field_name": "Title Text",
                "field_slug": "homepage-testimonial-title-text",
                "field_help_text": "Por favor añade el titulo del texto aquí.",
                "field_default_text": "Testimonials",
                "field_type": "text"
            }
        ]
    }
]