{
    "section_name": "Homepage Slider",
    "section_slug": "slider",
    "unique_section_slug": "slider",
    "section_enable": "on",
    "array_type": "inner-list",
    "loop_number": 1,
    "section":{
        "title":{
            "lable" : "Slider Title",
            "slug" :  "slider_title",
            "text" : "Bienvenido a nuestra tienda",
            "type" : "text",
            "placeholder" : "Por favor ingrese aquí."
        },
        "sub_title":{
            "lable" : "Slider Sub Title",
            "slug" :  "slider_sub_title",
            "text" : "<b> Enamorate de  </b> increibles aromas",
            "type" : "text",
            "placeholder" : "Por favor ingrese aquí."
        },
        "description":{
            "lable" : "Slider Description",
            "slug" :  "slider_description",
            "text" : "Lorem Ipsum es simplemente el texto ficticio de la industria de impresión y composición tipográfica. Lorem Ipsum ha sido el estándar ficticio de la industria.",
            "type" : "textarea",
            "placeholder" : "Por favor ingrese aquí."
        },
        "button":{
            "lable" : "Slider First Button",
            "slug" :  "slider_button",
            "text" : "Ve a la tienda.",
            "type" : "text",
            "placeholder" : "Por favor ingrese aquí."
        },
        "button_second":{
            "lable" : "Slider Second Button",
            "slug" :  "slider_button_second",
            "text" : "Muestra más productos.",
            "type" : "text",
            "placeholder" : "Por favor ingrese aquí."
        },
        "image_right":{
            "lable" : "Slider Image right",
            "slug" :  "slider_image_right",
            "text" : "themes/sheltering/assets/images/Half-bluthooth-right.png",
            "image" : "themes/sheltering/assets/images/Half-bluthooth-right.png",
            "type" : "photoupload",
            "placeholder" : "Por favor ingrese aquí."
        }
    }
}
