{
    "section_name": "Newest - Category",
    "section_slug": "newest_category",
    "unique_section_slug": "newest_category",
    "section_enable": "on",
    "array_type": "inner-list",
    "loop_number": 1,
    "section":{
        "title":{
            "lable" : "Newest category Title",
            "slug" :  "newest_category_title",
            "text" : "Desde Nuestro Instagram",
            "type" : "text",
            "placeholder" : "Por favor, ingresa aquí..."
        },
        "subtitle":{
            "lable" : "Newest category Subtitle",
            "slug" :  "newest_category_subtitle",
            "text" : "INSTAGRAM",
            "type" : "text",
            "placeholder" : "Por favor, ingresa aquí..."
        },
        "button":{
            "lable" : "Newest category Button",
            "slug" :  "newest_category_button",
            "text" : "@carryall",
            "type" : "text",
            "placeholder" : "Por favor, ingresa aquí..."
        },
        "background_image":{
            "lable" : "Newest category Image",
            "slug" :  "newest_category_image",
            "text" : "themes/carryall/assets/images/insta-pro.png",
            "image": "themes/carryall/assets/images/insta-pro.png",
            "type" : "file",
            "placeholder" : "Por favor, selecciona un archivo.."
        },
        "image":{
            "lable" : "Newest category Image",
            "slug" :  "newest_category_image",
            "text" : ["themes/carryall/assets/images/insta-im1.png","themes/carryall/assets/images/insta-im2.png","themes/carryall/assets/images/insta-im1.png","themes/carryall/assets/images/insta-im3.png","themes/carryall/assets/images/insta-im1.png"],
            "image": ["themes/carryall/assets/images/insta-im1.png","themes/carryall/assets/images/insta-im2.png","themes/carryall/assets/images/insta-im1.png","themes/carryall/assets/images/insta-im3.png","themes/carryall/assets/images/insta-im1.png"],
            "type" : "file",
            "placeholder" : "Por favor, selecciona un archivo.."
        }
    }
}
