{
    "section_name": "Best - Product",
    "section_slug": "top_product",
    "unique_section_slug": "top_product",
    "section_enable": "on",
    "array_type": "inner-list",
    "loop_number": 1,
    "section":{
        "title":{
            "lable" : "Title",
            "slug" :  "top_product_title",
            "text" : "<b>Enamórate de</b> <br> increíbles prendas de vestir",
            "type" : "text",
            "placeholder" : "Por favor, ingresa aquí..."
        },
        "sub_title":{
            "lable" : "Sub Title",
            "slug" :  "top_product_title",
            "text" : "<b>Enamórate de</b> <br> increíbles prendas de vestir",
            "type" : "text",
            "placeholder" : "Por favor, ingresa aquí..."
        },
        "description":{
            "lable" : "Description",
            "slug" :  "top_product_description",
            "text" : "Lorem Ipsum es simplemente texto de relleno de la industria de la impresión y la composición tipográfica. Lorem Ipsum ha sido el texto de relleno estándar de la industria desde los años 1500, cuando un impresor desconocido tomó una galera de tipos y la mezcló para hacer un libro de muestras de tipos.",
            "type" : "textarea",
            "placeholder" : "Por favor, ingresa aquí..."
        },
        "button":{
            "lable" : "Best Product Button",
            "slug" :  "top_product_button",
            "text" : "Ver más productos",
            "type" : "text",
            "placeholder" : "Por favor, ingresa aquí..."
        },
        "image":{
            "lable" : "Best Product Image",
            "slug" :  "top_product_image",
            "text" : "themes/carryall/assets/images/main-pro-img.png",
            "image" : "themes/carryall/assets/images/main-pro-img.png",
            "type" : "file",
            "placeholder" : "Por favor, ingresa aquí..."
        }
    }
}