{
    "section_name": "Variant Background",
    "section_slug": "variant_background",
    "unique_section_slug": "variant_background",
    "section_enable": "on",
    "array_type": "inner-list",
    "loop_number": 1,
    "section":{
        "title":{
            "lable" : "Variant Background Title",
            "slug" :  "variant_background_title",
            "text" : "Bolsos y carteras de cuero <b>exclusivos</b>",
            "type" : "text",
            "placeholder" : "Por favor, ingresa aquí..."
        },
        "description":{
            "lable" : "Variant Background Description",
            "slug" :  "variant_background_description",
            "text" : "Los bolsos y carteras de cuero son una elección popular para muchas personas porque son duraderos, elegantes y pueden durar muchos años. El cuero es un material natural hecho de la piel de animales, y se destaca por su resistencia, flexibilidad y resistencia al agua.",
            "type" : "textarea",
            "placeholder" : "Por favor, ingresa aquí..."
        },
        "image":{
            "lable" : "Variant Background Image",
            "slug" :  "variant_background_image",
            "text" : "themes/carryall/assets/images/more-pro-banner.png",
            "image" : "themes/carryall/assets/images/more-pro-banner.png",
            "type" : "photoupload",
            "placeholder" : "Por favor, ingresa aquí..."
        },
        "sub_title":{
            "lable" : "Variant Background subtitle",
            "slug" :  "variant_background_sub_title",
            "text" : "bolsos",
            "type" : "text",
            "placeholder" : "Por favor, ingresa aquí..."
        }
    }
}