
{
    "section_name": "VariantBackground - Section",
    "section_slug": "variant_background",
    "unique_section_slug": "variant_background",
    "section_enable": "on",
    "array_type": "inner-list",
    "loop_number": 1,
    "section":{
        "title":{
            "lable" : "Variant Background Title",
            "slug" :  "variant_background_title",
            "text" : "Temporizador moderno <br> <b>accesorios</b>",
            "type" : "text",
            "placeholder" : "Por favor, ingrese aquí"
        },
        "sub_title":{
            "lable" : "Variant Background Sub Title",
            "slug" :  "variant_background_sub_title",
            "text" : "Temporizador.",
            "type" : "text",
            "placeholder" : "Por favor, ingrese aquí."
        },
        "description":{
            "lable" : "Variant Background Description",
            "slug" :  "variant_background_description",
            "text" : "La técnica de esmalte sobre acero crea una pieza que tiene la distribución de calor del acero al carbono y una superficie no reactiva y de baja adherencia. Estas ollas son mucho más ligeras que la mayoría de las ollas de tamaño similar, son más baratas de fabricar que las ollas de acero inoxidable y no tienen los problemas de óxido y reactividad del hierro fundido o del acero al carbono.",
            "type" : "textarea",
            "placeholder" : "Por favor, ingrese aquí"
        },
        "button":{
            "lable" : "Variant Background Button",
            "slug" :  "variant_background_button",
            "text" : "Mostrar productos.",
            "type" : "text",
            "placeholder" : "Por favor, ingrese aquí"
        }
    }
}
