{
    "section_name": "Blog",
    "section_slug": "blog",
    "unique_section_slug": "blog",
    "section_enable": "on",
    "array_type": "inner-list",
    "loop_number": 1,
    "section":{
        "title":{
            "lable" : "Blog Title",
            "slug" :  "blog_title",
            "text" : "Artículos de nuestro blog",
            "type" : "text",
            "placeholder" : "Por favor, ingresa aquí.."
        },
        "description":{
            "lable" : "Blog Description",
            "slug" :  "blog_description",
            "text" : "El Blog de Eyewear es tu tienda única para todo lo relacionado con gafas. Ofrecemos noticias, reseñas y consejos sobre las últimas tendencias en gafas, así como consejos sobre cómo elegir las gafas adecuadas para la forma de tu rostro y tu estilo de vida.",
            "type" : "textarea",
            "placeholder" : "Por favor, ingresa aquí.."
        },
        "button":{
            "lable" : "Button",
            "slug" :  "blog_button",
            "text" : "LEER MÁS",
            "type" : "textarea",
            "placeholder" : "Por favor, ingresa aquí.."
        }        
    }
}
