{
    "section_name": "Homepage Logo Slider",
    "section_slug": "logo_slider",
    "unique_section_slug": "logo_slider",
    "section_enable": "on",
    "array_type": "inner-list",
    "loop_number": 1,
    "section":{
        "title":{
            "lable" : "logo_slider Image",
            "slug" :  "logo_slider_image",
            "text" : "Socios",
            "type" : "file",
            "placeholder" : "Por favor, selecciona archivo"
        },
        "image":{
            "lable" : "logo_slider Image",
            "slug" :  "logo_slider_image",
            "loop_number" : 10,
            "text" : ["themes/eyewear/assets/images/partner-logo.svg","themes/eyewear/assets/images/partner-logo.svg","themes/eyewear/assets/images/partner-logo.svg","themes/eyewear/assets/images/partner-logo.svg","themes/eyewear/assets/images/partner-logo.svg","themes/eyewear/assets/images/partner-logo.svg","themes/eyewear/assets/images/partner-logo.svg","themes/eyewear/assets/images/partner-logo.svg","themes/eyewear/assets/images/partner-logo.svg","themes/eyewear/assets/images/partner-logo.svg"],
            "image": ["themes/eyewear/assets/images/partner-logo.svg","themes/eyewear/assets/images/partner-logo.svg","themes/eyewear/assets/images/partner-logo.svg","themes/eyewear/assets/images/partner-logo.svg","themes/eyewear/assets/images/partner-logo.svg","themes/eyewear/assets/images/partner-logo.svg","themes/eyewear/assets/images/partner-logo.svg","themes/eyewear/assets/images/partner-logo.svg","themes/eyewear/assets/images/partner-logo.svg","themes/eyewear/assets/images/partner-logo.svg"],
            "type" : "file",
            "placeholder" : "Por favor, selecciona archivo"
        }
        
    }
}
