{
    "section_name": "Product",
    "section_slug": "product",
    "unique_section_slug": "product",
    "section_enable": "on",
    "array_type": "inner-list",
    "loop_number": 1,
    "section":{
        "title":{
            "lable" : "Product Title",
            "slug" :  "product_title",
            "text" : "Elegante con gafas",
            "type" : "text",
            "placeholder" : "Por favor, ingresa aquí..."
        },
        "button":{
            "lable" : "Product Button",
            "slug" :  "product_button",
            "text" : "Comprar ahora",
            "type" : "text",
            "placeholder" : "Por favor, ingresa aquí..."
        }        
    }
}
