{
    "section_name": "Homepage",
    "section_slug": "best_product_second",
    "unique_section_slug": "best_product_second",
    "section_enable": "on",
    "array_type": "multie-inner-list",
    "loop_number": 3,
    "section":{
        "service_title":{
            "lable" : "Title",
            "slug" :  "best_product_second_title",
            "text" : "Ropa <b>moderna</b> y <b>atemporal</b> de los mejores estilistas..",
            "type" : "text",
            "placeholder" : "Por favor, ingrese aquí."
        },
        "service_description":{
            "lable" : "Title",
            "slug" :  "best_product_second_description",
            "text" : "Lorem Ipsum es simplemente el texto ficticio de la industria de la impresión y composición tipográfica. Lorem Ipsum ha sido el texto ficticio estándar de la industria desde la década de 1500, cuando un impresor desconocido tomó una galería de tipos y la mezcló para hacer un libro de ejemplos de tipos.",
            "type" : "textarea",
            "placeholder" : "Por favor, ingrese aquí."
        },
        "sub_title":{
            "lable" : "Lable Title",
            "slug" :  "best_product_second_sub_title",
            "text" : ["<b>Ropa moderna </b> y <b> atemporal</b>","<b>Ropa moderna </b> y <b> atemporal</b>","<b>Ropa moderna </b> y <b> atemporal</b>"],
            "type" : "text",
            "placeholder" : "Por favor, ingrese aquí."
        },
        "image":{
            "lable" : "Lable Image",
            "slug" :  "best_product_second_sub_title",
            "text" : ["themes/assets/style/icon1.png","themes/assets/style/icon1.png","themes/assets/style/icon1.png"],
            "type" : "text",
            "placeholder" : "Por favor, ingrese aquí."
        }
        
    }
}