{
    "section_name": "Footer - Section",
    "section_slug": "footer",
    "unique_section_slug": "footer",
    "section_enable": "on",
    "array_type": "inner-list",
    "loop_number": 1,
    "section":{
        "title":{
            "lable" : "Footer Section Title",
            "slug" :  "footer_title",
            "text" : "Llamanos:",
            "type" : "textarea",
            "placeholder" : "Por favor, ingrese aquí"
        },
        "footer_link":{
            "lable" : "Footer Links",
            "slug" :  "footer_links",
            "text" : "Enlaces del pie de página",
            "type" : "array",
            "loop_number" : 4,
            "social_link":["https://www.youtube.com/","https://www.messenger.com/","https://www.instagram.com/","https://www.twitter.com/"],
            "social_icon":[
                {
                    "text":"themes/style/assets/img/youtube.svg",
                    "image":"themes/style/assets/img/youtube.svg"
                },
				{
                    "text":"themes/style/assets/img/youtube.svg",
                    "image":"themes/style/assets/img/youtube.svg"
                },
				{
                    "text":"themes/style/assets/img/youtube.svg",
                    "image":"themes/style/assets/img/youtube.svg"
                },
				{
                    "text":"themes/style/assets/img/youtube.svg",
                    "image":"themes/style/assets/img/youtube.svg"
                }
            ]
        },
        "newsletter_title": {
            "lable" : "Footer Newsletter Title",
            "slug" :  "footer_newsletter_title",
            "text" : "<b>Suscribete al </b> bpletin de noticias",
            "type" : "textarea",
            "placeholder" : "Por favor, ingrese aquí"
        },
        "newsletter_sub_title": {
            "lable" : "Footer Newsletter Subtitle",
            "slug" :  "footer_newsletter_sub_title",
            "text" : "Construimos herramientas web modernas para ayudarte a iniciar rápidamente tu trabajo diario en el negocio.",
            "type" : "textarea",
            "placeholder" : "Por favor, ingrese aquí"
        },
        "newsletter_description": {
            "lable" : "Footer Newsletter Description",
            "slug" :  "footer_newsletter_description",
            "text" : " Suscríbete para recibir las últimas noticias, actualizaciones y ofertas. ¡No te preocupes, no enviaremos spam!",
            "type" : "textarea",
            "placeholder" : "Por favor, ingrese aquí"
        },
        "footer_menu_type": {
            "lable" : "Footer Menu Type",
            "slug" :  "footer_menu_type",
            "text" : "Barra de menu del pie de página",
            "type" : "array",
            "loop_number" : 3,
            "footer_menu_ids":[]
        },
        "copy_right": {
            "lable" : "Copy Rights",
            "slug" :  "footer_copy_right",
            "text" : "© 2024, Estilo. Todos los derechos reservados",
            "type" : "textarea",
            "placeholder" : "Por favor, ingrese aquí"
        },
        "footer_cookie":{
            "lable" : "Footer Cookie",
            "slug" :  "footer_cookie",
            "text" : " Utilizamos cookies propias y de terceros para mejorar tu experiencia y nuestros servicios, y para analizar el uso de nuestro sitio web. Si continúas navegando, entendemos que aceptas su uso. Consulta la información para más detalles. ",
            "type" : "textarea",
            "placeholder" : "Por favor, ingrese aquí"
        }
    }
}