{
    "section_name": "Homepage - Header",
    "section_slug": "header",
    "unique_section_slug": "header",
    "section_enable": "on",
    "array_type": "inner-list",
    "loop_number": 1,
    "section":{
        "title":{
            "lable" : "Announcement Title",
            "slug" :  "announcement_text",
            "text" : "<b>Los 7 dias de la semana </b> de 9:00 am a 7:00 pm",
            "type" : "text",
            "placeholder" : "Por favor, ingrese aquí."
        },
        "menu_type": {
            "lable" : "Menu Type",
            "slug" :  "menu_type",
            "text" : "Barra de menu",
            "type" : "select",
            "placeholder" : "Por favor, seleccione.",
            "menu_ids":[]
        },
        "button": {
            "lable" : "Button",
            "slug" :  "button",
            "text" : "Llamanos:<b> 610-403-403</b>",
            "type" : "text",
            "placeholder" : "Ver más."
        }
    }
}
