{
    "section_name": "Product - Category",
    "section_slug": "product_category",
    "unique_section_slug": "product_category",
    "section_enable": "on",
    "array_type": "inner-list",
    "loop_number": 1,
    "section":{
        "title":{
            "lable" : "Product Category Title",
            "slug" :  "product_category_title",
            "text" : "compra <b>nuestro producto</b>",
            "type" : "text",
            "placeholder" : "Por favor, ingrese aquí"
        },
        "button":{
            "lable" : "Product Category Button",
            "slug" :  "product_category_button",
            "text" : "Muestra más productos",
            "type" : "text",
            "placeholder" : "Por favor, ingrese aquí"
        },
        "product_type": {
            "lable" : "Product Category Type",
            "slug" :  "product_category_type",
            "text" : "Ultimo producto",
            "type" : "select",
            "placeholder" : "Por favor, seleccione.",
            "product_ids":[]
        },
        "category_list":{
            "lable" : "Product Category list",
            "slug" :  "product_category_list",
            "text" : "",
            "type" : "select",
            "placeholder" : "Por favor, seleccione.",
            "category_ids":[]
        }
    }
}
