{
    "section_name": "Top - Product",
    "section_slug": "top_product",
    "unique_section_slug": "top_product",
    "section_enable": "on",
    "array_type": "inner-list",
    "loop_number": 1,
    "section":{
        "title":{
            "lable" : "Top Product Title",
            "slug" :  "top_product_title",
            "text" : "<b>Cateogria</b> Moderna",
            "type" : "text",
            "placeholder" : "Por favor, ingrese aquí"
        },
        "sub_title":{
            "lable" : "Top Product Subtitle",
            "slug" :  "top_product_sub_title",
            "text" : "Ropa <b>moderna</b> y <b>atemporal</b> de los mejores estilistas.",
            "type" : "text",
            "placeholder" : "Por favor, ingrese aquí"
        },
        "description":{
            "lable" : "Top Product Description",
            "slug" :  "top_product_description",
            "text" : " Las gafas Swiss Flex provienen de Suiza y son famosas por sus monturas extremadamente ligeras. Las gafas SwissFlex ofrecen el mejor confort en todos los aspectos al usarlas. ",
            "type" : "text",
            "placeholder" : "Por favor, ingrese aquí"
        },
           "image":{
            "lable" : "Top Product Image",
            "slug" :  "top_Product_image",
            "text" : "themes/style/assets/images/twocol-left.png",
            "image" : "themes/style/assets/images/twocol-left.png",
            "type" : "photoupload",
            "placeholder" : "Por favor, ingrese aquí"
        }
    }
}