{
    "section_name": "Footer - Section",
    "section_slug": "footer",
    "unique_section_slug": "footer",
    "section_enable": "on",
    "array_type": "inner-list",
    "loop_number": 1,
    "section":{
        "title": {
            "lable": "Footer Section Title",
            "slug": "footer_title",
            "text": "Compartir",
            "type": "textarea",
            "placeholder": "Por favor, ingresa aquí.."
        },
        "footer_link": {
            "lable": "Footer Links",
            "slug": "footer_links",
            "text": "Enlaces del pie de página",
            "type": "array",
            "loop_number": 4,
            "social_link": ["https://www.youtube.com/"],
            "social_icon": [
                {
                    "text": "themes/glasses/assets/img/youtube.svg",
                    "image": "themes/glasses/assets/img/youtube.svg"
                },
                {
                    "text": "themes/glasses/assets/img/youtube.svg",
                    "image": "themes/glasses/assets/img/youtube.svg"
                },
                {
                    "text": "themes/glasses/assets/img/youtube.svg",
                    "image": "themes/glasses/assets/img/youtube.svg"
                },
                {
                    "text": "themes/glasses/assets/img/youtube.svg",
                    "image": "themes/glasses/assets/img/youtube.svg"
                }
            ]
        },
        "newsletter_title": {
            "lable": "Footer Newsletter Title",
            "slug": "footer_newsletter_title",
            "text": "Suscríbete al boletín",
            "type": "textarea",
            "placeholder": "Por favor, ingresa aquí.."
        },
        "newsletter_sub_title": {
            "lable": "Footer Newsletter Subtitle",
            "slug": "footer_newsletter_sub_title",
            "text": "El mejor estilo para tu formulario de suscripción al boletín dependerá de tu marca y audiencia. Si no estás seguro de qué estilo elegir, siempre es buena idea obtener comentarios de otros.",
            "type": "textarea",
            "placeholder": "Por favor, ingresa aquí.."
        },
        "newsletter_description": {
            "lable": "Footer Newsletter Description",
            "slug": "footer_newsletter_description",
            "text": "Suscríbete para recibir las últimas noticias, actualizaciones y ofertas. ¡No te preocupes, no enviaremos spam!",
            "type": "textarea",
            "placeholder": "Por favor, ingresa aquí.."
        },
        "footer_menu_type": {
            "lable": "Footer Menu Type",
            "slug": "footer_menu_type",
            "text": "Menú de pie de página",
            "type": "array",
            "loop_number": 2,
            "footer_menu_ids": []
        },
        "copy_right": {
            "lable": "Copy Rights",
            "slug": "footer_copy_right",
            "text": "© 2024, glasses. Todos los derechos reservados",
            "type": "textarea",
            "placeholder": "Por favor, ingresa aquí.."
        },
        "footer_cookie": {
            "lable": "Footer Cookie",
            "slug": "footer_cookie",
            "text": "Utilizamos cookies propias y de terceros para mejorar tu experiencia y nuestros servicios, y para analizar el uso de nuestro sitio web. Si continúas navegando, consideramos que aceptas su uso. Consulta la información.",
            "type": "textarea",
            "placeholder": "Por favor, ingresa aquí.."
        }
        
    }
}
