<svg width="16" height="10" viewBox="0 0 16 10" fill="none" xmlns="http://www.w3.org/2000/svg">
<path d="M15 9L8 2L1 9" stroke="url(#paint0_linear_110_21453)" stroke-width="2"/>
<defs>
<linearGradient id="paint0_linear_110_21453" x1="14.4432" y1="2.89362" x2="1.38022" y2="4.3786" gradientUnits="userSpaceOnUse">
<stop stop-color="#B10000"/>
<stop offset="1" stop-color="#660000"/>
</linearGradient>
</defs>
</svg>
