{
    "section_name": "Newest - Category",
    "section_slug": "newest_category",
    "unique_section_slug": "newest_category",
    "section_enable": "on",
    "array_type": "inner-list",
    "loop_number": 1,
    "section":{
        
    }
}
