{
    "section_name": "Footer - Section",
    "section_slug": "footer",
    "unique_section_slug": "footer",
    "section_enable": "on",
    "array_type": "inner-list",
    "loop_number": 1,
    "section":{
        "description": {
            "lable": "Footer Section Description",
            "slug": "footer_description",
            "text": "No importa cuál sea tu estilo, hay una tendencia de moda para ti. Así que experimenta con diferentes looks y encuentra lo que te hace sentir seguro y con estilo.",
            "type": "textarea",
            "placeholder": "Por favor, ingresa aquí.."
        },
        "footer_link": {
            "lable": "Footer Links",
            "slug": "footer_links",
            "text": "Enlaces del pie de página",
            "type": "array",
            "loop_number": 4,
            "social_link": ["https://www.youtube.com/"],
            "social_icon": [
                {
                    "text": "themes/fashion/assets/img/youtube.png",
                    "image": "themes/fashion/assets/img/youtube.png"
                }
            ]
        },
        "footer_menu_type": {
            "lable": "Footer Menu Type",
            "slug": "footer_menu_type",
            "text": "barra_de_menú_del_pie_de_página",
            "type": "array",
            "loop_number": 4,
            "footer_menu_ids": []
        }
        
    }
}
