{
    "section_name": "Homepage - Header",
    "section_slug": "header",
    "unique_section_slug": "header",
    "section_enable": "on",
    "array_type": "inner-list",
    "loop_number": 1,
    "section":{
        "title": {
            "lable": "Announcement Title",
            "slug": "announcement_text",
            "text": "<b>7 días a la semana</b> de 9:00 am a 7:00 pm",
            "type": "text",
            "placeholder": "Por favor, ingresa aquí..."
        },
        "support_title": {
            "lable": "Support Title",
            "slug": "support_title",
            "text": "Contacto",
            "type": "text",
            "placeholder": "Por favor, ingresa aquí..."
        },
        "menu_type": {
            "lable": "Menu Type",
            "slug": "menu_type",
            "text": "barra de menú",
            "type": "select",
            "placeholder": "Por favor, selecciona..",
            "menu_ids": []
        }
        
    }
}
