{
    "section_name": "VariantBackground - Section",
    "section_slug": "variant_background",
    "unique_section_slug": "variant_background",
    "section_enable": "on",
    "array_type": "inner-list",
    "loop_number": 1,
    "section":{
        "title": {
            "lable": "Variant Background Title",
            "slug": "variant_background_title",
            "text": "Productos de tendencia para mujeres",
            "type": "text",
            "placeholder": "Por favor, ingresa aquí.."
        },
        "description": {
            "lable": "Variant Background Description",
            "slug": "variant_background_description",
            "text": "La moda es una forma de autoexpresión y autonomía en un período y lugar específicos, y en un contexto particular, que abarca la ropa, el calzado, el estilo de vida, los accesorios, el maquillaje, el peinado y la postura corporal.",
            "type": "textarea",
            "placeholder": "Por favor, ingresa aquí.."
        },
        "button": {
            "lable": "Variant Background Button",
            "slug": "variant_background_button",
            "text": "Ir a Categorías",
            "type": "text",
            "placeholder": "Por favor, ingresa aquí.."
        },
        "image": {
            "lable": "Varinat Background Image",
            "slug": "variant_background_image",
            "text": "themes/fashion/assets/img/banner-2.png",
            "image": "themes/fashion/assets/img/banner-2.png",
            "type": "photoupload",
            "placeholder": "Por favor, ingresa aquí.."
        }
        
    }
}
