{
    "section_name": "BackgroundImage - Section",
    "section_slug": "background_image",
    "unique_section_slug": "background_image",
    "section_enable": "on",
    "array_type": "inner-list",
    "loop_number": 1,
    "section":{
        "title":{
            "lable" : "Background Image Title",
            "slug" :  "background_image_title",
            "text" : "<b>Enamórate de </b> increíbles <br>prendas de vestir  ",
            "type" : "text",
            "placeholder" : "Por favor, ingresa aquí."
        },
        "description":{
            "lable" : "Background Image Description",
            "slug" :  "background_image_description",
            "text" : "Lorem Ipsum es simplemente el texto ficticio de la industria de la impresión y composición tipográfica. Lorem Ipsum ha sido el texto ficticio estándar de la industria desde el siglo XVI, cuando un impresor desconocido tomó una galería de tipos y la mezcló para hacer un libro de muestras tipográficas.",
            "type" : "textarea",
            "placeholder" : "Por favor, ingresa aquí."
        },
        "button":{
            "lable" : "Background Image Button",
            "slug" :  "background_image_button",
            "text" : "Ve a la tienda.",
            "type" : "button",
            "placeholder" : "Por favor, ingresa aquí."
        },
        "image":{
            "lable" : "Background Image",
            "slug" :  "background_image",
            "text" : "themes/sensation/assets/images/banner-2.png",
            "image" : "themes/sensation/assets/images/banner-2.png",
            "type" : "photoupload",
            "placeholder" : "Por favor, ingresa aquí."
        }
    }
}