{
    "section_name": "Bestseller - Slider",
    "section_slug": "bestseller_slider",
    "unique_section_slug": "bestseller_slider",
    "section_enable": "on",
    "array_type": "inner-list",
    "loop_number": 1,
    "section":{
        "title":{
            "lable" : "Bestseller Title",
            "slug" :  "bestseller_text",
            "text" : "<b> Mejores</b> productos",
            "type" : "text",
            "placeholder" : "Por favor, ingresa aquí."
        },
        "button":{
            "lable" : "Bestseler Button",
            "slug" :  "bestseller_button",
            "text" : "Muestra más productos",
            "type" : "button",
            "placeholder" : "Por favor, ingresa aquí."
        },
        "product_type": {
            "lable" : "Product Type",
            "slug" :  "product_type",
            "text" : "Ultimo producto",
            "type" : "select",
            "placeholder" : "Por favor, selecciona",
            "product_ids":[]
        },
        "category_list":{
            "lable" : "Product Category Button",
            "slug" :  "product_category_list",
            "text" : "",
            "type" : "select",
            "placeholder" : "Por favor, selecciona",
            "category_ids":[]
        }
    }
}