{
    "section_name": "Blog",
    "section_slug": "blog",
    "unique_section_slug": "blog",
    "section_enable": "on",
    "array_type": "inner-list",
    "loop_number": 1,
    "section":{
        "title":{
            "lable" : "Blog Title",
            "slug" :  "blog_title",
            "text" : " <b> Sobre </b> el blog",
            "type" : "text",
            "placeholder" : "Por favor, ingrese aqui"
        },
        "description":{
            "lable" : "Blog Description",
            "slug" :  "blog_description",
            "text" : "Lorem Ipsum es simplemente el texto ficticio de la industria de impresión y composición tipográfica. Lorem Ipsum ha sido el estándar ficticio de la industria.",
            "type" : "textarea",
            "placeholder" : "Por favor, ingrese aqui"
        }      
    }
}