[
    {
        "section_name": "Home - Banner",
        "section_slug": "homepage-banner",
        "unique_section_slug": "homepage-banner",
        "section_enable": "on",
        "array_type": "inner-list",
        "loop_number": "1",
        "inner-list": [
            {
                "field_name": "Background Image",
                "field_slug": "homepage-banner-bg-img",
                "field_help_text": "Por favor, carga la imagen desde aquí.",
                "field_default_text": "themes/grocery/assets/img/grocery.jpg",
                "field_type": "photo upload"
            },
            {
                "field_name": "lable",
                "field_slug": "homepage-banner",
                "field_help_text": "Por favor, agrega el texto de la etiqueta aquí.",
                "field_default_text": "Servicios de entrega",
                "field_type": "text"
            },
            {
                "field_name": "Title Text",
                "field_slug": "homepage-banner-title-text",
                "field_help_text": "Por favor, agrega el texto del título aquí.",
                "field_default_text": "Entrega en 24 horas",
                "field_type": "text"
            },
            {
                "field_name": "Sub Text",
                "field_slug": "homepage-banner-sub-text",
                "field_help_text": "Por favor, agrega el texto secundario aquí.",
                "field_default_text": "Lorem Ipsum es simplemente un texto de relleno de la industria de la impresión y la composición tipográfica.",
                "field_type": "text area"
            },
            {
                "field_name": "Button Text",
                "field_slug": "homepage-banner-btn-text",
                "field_help_text": "Por favor, agrega el texto del botón aquí.",
                "field_default_text": "Ir a Entrega",
                "field_type": "text"
            }
        ]
    },
    {
        "section_name": "Home - Products",
        "section_slug": "homepage-products",
        "unique_section_slug": "homepage-products",
        "section_enable": "on",
        "array_type": "inner-list",
        "loop_number": "1",
        "inner-list": [
            {
                "field_name": "Title Text",
                "field_slug": "homepage-products-title-text",
                "field_help_text": "Por favor, agrega el texto del título aquí.",
                "field_default_text": "Descuentos de Hoy",
                "field_type": "text"
            }
        ]
    },
    {
        "section_name": "Home - Discount",
        "section_slug": "homepage-discount",
        "unique_section_slug": "homepage-discount",
        "section_enable": "on",
        "array_type": "inner-list",
        "loop_number": "1",
        "inner-list": [
            {
                "field_name": "lable",
                "field_slug": "homepage-discount-label",
                "field_help_text": "Por favor añade el texto de la etiqueta aquí",
                "field_default_text": "Descuentos diarios",
                "field_type": "text"
            },
            {
                "field_name": "Title Text",
                "field_slug": "homepage-discount-title-text",
                "field_help_text": "Por favor añade el texto del título aquí",
                "field_default_text": "Frutas y verduras",
                "field_type": "text"
            },
            {
                "field_name": "Sub Text",
                "field_slug": "homepage-discount-sub-text",
                "field_help_text": "Por favor añade el texto secundario aquí",
                "field_default_text": "Lorem Ipsum es simplemente texto simulado de la industria de la impresión y composición tipográfica.",
                "field_type": "text area"
            },
            {
                "field_name": "Button Text",
                "field_slug": "homepage-discount-btn-text",
                "field_help_text": "Por favor, el texto del botón aqui",
                "field_default_text": "Mostrar productos",
                "field_type": "button"
            }
        ]
    },
    {
        "section_name": "Home - Testimonial",
        "section_slug": "homepage-testimonial",
        "unique_section_slug": "homepage-testimonial",
        "section_enable": "on",
        "array_type": "inner-list",
        "loop_number": "1",
        "inner-list": [
            {
                "field_name": "Title Text",
                "field_slug": "homepage-testimonial-title-text",
                "field_help_text": "Por favor añade el texto del título aquí",
                "field_default_text": "Testimonios",
                "field_type": "text"
            },
            {
                "field_name": "Sub text",
                "field_slug": "homepage-testimonial-sub-text",
                "field_help_text": "Por favor añade el texto secundario aquí",
                "field_default_text": "Lorem Ipsum es simplemente texto simulado de la industria de la impresión y composición tipográfica.",
                "field_type": "text area"
            },
            {
                "field_name": "Button Text",
                "field_slug": "homepage-testimonial-btn-text",
                "field_help_text": "Por favor, el texto del botón aqui",
                "field_default_text": "Mostrar productos",
                "field_type": "button"
            }
        ]
    },
    {
        "section_name": "Home - Category",
        "section_slug": "homepage-category",
        "unique_section_slug": "homepage-category",
        "section_enable": "on",
        "array_type": "inner-list",
        "loop_number": "1",
        "inner-list": [
            {
                "field_name": "Label ",
                "field_slug": "homepage-category-label",
                "field_help_text": "Por favor añade el texto de la etiqueta aquí",
                "field_default_text": "Descuentos diarios",
                "field_type": "text"
            },
            {
                "field_name": "Title Text",
                "field_slug": "homepage-category-title-text",
                "field_help_text": "Por favor añade el texto del título aquí",
                "field_default_text": "Frutas y Verduras",
                "field_type": "text"
            },
            {
                "field_name": "Sub Text",
                "field_slug": "homepage-category-sub-text",
                "field_help_text": "Por favor añade el texto secundario aquí",
                "field_default_text": "Lorem Ipsum es simplemente texto simulado de la industria de la impresión y composición tipográfica.",
                "field_type": "text area"
            }
        ]
    },
    {
        "section_name": "Home - Newsletter",
        "section_slug": "homepage-newsletter",
        "unique_section_slug": "homepage-newsletter",
        "section_enable": "on",
        "array_type": "inner-list",
        "loop_number": "1",
        "inner-list": [
            {
                "field_name": "Title Text",
                "field_slug": "homepage-newsletter-title-text",
                "field_help_text": "Por favor añade el texto del título aquí",
                "field_default_text": "Suscríbete al boletín y obtén un descuento del -20%",
                "field_type": "text"
            },
            {
                "field_name": "Sub Text",
                "field_slug": "homepage-newsletter-sub-text",
                "field_help_text": "Por favor añade el texto secundario aquí",
                "field_default_text": "Lorem Ipsum es simplemente texto simulado de la industria de la impresión y composición tipográfica.",
                "field_type": "text"
            },
            {
                "field_name": "Description",
                "field_slug": "homepage-newsletter-description",
                "field_help_text": "Por favor añade el texto de descripción aquí",
                "field_default_text": "Lorem Ipsum es simplemente texto simulado de la industria de la impresión y composición tipográfica.",
                "field_type": "text area"
            }
        ]
    }
]