{
    "section_name": "Product",
    "section_slug": "product",
    "unique_section_slug": "product",
    "section_enable": "on",
    "array_type": "inner-list",
    "loop_number": 1,
    "section":{
        "title":{
            "lable" : "Product Title",
            "slug" :  "product_title",
            "text" : "Nuestros Productos",
            "type" : "text",
            "placeholder" : "Por favor, ingresa aquí..."
        },
        "button":{
            "lable" : "Product Button",
            "slug" :  "product_button",
            "text" : "Ve a productos",
            "type" : "text",
            "placeholder" : "Por favor, ingresa aquí..."
        },
        "description":{
            "lable" : "Product Description",
            "slug" :  "product_description",
            "text" : "Están hechos con ingredientes botánicamente puros, así que puedes sentirte bien al comerlos. Además, son realmente nutritivos, así que también puedes sentirte bien.",
            "type" : "textarea",
            "placeholder" : "Por favor, ingresa aquí..."
        }
    }
}