{
    "section_name": "Best - Product",
    "section_slug": "best_product",
    "unique_section_slug": "best_product",
    "section_enable": "on",
    "array_type": "inner-list",
    "loop_number": 1,
    "section":{
        "title":{
            "lable" : "best Product Title",
            "slug" :  "best_product_title",
            "text" : "<b>Enamórate de </b> <br>ropa increíble",
            "type" : "text",
            "placeholder" : "Por favor, ingrese aquí..."
        },
        "description":{
            "lable" : "Best product Description",
            "slug" :  "best_product_description",
            "text" : "Lorem Ipsum es simplemente el texto ficticio de la industria de la impresión y composición tipográfica. Ha sido el texto ficticio estándar de la industria desde la década de 1500, cuando un impresor desconocido tomó una galerada de tipos y la mezcló para crear un libro de ejemplos tipográficos.",
            "type" : "textarea",
            "placeholder" : "Por favor, ingrese aquí..."
        },
        "button":{
            "lable" : "Best Product Button",
            "slug" :  "best_product_button",
            "text" : "Ver más productos",
            "type" : "text",
            "placeholder" : "Por favor, ingrese aquí..."
        },
        "image":{
            "lable" : "Best Product Image",
            "slug" :  "best_product_image",
            "text" : "themes/barbecue/assets/images/more-cat-img1.png",
            "image" : "themes/barbecue/assets/images/more-cat-img1.png",
            "type" : "photoupload",
            "placeholder" : "Por favor, ingrese aquí..."
        },
        "background_image":{
            "lable" : "Best Product Background Image",
            "slug" :  "best_product_background_image",
            "text" : "themes/barbecue/assets/images/more-cat-banner.png",
            "image": "themes/barbecue/assets/images/more-cat-banner.png",
            "type" : "file",
            "placeholder" : "Por favor, seleccione un archivo"
        },
        "image_left":{
            "lable" : "Best Product Image Left",
            "slug" :  "best_product_image_left",
            "text" : "themes/barbecue/assets/images/more-cat-img2.png",
            "image" : "themes/barbecue/assets/images/more-cat-img2.png",
            "type" : "photoupload",
            "placeholder" : "Por favor, ingrese aquí..."
        }
    }
}