{
    "section_name": "Blog",
    "section_slug": "blog",
    "unique_section_slug": "blog",
    "section_enable": "on",
    "array_type": "inner-list",
    "loop_number": 1,
    "section": {
        "title": {
            "lable": "Blog Title",
            "slug": "blog_title",
            "text": "Desde de nuestro blog",
            "type": "text",
            "placeholder": "Por favor, ingrese aquí."
        },
        "sub_title": {
            "lable": "Blog Title",
            "slug": "blog_title",
            "text": "TODOS LOS PRODUCTOS",
            "type": "text",
            "placeholder": "Por favor, ingrese aquí."
        },
        "button": {
            "lable": "Blog Description",
            "slug": "blog_description",
            "text": "MOSTRAR MÁS ARTICLES",
            "type": "textarea",
            "placeholder": "Por favor, ingrese aquí."
        }
    }
}
