<svg width="13" height="13" viewBox="0 0 13 13" fill="none" xmlns="http://www.w3.org/2000/svg">
<path fill-rule="evenodd" clip-rule="evenodd" d="M9.01711 9.89563C8.17556 10.5498 7.11811 10.9393 5.96967 10.9393C3.225 10.9393 1 8.71435 1 5.96967C1 3.225 3.225 1 5.96967 1C8.71435 1 10.9393 3.225 10.9393 5.96967C10.9393 7.11811 10.5498 8.17556 9.89563 9.01711L11.8179 10.9393C12.0605 11.1819 12.0605 11.5752 11.8179 11.8178C11.5753 12.0604 11.182 12.0604 10.9394 11.8178L9.01711 9.89563ZM9.69693 5.96967C9.69693 8.02818 8.02818 9.69693 5.96967 9.69693C3.91117 9.69693 2.24242 8.02818 2.24242 5.96967C2.24242 3.91117 3.91117 2.24242 5.96967 2.24242C8.02818 2.24242 9.69693 3.91117 9.69693 5.96967Z" fill="#12131A"/>
</svg>
