{
    "section_name": "NewestCategory  - Section",
    "section_slug": "newest_category",
    "unique_section_slug": "newest_category",
    "section_enable": "on",
    "array_type": "inner-list",
    "loop_number": 1,
    "section":{
        "title":{
            "lable" : "Newest_Category  Title",
            "slug" :  "newest_category_title",
            "text" : "Productos<br> Destacados",
            "type" : "text",
            "placeholder" : "Por favor, ingrese aquí."
        },
        "sub_title":{
            "lable" : "Newest_Category Sub Title",
            "slug" :  "newest_category_sub_title",
            "text" : "HOMBRE",
            "type" : "textarea",
            "placeholder" : "Por favor, ingrese aquí."
        },
        "image":{
            "lable" : "Newest_Category Image",
            "slug" :  "newest_category_image",
            "text" : "themes/menswear/assets/images/feature-img.jpg",
            "image" : "themes/menswear/assets/images/feature-img.jpg",
            "type" : "photoupload",
            "placeholder" : "Por favor, ingrese aquí."
        }
    }
}
