{
    "section_name": "VariantBackground - Section",
    "section_slug": "variant_background",
    "unique_section_slug": "variant_background",
    "section_enable": "on",
    "array_type": "inner-list",
    "loop_number": 1,
    "section":{
        "title":{
            "lable" : "Variant Background Title",
            "slug" :  "variant_background_title",
            "text" : "Productos<br> Destacados",
            "type" : "text",
            "placeholder" : "Por favor, ingrese aquí."
        },
        "sub_title":{
            "lable" : "Variant Background Sub Title",
            "slug" :  "variant_background_sub_title",
            "text" : "Hola",
            "type" : "textarea",
            "placeholder" : "Por favor, ingrese aquí."
        },
        "button":{
            "lable" : "Variant Background Button",
            "slug" :  "variant_background_button",
            "text" : "Mostrar Más",
            "type" : "text",
            "placeholder" : "Por favor, ingrese aquí."
        },
        "image":{
            "lable" : "Varinat Background Image",
            "slug" :  "variant_background_image",
            "text" : "themes/menswear/assets/images/feature-img.jpg",
            "image" : "themes/menswear/assets/images/feature-img.jpg",
            "type" : "photoupload",
            "placeholder" : "Por favor, ingrese aquí."
        }
    }
}
