{
    "section_name": "Category",
    "section_slug": "category",
    "unique_section_slug": "category",
    "section_enable": "on",
    "array_type": "inner-list",
    "loop_number": 1,
    "section":{
        "title":{
            "lable" : "Category Title",
            "slug" :  "category_title",
            "text" : "Categorías <b>modernas</b>",
            "type" : "text",
            "placeholder" : "Por favor, ingrese aquí."
        },
        "button":{
            "lable" : "Category Button",
            "slug" :  "category_button",
            "text" : "Ve a la tienda.",
            "type" : "text",
            "placeholder" : "Por favor, ingrese aquí."
        }
    }
}
