{
    "section_name": "Service Section",
    "section_slug": "service_section",
    "unique_section_slug": "service_section",
    "section_enable": "on",
    "array_type": "multi-inner-list",
    "loop_number": 3,
    "section":{
        "service_title":{
            "lable" : "Title",
            "slug" :  "service_section_title",
            "text" : "Sobre nuestras tienda de fragancias",
            "type" : "text",
            "placeholder" : "Por favor, ingrese aquí."
        },
        "sub_title":{
            "lable" : "Sub Title",
            "slug" :  "service_section_sub_title",
            "text" : ["Entrega rapida","Muchas ofertas", "Soporte 24/7"],
            "type" : "text",
            "placeholder" : "Por favor, ingrese aquí."
        },
        "description":{
            "lable" : "Description",
            "slug" :  "service_section_description",
            "text" : ["Lorem Ipsum es simplemente texto ficticio de la industria de la impresión y composición tipográfica. Lorem Ipsum has been the industry's standard dummy text ever since the 1500s.","Lorem Ipsum es simplemente texto ficticio de la industria de la impresión y composición tipográfica. Lorem Ipsum has been the industry's standard dummy text ever since the 1500s.","Lorem Ipsum es simplemente texto ficticio de la industria de la impresión y composición tipográfica. Lorem Ipsum has been the industry's standard dummy text ever since the 1500s."],
            "type" : "text",
            "placeholder" : "Por favor, ingrese aquí."
        },
        "image":{
            "lable" : "Image",
            "slug" :  "service_section_image",
            "text" : ["themes/perfumes/assets/images/icon2.png","themes/perfumes/assets/images/icon2.png","themes/perfumes/assets/images/icon2.png"],
            "image": ["themes/perfumes/assets/images/icon2.png","themes/perfumes/assets/images/icon2.png","themes/perfumes/assets/images/icon2.png"],
            "type" : "file",
            "placeholder" : "Por favor, seleccione el archivo."
        }
    }
}
