{
    "section_name": "Footer - Section",
    "section_slug": "footer",
    "unique_section_slug": "footer",
    "section_enable": "on",
    "array_type": "inner-list",
    "loop_number": 1,
    "section":{
        "title":{
            "lable" : "Footer Section Title",
            "slug" :  "footer_title",
            "text" : "+00 544-213-615",
            "type" : "textarea",
            "placeholder" : "Por favor, ingrese aquí."
        },
        "sub_title":{
            "lable" : "Footer Section Sub Title",
            "slug" :  "footer_sub_title",
            "text" : "Llama y obtén más información:",
            "type" : "textarea",
            "placeholder" : "Por favor, ingrese aquí."
        },
        "description":{
            "lable" : "Footer Section Description",
            "slug" :  "footer_description",
            "text" : "Ofrecemos una selección cuidadosamente curada de ropa y accesorios que son elegidos para satisfacer diversos gustos y preferencias.",
            "type" : "textarea",
            "placeholder" : "Por favor, ingrese aquí."
        },
        "footer_link":{
            "lable" : "Footer Links",
            "slug" :  "footer_links",
            "text" : "Enlaces del pie de página",
            "type" : "array",
            "loop_number" : 4,
            "social_link":["https://www.youtube.com/"],
            "social_icon":[
                {
                    "text":"themes/mensonly/assets/img/youtube.svg",
                    "image":"themes/mensonly/assets/img/youtube.svg"
                },
				{
                    "text":"themes/mensonly/assets/img/youtube.svg",
                    "image":"themes/mensonly/assets/img/youtube.svg"
                },
				{
                    "text":"themes/mensonly/assets/img/youtube.svg",
                    "image":"themes/mensonly/assets/img/youtube.svg"
                },
				{
                    "text":"themes/mensonly/assets/img/youtube.svg",
                    "image":"themes/mensonly/assets/img/youtube.svg"
                }
            ]
        },
        "newsletter_title": {
            "lable" : "Footer Newsletter Title",
            "slug" :  "footer_newsletter_title",
            "text" : "Ropa única para ocasiones especiales",
            "type" : "textarea",
            "placeholder" : "Por favor, ingrese aquí."
        },
        "newsletter_sub_title": {
            "lable" : "Footer Newsletter Title",
            "slug" :  "footer_newsletter_sub_title",
            "text" : "La Moda, el Estilo, el Diseño y las Tendencias es tu destino definitivo para mantenerte al día.",
            "type" : "textarea",
            "placeholder" : "Por favor, ingrese aquí."
        },
        "newsletter_description": {
            "lable" : "Footer Newsletter Title",
            "slug" :  "footer_newsletter_description",
            "text" : "¡Suscríbete para recibir las últimas noticias, actualizaciones y ofertas! ¡No te preocupes, no enviaremos correo no deseado!",
            "type" : "textarea",
            "placeholder" : "Por favor, ingrese aquí."
        },
        "copy_right": {
            "lable" : "Copy Rights",
            "slug" :  "footer_copy_right",
            "text" : "© 2023 Mensonly. Todos los derechos reservados",
            "type" : "textarea",
            "placeholder" : "Por favor, ingrese aquí."
        },
        "footer_menu_type": {
            "lable" : "Footer Menu Type",
            "slug" :  "footer_menu_type",
            "text" : "Barra de menú del pie de página",
            "type" : "array",
            "loop_number" : 2,
            "footer_menu_ids":[]
        }
    }
}
