[
    {
        "section_name": "Home - Header",
        "section_slug": "homepage-header",
        "unique_section_slug": "homepage-header",
        "section_enable": "on",
        "array_type": "multi-inner-list",
        "loop_number": "3",
        "inner-list": [
            {
                "field_name": "Background image",
                "field_slug": "homepage-header-bg-img",
                "field_help_text": "Por favor, carga la imagen desde aquí.",
                "field_default_text": "themes/giftsmobileapp/assets/img/gift-home.png",
                "field_type": "photo upload"
            },
            {
                "field_name": "Heading",
                "field_slug": "homepage-header-heading",
                "field_help_text": "Por favor, agrega el texto del encabezado aquí.",
                "field_default_text": "Regalos.",
                "field_type": "text"
            },
            {
                "field_name": "Title Text",
                "field_slug": "homepage-header-title-text",
                "field_help_text": "Por favor, agrega el texto del título aquí.",
                "field_default_text": "Regalos para todas las ocasiones",
                "field_type": "text"
            },
            {
                "field_name": "Sub Text",
                "field_slug": "homepage-header-sub-text",
                "field_help_text": "Por favor, agrega el texto secundario aquí.",
                "field_default_text": "Lorem Ipsum es simplemente el texto ficticio de la industria de la impresión y composición tipográfica.",
                "field_type": "text area"
            },
            {
                "field_name": "Button Text",
                "field_slug": "homepage-header-btn-text",
                "field_help_text": "Por favor, agrega el texto del botón aquí.",
                "field_default_text": "Revisa más productos",
                "field_type": "button"
            }
        ]
    },
    {
        "section_name": "Home - Products",
        "section_slug": "homepage-products",
        "unique_section_slug": "homepage-products",
        "section_enable": "on",
        "array_type": "inner-list",
        "loop_number": "1",
        "inner-list": [
            {
                "field_name": "Title Text",
                "field_slug": "homepage-products-title-text",
                "field_help_text": "Por favor, agrega el texto del título aquí.",
                "field_default_text": "Regalos para todas las ocasiones",
                "field_type": "text"
            }
        ]
    },
    {
        "section_name": "Home - Review",
        "section_slug": "homepage-review",
        "unique_section_slug": "homepage-review",
        "section_enable": "on",
        "array_type": "inner-list",
        "loop_number": "1",
        "inner-list": [
            {
                "field_name": "Heading",
                "field_slug": "homepage-review-heading",
                "field_help_text": "Por favor, agrega el texto del encabezado aquí.",
                "field_default_text": "Regalos.",
                "field_type": "text"
            },
            {
                "field_name": "Title Text",
                "field_slug": "homepage-review-title-text",
                "field_help_text": "Por favor, agrega el texto del título aquí.",
                "field_default_text": "Regalos para todas las ocasiones",
                "field_type": "text"
            },
            {
                "field_name": "Sub Text",
                "field_slug": "homepage-review-sub-text",
                "field_help_text": "Por favor, agrega el texto secundario aquí.",
                "field_default_text": "Lorem Ipsum es simplemente el texto ficticio de la industria de la impresión y composición tipográfica.",
                "field_type": "text area"
            }
        ]
    },
    {
        "section_name": "Home - Categories",
        "section_slug": "homepage-categories",
        "unique_section_slug": "homepage-categories",
        "section_enable": "on",
        "array_type": "inner-list",
        "loop_number": "1",
        "inner-list": [
            {
                "field_name": "Title Text",
                "field_slug": "homepage-categories-title-text",
                "field_help_text": "Por favor, agrega el texto del título aquí.",
                "field_default_text": "Categorias:",
                "field_type": "text"
            }
        ]
    },
    {
        "section_name": "Home - Bestproducts",
        "section_slug": "homepage-bestproducts",
        "unique_section_slug": "homepage-bestproducts",
        "section_enable": "on",
        "array_type": "inner-list",
        "loop_number": "1",
        "inner-list": [
            {
                "field_name": "Title Text",
                "field_slug": "homepage-bestproducts-title-text",
                "field_help_text": "Por favor, agrega el texto del título aquí.",
                "field_default_text": "Regalos para todas las ocasiones",
                "field_type": "text"
            },
            {
                "field_name": "Button Text",
                "field_slug": "homepage-bestproducts-btn-text",
                "field_help_text": "Por favor, agrega el texto del botón aquí.",
                "field_default_text": "Mostrar más productos.",
                "field_type": "button"
            }
        ]
    },
    {
        "section_name": "Home - Newsletter",
        "section_slug": "homepage-newsletter",
        "unique_section_slug": "homepage-newsletter",
        "section_enable": "on",
        "array_type": "inner-list",
        "loop_number": "1",
        "inner-list": [
            {
                "field_name": "Title Text",
                "field_slug": "homepage-newsletter-title-text",
                "field_help_text": "Please add title text  here",
                "field_default_text": "Regalos para todas las ocasiones",
                "field_type": "text"
            },
            {
                "field_name": "Sub Text",
                "field_slug": "homepage-newsletter-sub-text",
                "field_help_text": "Por favor, agrega el texto secundario aquí.",
                "field_default_text": "Lorem Ipsum es simplemente el texto ficticio de la industria de la impresión y composición tipográfica.",
                "field_type": "text area"
            },
            {
                "field_name": "Description",
                "field_slug": "homepage-newsletter-description",
                "field_help_text": "Por favor, añade el texto de la descripción aquí.",
                "field_default_text": "Lorem Ipsum es simplemente el texto ficticio de la industria de la impresión y composición tipográfica.",
                "field_type": "text area"
            }
        ]
    }
]
