{
    "section_name": "Homepage Logo Slider",
    "section_slug": "logo_slider",
    "unique_section_slug": "logo_slider",
    "section_enable": "on",
    "array_type": "inner-list",
    "loop_number": 1,
    "section":{
        "image":{
            "lable" : "logo_slider Image",
            "slug" :  "logo_slider_image",
            "text" : ["themes/mensonly/assets/images/partner-logo.png"],
            "image": ["themes/mensonly/assets/images/partner-logo.png"],
            "type" : "file",
            "placeholder" : "Por favor, selecciona el archivo."
        }
    }
}
