{
    "section_name": "Subscribe - Section",
    "section_slug": "subscribe",
    "unique_section_slug": "subscribe",
    "section_enable": "on",
    "array_type": "inner-list",
    "loop_number": 1,
    "section":{
        "title":{
            "lable" : "Subscribe Title",
            "slug" :  "subscribe_title",
            "text" : "<b>Ropa única para</b> <br> ocasiones especiales",
            "type" : "text",
            "placeholder" : "Por favor, ingrese aquí."
        },
        "description":{
            "lable" : "Subscribe Description",
            "slug" :  "subscribe_description",
            "text" : "La Moda, el Estilo, el Diseño y las Tendencias es tu destino definitivo para mantenerte al día.",
            "type" : "textarea",
            "placeholder" : "Por favor, ingrese aquí."
        },
        "sub_title":{
            "lable" : "Subscribe Sub Title",
            "slug" :  "subscribe_sub_title",
            "text" : "¡Suscríbete para recibir las últimas noticias, actualizaciones y ofertas! ¡No te preocupes, no enviaremos correo no deseado!",
            "type" : "text",
            "placeholder" : "Por favor, ingrese aquí."
        }
    }
}
