[
    {
        "section_name": "Home - Header",
        "section_slug": "homepage-header",
        "unique_section_slug": "homepage-header",
        "section_enable": "on",
        "array_type": "inner-list",
        "loop_number": "1",
        "inner-list": [
            {
                "field_name": "TItle Text1",
                "field_slug": "homepage-header-title-text1",
                "field_help_text": "Por favor, añade el texto del título aquí.",
                "field_default_text": "MODA MASCULINA",
                "field_type": "text"
            },
            {
                "field_name": "Sub Text1",
                "field_slug": "homepage-header-sub-text1",
                "field_help_text": "Por favor, añade el subtexto aquí.",
                "field_default_text": "Lorem Ipsum es simplemente el texto ficticio de la industria de impresión y composición tipográfica.",
                "field_type": "text area"
            },
            {
                "field_name": "Button1",
                "field_slug": "homepage-header-btn1",
                "field_help_text": "Por favor, el texto del botón aqui",
                "field_default_text": "MUESTRA MÁS",
                "field_type": "button"
            },
            {
                "field_name": "TItle Text2",
                "field_slug": "homepage-header-title-text2",
                "field_help_text": "Por favor, añade el texto del título aquí.",
                "field_default_text": "MODA MASCULINA",
                "field_type": "text"
            },
            {
                "field_name": "Sub Text2",
                "field_slug": "homepage-header-sub-text2",
                "field_help_text": "Por favor, añade el subtexto aquí.",
                "field_default_text": "Lorem Ipsum es simplemente el texto ficticio de la industria de impresión y composición tipográfica.",
                "field_type": "text area"
            },
            {
                "field_name": "Button2",
                "field_slug": "homepage-header-btn2",
                "field_help_text": "Por favor, el texto del botón aqui",
                "field_default_text": "MUESTRA MÁS",
                "field_type": "button"
            },
            {
                "field_name": "TItle Text3",
                "field_slug": "homepage-header-title-text3",
                "field_help_text": "Por favor, añade el texto del título aquí.",
                "field_default_text": "MODA MASCULINA",
                "field_type": "text"
            },
            {
                "field_name": "Sub Text3",
                "field_slug": "homepage-header-sub-text3",
                "field_help_text": "Por favor, añade el subtexto aquí.",
                "field_default_text": "Lorem Ipsum es simplemente el texto ficticio de la industria de impresión y composición tipográfica.",
                "field_type": "text area"
            },
            {
                "field_name": "Button3",
                "field_slug": "homepage-header-btn3",
                "field_help_text": "Por favor, el texto del botón aqui",
                "field_default_text": "MUESTRA MÁS",
                "field_type": "button"
            }
        ]
    },
    {
        "section_name": "Home - Feature - Products",
        "section_slug": "homepage-feature-products",
        "unique_section_slug": "homepage-feature-products",
        "section_enable": "on",
        "array_type": "inner-list",
        "loop_number": "1",
        "inner-list": [
            {
                "field_name": "Heading",
                "field_slug": "homepage-feature-products-heading",
                "field_help_text": "Por favor, añade el texto del encabezado aquí.",
                "field_default_text": "HOMBRE",
                "field_type": "text"
            },
            {
                "field_name": "Title Text",
                "field_slug": "homepage-feature-products-title-text",
                "field_help_text": "Por favor, añade el texto del título aquí.",
                "field_default_text": "PRODUCTOS DESTACADOS",
                "field_type": "text"
            }
        ]
    },
    {
        "section_name": "Home - Products",
        "section_slug": "homepage-products",
        "unique_section_slug": "homepage-products",
        "section_enable": "on",
        "array_type": "inner-list",
        "loop_number": "1",
        "inner-list": [
            {
                "field_name": "Heading",
                "field_slug": "homepage-products-heading",
                "field_help_text": "Por favor, añade el texto del encabezado aquí.",
                "field_default_text": "HOMBRE",
                "field_type": "text"
            },
            {
                "field_name": "Title Text",
                "field_slug": "homepage-products-title-text",
                "field_help_text": "Por favor, añade el texto del título aquí.",
                "field_default_text": "Productos para el cuidado de la piel",
                "field_type": "text"
            }
        ]
    },
    {
        "section_name": "Home - Trending - Products ",
        "section_slug": "homepage-trending-products",
        "unique_section_slug": "homepage-trending-products",
        "section_enable": "on",
        "array_type": "inner-list",
        "loop_number": "1",
        "inner-list": [
            {
                "field_name": "Heading",
                "field_slug": "homepage-trending-products-heading",
                "field_help_text": "Por favor, añade el texto del encabezado aquí.",
                "field_default_text": "HOMBRE",
                "field_type": "text"
            },
            {
                "field_name": "Title Text",
                "field_slug": "homepage-trending-products-title-text",
                "field_help_text": "Por favor, añade el texto del título aquí.",
                "field_default_text": "Productos de moda masculina trending",
                "field_type": "text"
            }
        ]
    },
    {
        "section_name": "Home - Newsletter",
        "section_slug": "homepage-newsletter",
        "unique_section_slug": "homepage-newsletter",
        "section_enable": "on",
        "array_type": "inner-list",
        "loop_number": "1",
        "inner-list": [
            {
                "field_name": "Title Text",
                "field_slug": "homepage-newsletter-title-text",
                "field_help_text": "Por favor, añade el texto del título aquí.",
                "field_default_text": "Suscríbete al boletín y obtén un descuento del -20%",
                "field_type": "text"
            },
            {
                "field_name": "Sub Text",
                "field_slug": "homepage-newsletter-sub-text",
                "field_help_text": "Por favor, añade el subtexto aquí.",
                "field_default_text": "Lorem Ipsum es simplemente el texto ficticio de la industria de impresión y composición tipográfica.",
                "field_type": "text area"
            }
        ]
    }
]