{
    "section_name": "Video Section",
    "section_slug": "video",
    "unique_section_slug": "video",
    "section_enable": "on",
    "array_type": "inner-list",
    "loop_number": 1,
    "section":{
        "image":{
            "lable" : "Video",
            "slug" :  "video_file",
            "text" : "themes/trendy/assets/images/banner-image.mp4",
            "image": "themes/trendy/assets/images/banner-image.png",
            "type" : "file",
            "placeholder" : "Please select file"
        },
        "background_image":{
            "lable" : "Video Background Image",
            "slug" :  "video_background_image",
            "text" : "themes/trendy/assets/images/banner-image.mp4",
            "image": "themes/trendy/assets/images/banner-image.png",
            "type" : "file",
            "placeholder" : "Please select file"
        }
    }
}
