<svg width="5" height="8" viewBox="0 0 5 8" fill="none" xmlns="http://www.w3.org/2000/svg">
<path fill-rule="evenodd" clip-rule="evenodd" d="M0.266266 0.26035C-0.088756 0.607483 -0.088756 1.1703 0.266266 1.51743L2.80526 4L0.266267 6.48257C-0.0887555 6.8297 -0.0887554 7.39252 0.266267 7.73965C0.621289 8.08678 1.19689 8.08678 1.55192 7.73965L4.73373 4.62854C5.08876 4.28141 5.08876 3.71859 4.73373 3.37146L1.55191 0.26035C1.19689 -0.0867829 0.621288 -0.0867828 0.266266 0.26035Z" fill="#51734E"/>
</svg>
