{
    "section_name": "Blog",
    "section_slug": "blog",
    "unique_section_slug": "blog",
    "section_enable": "on",
    "array_type": "inner-list",
    "loop_number": 1,
    "section":{
        "title":{
            "lable" : "Blog Title",
            "slug" :  "blog_title",
            "text" : "Mejor Blog de <b>Pro</b> Gaming",
            "type" : "text",
            "placeholder" : "Por favor, ingrese aquí..."
        },
        "description":{
            "lable" : "Blog Description",
            "slug" :  "description",
            "text" : "Producto de Juego significa cualquier activo intangible, bien o interés que pueda ser comprado o vendido o que de otra manera sea objeto de una actividad que constituya un Negocio de Juegos.",
            "type" : "text",
            "placeholder" : "Por favor, ingrese aquí..."
        },
        "button":{
            "lable" :"Blog Button",
            "slug" : "blog_button",
            "text" : "Mostrar productos.",
            "type" : "text",
            "placeholder" : "Por favor, ingrese aquí..."
        }
    }
}
