{
    "section_name": "Homepage Logo",
    "section_slug": "logo_slider",
    "unique_section_slug": "logo_slider",
    "section_enable": "on",
    "array_type": "inner-list",
    "loop_number": 10,
    "section":{
          "image":{
            "lable" : "Logo Slider Image",
            "slug" :  "logo_slider_image",
            "text" : ["themes/wristwatch/assets/images/client-logo.png","themes/wristwatch/assets/images/client-logo.png","themes/wristwatch/assets/images/client-logo.png","themes/wristwatch/assets/images/client-logo.png","themes/wristwatch/assets/images/client-logo.png","themes/wristwatch/assets/images/client-logo.png","themes/wristwatch/assets/images/client-logo.png","themes/wristwatch/assets/images/client-logo.png","themes/wristwatch/assets/images/client-logo.png","themes/wristwatch/assets/images/client-logo.png"],
            "image": ["themes/wristwatch/assets/images/client-logo.png","themes/wristwatch/assets/images/client-logo.png","themes/wristwatch/assets/images/client-logo.png","themes/wristwatch/assets/images/client-logo.png","themes/wristwatch/assets/images/client-logo.png","themes/wristwatch/assets/images/client-logo.png","themes/wristwatch/assets/images/client-logo.png","themes/wristwatch/assets/images/client-logo.png","themes/wristwatch/assets/images/client-logo.png","themes/wristwatch/assets/images/client-logo.png"],
            "type" : "file",
            "placeholder" : "Por favor, selecciona un archivo."
        }
    }
}
