{
    "section_name": "Review",
    "section_slug": "review",
    "unique_section_slug": "review",
    "section_enable": "on",
    "array_type": "inner-list",
    "loop_number": 1,
    "section":{
        "title":{
            "lable" : "Review Title",
            "slug" :  "review_title",
            "text" : "Testimonios",
            "type" : "text",
            "placeholder" : "Por favor, ingrese aquí..."
        },
        "description":{
            "lable" : "Review Description",
            "slug" :  "review_description",
            "text" : "¿Quieres un reloj resistente al agua? En tercer lugar, considera el estilo de reloj que te gusta. Hay muchos estilos diferentes de relojes disponibles, desde simples y elegantes hasta deportivos y resistentes. Finalmente, investiga para encontrar un minorista de relojes de buena reputación.",
            "type" : "textarea",
            "placeholder" : "Por favor, ingrese aquí..."
        },
        "button":{
            "lable" :"Review Button",
            "slug" : "review_button",
            "text" : "Mostrar productos.",
            "type" : "text",
            "placeholder" : "Por favor, ingrese aquí..."
        }
    }
}
