{
    "section_name": "Subscribe - Section",
    "section_slug": "subscribe",
    "unique_section_slug": "subscribe",
    "section_enable": "on",
    "array_type": "inner-list",
    "loop_number": 1,
    "section":{
        "title":{
            "lable" : "Subscribe Title",
            "slug" :  "subscribe_title",
            "text" : "Suscríbete al boletín y obtén <b> -20% de descuento </b>",
            "type" : "text",
            "placeholder" : "Por favor, ingrese aquí..."
        },
        "description":{
            "lable" : "Subscribe Description",
            "slug" :  "subscribe_description",
            "text" : "Casi tres cuartos de los jugadores de PC dedicados afirman que su principal motivación para actualizar es mejorar la experiencia de juego.",
            "type" : "textarea",
            "placeholder" : "Por favor, ingrese aquí..."
        },
        "button":{
            "lable" : "Subscribe Button",
            "slug" :  "subscribe_button",
            "text" : "Subscribete",
            "type" : "text",
            "placeholder" : "Por favor, ingrese aquí..."
        },
        "sub_title":{
            "lable" : "Subscribe subtitle",
            "slug" :  "subscribe_sub_title",
            "text" : "Suscríbete para recibir las últimas noticias, actualizaciones y ofertas. ¡No te preocupes, no enviaremos correo no deseado!",
            "type" : "text",
            "placeholder" : "Por favor, ingrese aquí..."
        },
        "image":{
            "lable" : "Subscribe Image",
            "slug" :  "subscribe_image",
            "text" : "themes/wristwatch/assets/images/subscribe-img.png",
            "image" : "themes/wristwatch/assets/images/subscribe-img.png",
            "type" : "photoupload",
            "placeholder" : "Por favor, ingrese aquí..."
        }
    }
}
