{
    "section_name": "Best - Product",
    "section_slug": "best_product",
    "unique_section_slug": "best_product",
    "section_enable": "on",
    "array_type": "inner-list",
    "loop_number": 1,
    "section":{
        "title":{
            "lable" : "Best Product Title",
            "slug" :  "best_product_titel",
            "text" : "<b>El lugar de un </b> <br> verdadero escalador de montañas",
            "type" : "text",
            "placeholder" : "Por favor, ingrese aquí."
        },
        "button":{
            "lable" : "Best Product Button",
            "slug" :  "best_product_button",
            "text" : "Todos los productos.",
            "type" : "text",
            "placeholder" : "Por favor, ingrese aquí.."
        },
        "sub_title":{
            "lable" : " Sub Title",
            "slug" :  "best_product_subtitle",
            "text" : "MONTAÑAS",
            "type" : "text",
            "placeholder" : "Por favor, ingrese aquí."
        },
        "description":{
            "lable" : "Description",
            "slug" :  "best_product_description",
            "text" : "Montaña: Una montaña se caracteriza típicamente como una forma de relieve alta y de lados empinados que se eleva por encima del terreno circundante.",
            "type" : "textarea",
            "placeholder" : "Por favor, ingrese aquí."
        }

    }
}
