{
    "section_name": "Subscribe - Section",
    "section_slug": "subscribe",
    "unique_section_slug": "subscribe",
    "section_enable": "on",
    "array_type": "inner-list",
    "loop_number": 1,
    "section":{
        "title":{
            "lable" : "Subscribe Title",
            "slug" :  "subscribe_title",
            "text" : "<b>Regalos para</b> <br> todas las ocasiones",
            "type" : "text",
            "placeholder" : "Por favor, ingresa aquí..."
        },
        "description":{
            "lable" : "Subscribe Description",
            "slug" :  "subscribe_description",
            "text" : "Por favor, siéntete libre de contactarnos si tienes alguna pregunta o si deseas programar una consulta.",
            "type" : "textarea",
            "placeholder" : "Por favor, ingresa aquí..."
        },
        "sub_title":{
            "lable" : "Subscribe Sub Title",
            "slug" :  "subscribe_sub_title",
            "text" : "Regalos es un minorista de estilo de vida dedicado a inspirar a los clientes a través de una combinación única",
            "type" : "text",
            "placeholder" : "Por favor, ingresa aquí..."
        }
        
    }
}