{
    "section_name": "Footer - Section",
    "section_slug": "footer",
    "unique_section_slug": "footer",
    "section_enable": "on",
    "array_type": "inner-list",
    "loop_number": 1,
    "section":{
        "sub_title":{
            "lable" : "Copy Right Title",
            "slug" :  "footer_sub_title",
            "text" : "© 2023, Homedecor. Todos los derechos reservados",
            "type" : "textarea",
            "placeholder" : "Por favor, ingrese aquí."
        },
        "description":{
            "lable" : "Footer Section Description",
            "slug" :  "footer_description",
            "text" : "Descubre tu hogar soñado con nuestro boletín de decoración para el hogar. Mantente inspirado e informado con las últimas tendencias, consejos y ofertas exclusivas en decoración del hogar.",
            "type" : "textarea",
            "placeholder" : "Por favor, ingrese aquí."
        },
        "footer_link":{
            "lable" : "Footer Links",
            "slug" :  "footer_links",
            "text" : "Enlaces del pie de página",
            "type" : "array",
            "loop_number" : 4,
            "social_link":["https://www.youtube.com/"],
            "social_icon":[
                {
                    "text":"themes/homedecor/assets/images/youtube.svg",
                    "image":"themes/homedecor/assets/images/youtube.svg"
                }
            ]
        },
        "newsletter_title":{
            "lable" : "Footer Newsletter Title",
            "slug" :  "footer_newsletter_title",
            "text" : "Suscríbete al boletín y obtén un descuento del 20%",
            "type" : "textarea",
            "placeholder" : "Por favor, ingrese aquí."
        },
        "newsletter_description":{
            "lable" : "Footer Newsletter Description",
            "slug" :  "footer_newsletter_description",
            "text" : "¡Suscríbete para recibir las últimas noticias, actualizaciones y ofertas! ¡No te preocupes, no enviaremos correo no deseado!",
            "type" : "textarea",
            "placeholder" : "Por favor, ingrese aquí."
        },
        "footer_menu_type": {
            "lable" : "Footer Menu Type",
            "slug" :  "footer_menu_type",
            "text" : "Barra de menú del pie de página",
            "type" : "array",
            "loop_number" : 2,
            "footer_menu_ids":[]
        }
    }
}
