{
    "section_name": "Review",
    "section_slug": "review",
    "unique_section_slug": "review",
    "section_enable": "on",
    "array_type": "inner-list",
    "loop_number": 1,
    "section": {
        "title": {
            "lable": "Review Title",
            "slug": "review_title",
            "text": "Testimonios",
            "type": "text",
            "placeholder": "Por favor, ingrese aquí."
        },
        "button": {
            "lable": "Modern Product Button",
            "slug": "review_button",
            "text": "Mostrar más productos.",
            "type": "button",
            "placeholder": "Por favor, ingrese aquí."
        }
    }
}
