{
    "section_name": "Footer - Section",
    "section_slug": "footer",
    "unique_section_slug": "footer",
    "section_enable": "on",
    "array_type": "inner-list",
    "loop_number": 1,
    "section":{
        "sub_title":{
            "lable" : "Copy Right Title",
            "slug" :  "footer_sub_title",
            "text" : "Lorem Ipsum es simplemente el texto de relleno de las imprentas y archivos de texto. Lorem Ipsum ha sido el texto de relleno estándar de la industria desde el año 1500.",
            "type" : "textarea",
            "placeholder" : "Por favor, ingresa aquí.."
        },
        "description":{
            "lable" : "Footer Section Description",
            "slug" :  "footer_description",
            "text" : "Lorem Ipsum es simplemente el texto de relleno de las imprentas y archivos de texto. Lorem Ipsum ha sido el texto de relleno estándar de la industria desde el año 1500.",
            "type" : "textarea",
            "placeholder" : "Por favor, ingresa aquí.."
        },
        "newsletter_title":{
            "lable" : "Footer Newsletter Title",
            "slug" :  "footer_newsletter_title",
            "text" : "Lorem Ipsum es simplemente el texto de relleno de las imprentas y archivos de texto. Lorem Ipsum ha sido el texto de relleno estándar de la industria desde el año 1500.",
            "type" : "textarea",
            "placeholder" : "Por favor, ingresa aquí.."
        },
        "newsletter_description":{
            "lable" : "Footer Newsletter Description",
            "slug" :  "footer_newsletter_description",
            "text" : "Lorem Ipsum es simplemente el texto de relleno de las imprentas y archivos de texto. Lorem Ipsum ha sido el texto de relleno estándar de la industria desde el año 1500.",
            "type" : "textarea",
            "placeholder" : "Por favor, ingresa aquí.."
        },
        "copy_right":{
            "lable" : "Footer Section Copyright",
            "slug" :  "footer_copyright",
            "text" : "© 2023, Giftsforher. Todos los derechos reservados",
            "type" : "textarea",
            "placeholder" : "Por favor, ingresa aquí.."
        }
        
    }
}
